political_actions = {

	targeted_race_for_the_bomb = {

		icon = generic_research

		allowed = {
			always = yes
		}

		available = {
			#Target is FROM
			has_tech = atomic_research
			NOT = { has_global_flag = first_nuke_dropped }
			NOT = { has_idea = race_for_the_bomb }
			NOT = { original_tag = BAR }
		}

		target_root_trigger = {
            has_tech = atomic_research
            NOT = { has_global_flag = first_nuke_dropped }
            NOT = { has_idea = race_for_the_bomb }
			NOT = { original_tag = BAR }
		}

		#If this trigger matches a country.
		target_trigger = {
			#Target is FROM
			FROM = {
        		NOT = {
					is_in_faction_with = ROOT
					original_tag = BAR
				}
				is_special_project_completed = sp:sp_nuclear_reactor
				any_owned_state = {
					nuclear_reactor > 0
				}
			}
		}

		visible = {
            #Target is FROM
            has_tech = atomic_research
            NOT = { has_global_flag = first_nuke_dropped }
            NOT = { has_idea = race_for_the_bomb }
            FROM = {
        		NOT = {
					is_in_faction_with = ROOT
					original_tag = BAR
				}
				is_special_project_completed = sp:sp_nuclear_reactor
				any_owned_state = {
					nuclear_reactor > 0
				}
			}
		}

		target_array = global.has_nuclear_reactor

		complete_effect = {
			set_country_flag = racing_for_the_bomb
			add_ideas = race_for_the_bomb
		}

		ai_will_do = {
			factor = 1
			modifier = {
				factor = 0
				has_global_flag = nukes_researched
			}
		}
	}

	improved_worker_conditions = {

		icon = generic_industry

		available = {
			has_stability < 1.0
			if = {
				limit = { tag = EQC }
				NOT = {
					has_country_flag = is_maresoc
                }
            }
            if = {
			  limit = {
				   original_tag = BAK
				}
				NOT = {
				   has_idea = BAK_elections
				}
			}
			if = {
				limit = {
					tag = WIN
				}
				NOT = {
					has_idea = WIN_chaos_in_the_city
				}
			}
		}

		visible = {
			always = yes
			OR = {
			    if = {
			        limit = { original_tag = TRD }
			        has_government = communism
				}
				if = {
			        limit = { original_tag = TRD }
			        has_government = fascism
				}
			    if = {
			        limit = { original_tag = TRD }
					AND = {
			            has_government = democratic
				        has_completed_focus = TRD_altesburg
					}
				}
			}
			if = {
				limit = { original_tag = BAL }
				NOT = { is_subject_of = CHN }
			}
		}

		fire_only_once = no

		modifier = {
			stability_weekly = 0.005
			consumer_goods_factor = 0.10
			industrial_capacity_factory = -0.1
		}

		days_remove = 180
		days_re_enable = 540

		cost = 100

		complete_effect = {
			log = "[GetDateText]: [Root.GetName]: Decision improved_worker_conditions"

		}

		ai_will_do = {
			base = 0
			modifier = {
				add = 1
				has_stability < 0.8
			}
			modifier = {
				add = 1
				has_stability < 0.6
			}
			modifier = {
				add = 5
				has_stability < 0.5
			}
			modifier = {
				add = 10
				has_stability < 0.3
			}
			modifier = {
				factor = 0
				num_of_civilian_factories_available_for_projects < 10
			}
		}
	}
}

economy_decisions = {
	restructure_supply_system = { #one time boost to get a few cheap supply hubs
		icon = GFX_decision_generic_construction

		visible = {
			OR = {
				is_major = no
				AND = {
					is_faction_leader = yes
					num_of_factories < 51 #would be a minor if it wasn't for faction leader status
				}
			}
		}
		fire_only_once = yes

		days_remove = 120

		ai_will_do = {
			factor = 1
			modifier = {
				num_of_factories < 30
				factor = 0
			}
		}

		modifier = {
			production_speed_supply_node_factor = 3
		}

		complete_effect = {
			set_variable = { node_goal = num_of_supply_nodes }
			add_to_variable = { node_goal = 3 } #maximum 3 additional nodes
		}

		cancel_trigger = {

			 check_variable = { node_goal < num_of_supply_nodes } #if the number of supply nodes exceeds the old number by +3, immediately cancel
		}
	}
	seize_some_trains_woo = { #repeating train seize
	icon = GFX_decision_hol_draw_up_staff_plans

		visible = {
			num_of_factories < 60
		}

		available = {
			has_equipment = { train_equipment < 101 }
			has_tech = basic_train
		}

		days_remove = 180

		ai_will_do = {
			base = 0
			modifier = {
				add = 1
				has_stability > 0.74
			}
		}

		complete_effect = {
			add_equipment_to_stockpile = {
				type = train_equipment
				amount = 15
			}
			add_stability = -0.05
		}
	}
	seize_some_trucks_woo = { #repeating truck seize
	icon = GFX_decision_hol_draw_up_staff_plans

		visible = {
			num_of_factories < 60
		}

		available = {
			has_equipment = { motorized_equipment < 2001 }
			has_tech = tech_trucks
		}

		days_remove = 180

		ai_will_do = {
			base = 0
			modifier = {
				add = 1
				has_stability > 0.74
			}
		}

		complete_effect = {
			add_equipment_to_stockpile = {
				type = motorized_equipment
				amount = 500
			}
			add_stability = -0.05
		}
	}


}

propaganda_efforts = {

	war_propaganda = {

		icon = generic_prepare_civil_war
		available = {
			NOT = { has_country_flag = war_propaganda_campaign_running }
			has_war_support < 0.5
			if = {
				limit = {
					OR = {
						tag = EQS
						tag = CRY
					}
					has_government = democratic
				}
				has_defensive_war = yes
			}
			if = {
			    limit = {
				    original_tag = BAK
				}
				NOT = {
				    has_idea = BAK_elections
				}
			}
			if = {
				limit = {
					original_tag = HIP
				}
				NOT = {has_idea = isolation}
			}
		}

		visible = {
            OR = {
				has_war_with_non_exiled_country = yes
				any_neighbor_country = {
					AND = {
						NOT = { has_government = ROOT }
						has_offensive_war = yes
						has_added_tension_amount > 10
					}
				}
			    if = {
			        limit = { original_tag = TRD }
			        has_government = communism
				}
				if = {
			        limit = { original_tag = TRD }
			        has_government = fascism
				}
			    if = {
			        limit = { original_tag = TRD }
					AND = {
			            has_government = democratic
				        has_completed_focus = TRD_altesburg
					}
			    }
			}
		}

		fire_only_once = no

		days_remove = 90
		days_re_enable = 180

		cost = 150

		modifier = {
			war_support_weekly = 0.005
		}

		complete_effect = {
			log = "[GetDateText]: [Root.GetName]: Decision war_propaganda"
			set_country_flag = { flag = war_propaganda_campaign_running value = 1 days = 90 } #TODO_Manu: This is a nasty fix so that the flag gets eventually removed if the target is annexed. days = days_remove
		}
		remove_effect = {
			log = "[GetDateText]: [Root.GetName]: Decision remove war_propaganda"
			clr_country_flag = war_propaganda_campaign_running
		}
		cancel_effect = {
			log = "[GetDateText]: [Root.GetName]: Decision cancel war_propaganda"
			clr_country_flag = war_propaganda_campaign_running
		}

		ai_will_do = {
			base = 0
			modifier = {
				add = 1
				has_war_support < 0.4
				has_war = yes
			}
		}
	}

	war_propaganda_casualties = {

		icon = generic_prepare_civil_war

		available = {
			#NOT = { has_country_flag = war_propaganda_campaign_running }
			has_casualties_war_support < 0
		}

		visible = {
			# has_war = yes
			has_war_with_non_exiled_country = yes
		}

		fire_only_once = no

		days_remove = 180

		remove_trigger = {
			has_war = no
        }

		cost = 100

		modifier = {
			weekly_casualties_war_support = 0.006
		}

		#complete_effect = {
		#	set_country_flag = war_propaganda_campaign_running
		#}
		#remove_effect = {
		#	clr_country_flag = war_propaganda_campaign_running
		#}

		ai_will_do = {
			base = 0
			modifier = {
				add = 10 #AI should probably just choose this one for general purposes.
				has_war = yes
				has_war_support < 0.7
			}
			modifier = {
				add = 20
				has_war = yes
				has_war_support < 0.5
			}
			modifier = {
				add = 30
				has_war = yes
				has_war_support < 0.3
			}
			modifier = {
				add = 201 #ie; consider prio idea
				has_war = yes
				has_casualties_war_support < -0.25
			}
			modifier = {
				factor = 0
				has_manpower < 100000
				has_political_power < 250
				OR = {
					has_idea = volunteer_only
					has_idea = limited_conscription
					has_idea = extensive_conscription
				}
			}
		}
	}

	war_propaganda_convoys = {

		icon = GFX_decision_generic_naval

		available = {
			#NOT = { has_country_flag = war_propaganda_campaign_running }
			has_convoys_war_support < 0
		}

		visible = {
			# has_war = yes
			has_war_with_non_exiled_country = yes
		}

		fire_only_once = no

		days_remove = 180

		remove_trigger = {
			has_war = no
        }

		cost = 100

		modifier = {
			weekly_convoys_war_support = 0.006
		}

		#complete_effect = {
		#	set_country_flag = war_propaganda_campaign_running
		#}
		#remove_effect = {
		#	clr_country_flag = war_propaganda_campaign_running
		#}

		ai_will_do = {
			base = 0
			modifier = {
				add = 201 #ie; consider prio idea
				has_war = yes
				has_convoys_war_support < -0.29
			}
			modifier = {
				factor = 0
				has_manpower < 100000
				has_political_power < 250
				OR = {
					has_idea = volunteer_only
					has_idea = limited_conscription
					has_idea = extensive_conscription
				}
			}
		}
	}

	war_propaganda_bombing = {

		icon = GFX_decision_generic_air

		available = {
		#	NOT = { has_country_flag = war_propaganda_campaign_running }
			has_bombing_war_support < 0
		}

		visible = {
			# has_war = yes
			has_war_with_non_exiled_country = yes
		}

		fire_only_once = no

		days_remove = 180

		remove_trigger = {
			has_war = no
        }

		cost = 100

		modifier = {
			weekly_bombing_war_support = 0.006
		}

		#complete_effect = {
		#	set_country_flag = war_propaganda_campaign_running
		#}
		#remove_effect = {
		#	clr_country_flag = war_propaganda_campaign_running
		#}

		ai_will_do = {
			base = 0
			modifier = {
				add = 10 #AI should probably just choose this one for general purposes.
				has_war = yes
				has_war_support < 0.65
			}
			modifier = {
				add = 20
				has_war = yes
				has_war_support < 0.50
			}
			modifier = {
				add = 30
				has_war = yes
				has_war_support < 0.35
			}
			modifier = {
				add = 201 #ie; consider prio idea
				has_war = yes
				has_bombing_war_support < -0.20
			}
			modifier = {
				factor = 0
				has_manpower < 100000
				has_political_power < 250
				OR = {
					has_idea = volunteer_only
					has_idea = limited_conscription
					has_idea = extensive_conscription
				}
			}
		}
	}

	war_propaganda_radio_industry = {

		icon = generic_prepare_civil_war

		available = {
			threat > 0.25
			has_tech = radio
			if = {
				limit = {
					original_tag = HIP
				}
				NOT = {has_idea = isolation}
			}
		}

		fire_only_once = yes

		cost = 75

		complete_effect = {
			add_war_support = 0.05
		}

		ai_will_do = {
			base = 0
			modifier = {
				add = 201
				has_war_support < 0.6
			}
		}
	}

	war_propaganda_film_industry = {

		icon = generic_prepare_civil_war

		available = {
			has_war_with_non_exiled_country = yes
			OR = {
				is_major = yes
				any_allied_country = {
					is_major = yes
				}
			}
			if = {
				limit = {
					NOT = { has_government = fascism }
				}
				threat > 0.5
			}
			else = {
				threat > 0.30
			}
			has_tech = electronic_mechanical_engineering
		}

		fire_only_once = yes

		cost = 100

		complete_effect = {
			effect_tooltip = {
				add_war_support = 0.10
			}
			hidden_effect = {
				country_event = political.33
			}
		}

		ai_will_do = {
			base = 0
			modifier = {
				add = 201
				has_war_support < 0.6
			}
		}
	}

}

operations = {


}

special_projects = {


}

war_measures = {

	emergency_factory_conversion_defensive = {

		icon = generic_industry

		available = {
			num_of_civilian_factories > 5 #Change this if amount of factories change
		}

		visible = {
			has_defensive_war = yes
			has_offensive_war = no
		}

		fire_only_once = no

		days_re_enable = 90

		cost = 100

		complete_effect = {
			log = "[GetDateText]: [Root.GetName]: Decision emergency_factory_conversion_defensive"
			replace_civ_with_arms_factories = yes
			add_war_support = -0.05
		}
		ai_will_do = {
			factor = 0
		}
	}

	emergency_factory_conversion_offensive = {

		icon = generic_industry

		available = {
			num_of_civilian_factories > 5 #Change this if amount of factories change
		}

		visible = {
			has_offensive_war = yes
		}

		fire_only_once = no

		days_re_enable = 90

		cost = 100

		complete_effect = {
			log = "[GetDateText]: [Root.GetName]: Decision emergency_factory_conversion_offensive"
			replace_civ_with_arms_factories = yes
			add_war_support = -0.05
			add_stability = -0.03
		}
		ai_will_do = {
			factor = 0
		}
	}

	desperate_defense = {

		icon = generic_prepare_civil_war

		available = {
			surrender_progress > 0.5
		}

		visible = {
			surrender_progress > 0
		}

		fire_only_once = no

		days_remove = 45
		days_re_enable = 360

		cost = 50
		ai_will_do = {
			factor = 10
			modifier = {
				surrender_progress > 0.6
				factor = 10
			}
		}

		modifier = {
			defence = 0.2
			dig_in_speed_factor = 0.5
			minimum_training_level = -0.05
		}

		complete_effect = {
			log = "[GetDateText]: [Root.GetName]: Decision desperate_defense"

		}
	}

	women_in_the_workforce = {

		icon = generic_industry

        allowed = {
            always = yes
        }

        available = {
            has_war = yes
			if = {
				limit = {
					NOT = { has_idea = totaler_krieg_economy }
				}
        		has_idea = tot_economic_mobilisation
			}
			else_if = {
				limit = {
					has_idea = totaler_krieg_economy
				}
				OR = {
					has_idea = totaler_krieg_economy
				}
			}
			has_war_support > 0.79
        }
        visible = {
            has_war = yes
        }
        cost = 100
        days_remove = -1
        remove_trigger = {
        	OR = {
            	has_war = no
            	not = { has_idea = tot_economic_mobilisation }
            }
        }
        modifier = {
            conscription = 0.03
            stability_factor = -0.05
        }
        ai_will_do = {
			factor = 1

			modifier = {
				factor = 3
				has_manpower < 100000
			}
		}
   }

	war_bonds = {

		icon = generic_industry

		allowed = {
			always = yes
		}

		available = {
			has_war = yes
			OR = {
				AND = {
					has_government = democratic
					has_war_support > 0.79
				}
				AND = {
					has_government = communism
					has_war_support > 0.79
				}
				AND = {
					has_government = fascism
					OR = {
						has_war_support > 0.89
						surrender_progress > 0
					}
				}
				AND = {
					has_government = neutrality
					has_war_support > 0.84
					has_stability > 0.7
				}
			}
		}
		visible = {
			has_war = yes
		}

		fire_only_once = no

		days_remove = 180

		cost = GER_war_bonds_var?50

		modifier = {
			consumer_goods_factor = -0.20
		}

		ai_will_do = {
			factor = 1
			modifier = {
				has_political_power < 100
				factor = 0 #use as pp dump
			}
		}

		remove_effect = {
			log = "[GetDateText]: [Root.GetName]: Decision remove war_bonds"

		}

		complete_effect = {
			log = "[GetDateText]: [Root.GetName]: Decision war_bonds"
			if = {
				limit = {
					check_variable = {
						var = GER_war_bonds_var
						value = 50
						compare = less_than
					}
				}
				set_variable = {
					var = GER_war_bonds_var
					value = 50
				}
			}
			add_to_variable = {
				var = GER_war_bonds_var
				value = 25
			}
			if = {
				limit = {
					check_variable = {
						var = GER_war_bonds_var
						value = 100
						compare = greater_than_or_equals
					}
					check_variable = {
						var = GER_war_bonds_war_support_var
						value = -0.025
						compare = greater_than
					}
				}
				set_variable = {
					var = GER_war_bonds_war_support_var
					value = -0.025
				}
			}
			if = {
				limit = {
					check_variable = {
						var = GER_war_bonds_war_support_var
						value = -0.025
						compare = less_than_or_equals
					}
				}
				add_to_variable = {
					var = GER_war_bonds_war_support_var
					value = -0.025
				}
				add_war_support = GER_war_bonds_war_support_var
			}
		}
    }
	diversify_special_forces = {

		icon = GFX_decision_generic_military

		available = {
			date > 1011.1.1
		}

		visible = {
			has_dlc = "Arms Against Tyranny"
			NOT = {
				OR = {
					tag = EQC #has a focus
					tag = WNG #has a focus
					tag = RCT #has a focus
				}
			}
		}

		fire_only_once = yes

		cost = 50

		complete_effect = {
			add_potential_special_forces_tree = yes
		}
		ai_will_do = {
			factor = 201
		}
	}
}

foreign_politics = {
	object_to_attaches = {

		allowed = {
		}

		cost = 50
		fire_only_once = no

		days_re_enable = 30

		available = {
		}

		visible = {
			NOT = { has_idea = detached_country }
			has_war = yes
			has_capitulated = no
			FROM = {
				NOT = { has_country_flag = rejected_withdrawing_attache }
				NOT = { has_country_flag = rejected_withdrawing_attache@ROOT }
				NOT = { has_country_flag = object_attache_going_on }
			}
			NOT = { has_war_with = FROM }
			any_enemy_country = {
				has_attache_from = FROM
			}
		}

		target_root_trigger = {
			NOT = { has_idea = detached_country }
			has_war = yes
			has_capitulated = no
		}

		target_array = global.countries_that_sent_attaches

		target_trigger = {
			NOT = { has_war_with = FROM }
			#FROM = { has_sent_attache = yes } # Make such trigger to optimize if it becomes a performance problem again.
			any_enemy_country = {
				has_attache_from = FROM
			}
		}

		complete_effect = {
			log = "[GetDateText]: [Root.GetName]: Decision object_to_attaches target: [From.GetName]"
			FROM = { country_event = { id = generic.14 hours = 6 } }
			hidden_effect = {
				FROM = { set_country_flag = object_attache_going_on }
			}
		}
		ai_will_do = {
			factor = 1
		}
	}
}

economy_decisions = {
	infrastructure_building_slot = {

		icon = generic_construction

		allowed = {
			always = yes
		}

		cost = 100
		fire_only_once = no

		days_re_enable = 30

		visible = {
			any_owned_state = {
				NOT = { has_state_flag = infrastructure_building_slot_flag }
				is_fully_controlled_by = ROOT
				free_building_slots = {
					building = infrastructure
					size < 1
				}
			}
			if = {
				limit = { original_tag = BAL }
				NOT = { is_subject_of = CHN }
			}
		}

		complete_effect = {
			log = "[GetDateText]: [Root.GetName]: Decision infrastructure_building_slot"
			random_owned_state = {
				limit = {
					is_fully_controlled_by = ROOT
					free_building_slots = {
						building = industrial_complex
						size > 1
						include_locked = yes
					}
					free_building_slots = {
						building = infrastructure
						size < 1
					}
					NOT = { has_state_flag = infrastructure_building_slot_flag }
				}
				add_extra_state_shared_building_slots = 1
				set_state_flag = infrastructure_building_slot_flag
			}
		}
		ai_will_do = {
			factor = 1
			modifier = {
				factor = 10
				all_owned_state = { free_building_slots = { building = industrial_complex size < 1 include_locked = no } }
			}
		}
	}

    war_building_slot = {

    	icon = generic_construction

        allowed = {
            always = yes
        }

        cost = 50
        fire_only_once = no

        available = {

			IF = {
				limit = {
					OR = {
						has_dlc = "Man the Guns"
						has_dlc = "By Blood Alone"
					}
				}
				has_war_with_non_exiled_country = yes
			}
			ELSE = {
				has_war = yes
			}
            any_owned_state = {
            	NOT = { has_state_flag = war_building_slot_flag }
            	is_fully_controlled_by = ROOT
            }
			if = {
				limit = { original_tag = BAL }
				NOT = { is_subject_of = CHN }
			}
        }

        visible = {
			has_war = yes
			any_owned_state = {
				NOT = { has_state_flag = war_building_slot_flag }
				is_fully_controlled_by = ROOT
			}
		}

		complete_effect = {
			log = "[GetDateText]: [Root.GetName]: Decision war_building_slot"
        	add_war_support = -0.025
			add_stability = -0.025
			if = {
				limit = {
					any_owned_state = {
						is_fully_controlled_by = ROOT
            			free_building_slots = {
							building = industrial_complex
							size > 1
							include_locked = yes
						}
						NOT = { has_state_flag = war_building_slot_flag }
						infrastructure > 4
					}
				}
				random_owned_state = {
					limit = {
						is_fully_controlled_by = ROOT
            			free_building_slots = {
							building = industrial_complex
							size > 1
							include_locked = yes
						}
						NOT = { has_state_flag = war_building_slot_flag }
						infrastructure > 4
					}
					add_extra_state_shared_building_slots = 1
					set_state_flag = war_building_slot_flag
				}
			}
			else_if = {
				limit = {
					any_owned_state = {
						is_fully_controlled_by = ROOT
            			free_building_slots = {
							building = industrial_complex
							size > 1
							include_locked = yes
						}
						NOT = { has_state_flag = war_building_slot_flag }
						infrastructure > 2
					}
				}
				random_owned_state = {
					limit = {
						is_fully_controlled_by = ROOT
            			free_building_slots = {
							building = industrial_complex
							size > 1
							include_locked = yes
						}
						NOT = { has_state_flag = war_building_slot_flag }
						infrastructure > 2
					}
					add_extra_state_shared_building_slots = 1
					set_state_flag = war_building_slot_flag
				}
			}
			else = {
				random_owned_state = {
					limit = {
						is_fully_controlled_by = ROOT
            			free_building_slots = {
							building = industrial_complex
							size > 1
							include_locked = yes
						}
						NOT = { has_state_flag = war_building_slot_flag }
						infrastructure > 4
					}
					add_extra_state_shared_building_slots = 1
					set_state_flag = war_building_slot_flag
				}
			}
		}
		ai_will_do = {
			base = 0
			modifier = {
				add = 1
				all_owned_state = { free_building_slots = { building = industrial_complex size < 1 include_locked = no } }
			}
		}
    }
}

foreign_politics = {
	build_naval_base_in_46_12343 = {
		icon = railroad
		allowed = {
			OR = {
				original_tag = CHN
				original_tag = CCN
				original_tag = OLE
			}
		}

		modifier = {
			civilian_factory_use = 1
		}

		visible = {
			is_ai = yes
			has_war = yes
		}

		available = {
			num_of_civilian_factories_available_for_projects > 0
			has_full_control_of_state = 46
		}

		ai_will_do = {
			base = 100
			modifier = {
				factor = 0
				OR = {
					is_faction_leader = no
					is_subject = yes
				}
			}
		}

		cost = 0
		days_remove = 120
		fire_only_once = yes
		complete_effect = {
			log = "[GetDateText]: [Root.GetName]: Decision build_naval_base_in_46_12343"
		}

		cancel_trigger = {
			NOT = {
				can_build_railway = {
					build_only_on_allied = yes
					start_province = 11617
					target_province = 3653
				}
			}
		}

		remove_effect = {
			log = "[GetDateText]: [Root.GetName]: Decision remove build_naval_base_in_46_12343"
			46 = {
				add_building_construction = {
					type = naval_base
					level = 1
					province = 12343
					instant_build = yes
				}
			}
		}
	}
	connect_supply_hubs_247_137 = {
		icon = railroad
		allowed = {
			OR = {
				original_tag = CHN
				original_tag = CCN
				original_tag = OLE
				original_tag = EQS
				original_tag = NLR
				original_tag = CRY
				original_tag = STG
			}
		}

		modifier = {
			civilian_factory_use = 1
		}

		visible = {
			is_ai = yes
		}

		available = {
			num_of_civilian_factories_available_for_projects > 0
			can_build_railway = {
				build_only_on_allied = yes
				start_province = 9571
				target_province = 748
			}
		}

		ai_will_do = {
			base = 100
			modifier = {
				factor = 0
				OR = {
					is_faction_leader = no
					is_subject = yes
				}
			}
		}

		cost = 0
		days_remove = 21
		fire_only_once = yes
		complete_effect = {
			log = "[GetDateText]: [Root.GetName]: Decision connect_supply_hubs_246_acornage"
			build_railway = {
				level = 2
				build_only_on_allied = yes
				start_province = 9571
				target_province = 748
			}
		}

		cancel_trigger = {
			NOT = {
				can_build_railway = {
					build_only_on_allied = yes
					start_province = 9571
				target_province = 748
				}
			}
		}

		remove_effect = {
			log = "[GetDateText]: [Root.GetName]: Decision remove connect_supply_hubs_247_137"
			build_railway = {
				level = 1
				build_only_on_allied = yes
				start_province = 11617
				target_province = 3653
			}
		}
	}

	connect_supply_hubs_246_136 = {
		icon = railroad
		allowed = {
			OR = {
				original_tag = CHN
				original_tag = CCN
				original_tag = OLE
				original_tag = EQS
				original_tag = NLR
				original_tag = CRY
				original_tag = STG
			}
		}

		modifier = {
			civilian_factory_use = 1
		}

		visible = {
			is_ai = yes
		}

		available = {
			num_of_civilian_factories_available_for_projects > 0
			can_build_railway = {
				build_only_on_allied = yes
				fallback = yes
				path = { 1118 6738 9694}
			}
		}

		ai_will_do = {
			base = 100
			modifier = {
				factor = 0
				OR = {
					is_faction_leader = no
					is_subject = yes
				}
			}
		}

		cost = 0
		days_remove = 1
		fire_only_once = yes
		complete_effect = {
			log = "[GetDateText]: [Root.GetName]: Decision connect_supply_hubs_246_136"
		}

		cancel_trigger = {
			NOT = {
				can_build_railway = {
					build_only_on_allied = yes
					path = { 1118 6738 9694}
				}
			}
		}

		remove_effect = {
			log = "[GetDateText]: [Root.GetName]: Decision remove connect_supply_hubs_246_136"
			build_railway = {
				level = 1
				build_only_on_allied = yes
				path = { 1118 6738 9694}
			}
		}
	}

	connect_supply_hubs_prov_4117_705 = {
		icon = railroad
		allowed = {
			OR = {
				original_tag = CHN
				original_tag = CCN
				original_tag = OLE
				original_tag = EQS
				original_tag = NLR
				original_tag = CRY
				original_tag = STG
			}
		}

		modifier = {
			civilian_factory_use = 1
		}

		visible = {
			is_ai = yes
		}

		available = {
			num_of_civilian_factories_available_for_projects > 0
			can_build_railway = {
				build_only_on_allied = yes
				start_province = 4117
				target_province = 705
			}
		}

		ai_will_do = {
			base = 100
			modifier = {
				factor = 0
				OR = {
					is_faction_leader = no
					is_subject = yes
				}
			}
		}

		cost = 0
		days_remove = 14
		fire_only_once = yes
		complete_effect = {
			log = "[GetDateText]: [Root.GetName]: Decision connect_supply_hubs_prov_4117_705"
		}

		cancel_trigger = {
			NOT = {
				can_build_railway = {
					build_only_on_allied = yes
					start_province = 4117
					target_province = 705
				}
			}
		}

		remove_effect = {
			log = "[GetDateText]: [Root.GetName]: Decision remove connect_supply_hubs_prov_4117_705"
			build_railway = {
				level = 1
				build_only_on_allied = yes
				start_province = 4117
				target_province = 705
			}
		}
	}

	connect_supply_hubs_prov_12501_10477 = {
		icon = railroad
		allowed = {
			OR = {
				original_tag = CHN
				original_tag = CCN
				original_tag = OLE
				original_tag = EQS
				original_tag = NLR
				original_tag = CRY
				original_tag = STG
				original_tag = PLB
			}
		}

		modifier = {
			civilian_factory_use = 1
		}

		visible = {
			is_ai = yes
		}

		available = {
			num_of_civilian_factories_available_for_projects > 0
			can_build_railway = {
				build_only_on_allied = yes
				start_province = 12501
				target_province = 10477
			}
		}

		ai_will_do = {
			base = 100

			modifier = {
				factor = 0
				OR = {
					is_faction_leader = no
					is_subject = yes
				}
			}
		}

		cost = 0
		days_remove = 14
		fire_only_once = yes
		complete_effect = {
			log = "[GetDateText]: [Root.GetName]: Decision connect_supply_hubs_prov_12501_10477"
		}

		cancel_trigger = {
			NOT = {
				can_build_railway = {
					build_only_on_allied = yes
					start_province = 12501
					target_province = 10477
				}
			}
		}

		remove_effect = {
			log = "[GetDateText]: [Root.GetName]: Decision remove connect_supply_hubs_prov_12501_10477"
			build_railway = {
				level = 1
				build_only_on_allied = yes
				start_province = 12501
				target_province = 10477
			}
		}
	}

	connect_supply_hubs_prov_7536_13217 = {
		icon = railroad
		allowed = {
			OR = {
				original_tag = CHN
				original_tag = CCN
				original_tag = OLE
				original_tag = EQS
				original_tag = NLR
				original_tag = CRY
				original_tag = STG
				original_tag = PLB
				original_tag = PNG
				original_tag = GRF
			}
		}

		modifier = {
			civilian_factory_use = 1
		}

		visible = {
			is_ai = yes
		}

		available = {
			num_of_civilian_factories_available_for_projects > 0
			can_build_railway = {
				build_only_on_allied = yes
				start_province = 7536
				target_province = 13217
			}
		}

		ai_will_do = {
			base = 100

			modifier = {
				factor = 0
				OR = {
					is_faction_leader = no
					is_subject = yes
				}
			}
		}

		cost = 0
		days_remove = 21
		fire_only_once = yes
		complete_effect = {
			log = "[GetDateText]: [Root.GetName]: Decision connect_supply_hubs_prov_7536_13217"
		}

		cancel_trigger = {
			NOT = {
				can_build_railway = {
					build_only_on_allied = yes
					start_province = 7536
					target_province = 13217
				}
			}
		}

		remove_effect = {
			log = "[GetDateText]: [Root.GetName]: Decision remove connect_supply_hubs_prov_7536_13217"
			build_railway = {
				level = 1
				build_only_on_allied = yes
				start_province = 7536
				target_province = 13217
			}
		}
	}
	
	connect_supply_hubs_grf_civil_war = {
		icon = railroad
		allowed = {
			original_tag = GRF
		}

		modifier = {
			civilian_factory_use = 1
		}

		visible = {
			is_ai = yes
		}

		available = {
			has_global_flag = GRF_civil_war_begun
			OR = {
				has_idea = GRF_fight_until_the_end
				has_idea = GRF_civil_war_stage_2
				has_idea = GRF_civil_war_stage_1
			}
			num_of_civilian_factories_available_for_projects > 0
			can_build_railway = {
				build_only_on_allied = yes
				start_province = 11541
				target_province = 9411
			}
		}

		ai_will_do = {
			base = 100
		}

		cost = 0
		days_remove = 10
		fire_only_once = yes
		complete_effect = {
			log = "[GetDateText]: [Root.GetName]: Decision connect_supply_hubs_grf_civil_war"
		}

		cancel_trigger = {
			NOT = {
				can_build_railway = {
					build_only_on_allied = yes
					start_province = 11541
					target_province = 9411
				}
			}
		}

		remove_effect = {
			log = "[GetDateText]: [Root.GetName]: Decision remove connect_supply_hubs_grf_civil_war"
			build_railway = {
				level = 1
				build_only_on_allied = yes
				start_province = 11541
				target_province = 9411
			}
			build_railway = {
				level = 1
				build_only_on_allied = yes
				start_province = 11541
				target_province = 3508
			}
		}
	}
}