WNG_beakolinis_march = {
	WNG_beakolinis_march_mission = {
		priority = 200
		allowed = {
			original_tag = WNG
		}

		available = {
			OR = {
				has_country_flag = WNG_march_stopped
				has_government = fascism
			}
		}

		activation = {
			NOT = {
				has_country_flag = WNG_march_stopped
			}
		}

		fixed_random_seed = no

		fire_only_once = yes

		is_good = no

		days_mission_timeout = 85

		timeout_effect = {
			if = {
				limit = {
					has_completed_focus = WNG_prepare_the_counterrevolution
				}
				country_event = wingbardy.50
				WNG_start_civil_war_commie = yes
			}
			else = {
				country_event = wingbardy.9
				effect_tooltip = {
					add_stability = -0.15
					add_political_power = -100
					set_politics = {
						ruling_party = fascism
						elections_allowed = no
					}
				}
			}
		}
	}
	WNG_prepare_for_the_revolution = {
		priority = 199

		state_target = any_owned_state

		targets = { 369 370 371 372 373 374 375 536 }

		available = {
			NOT = {
				has_country_flag = WNG_prepairing_for_revolution_in_state
			}
			FROM = {
				NOT = {
					has_state_flag = WNG_communist_state
				}
			}
		}

		visible = {
			has_completed_focus = WNG_prepare_the_counterrevolution
			FROM = {
				is_core_of = WNG
				NOT = {
					has_state_flag = WNG_communist_state
				}
			}
			NOT = {
				has_global_flag = WNG_civil_war
			}
		}
		ai_will_do = {
			base = 200
			modifier = {
				factor = 0
				NOT = {
					FROM = {
						any_neighbor_state = {
							has_state_flag = WNG_communist_state
						}
					}
				}
			}
		}
		fire_only_once = no
		days_remove = 14
		on_map_mode = map_only
		cost = 10
		complete_effect = {
			set_country_flag = WNG_prepairing_for_revolution_in_state
		}
		remove_effect = {
			clr_country_flag = WNG_prepairing_for_revolution_in_state
			FROM = {
				set_state_flag = WNG_communist_state
			}
		}
	}
	WNG_anti_fascist_rebellion_mission = {
		priority = 199
		allowed = {
			#original_tag = WNG
			always = no
		}

		available = {
			OR = {
				has_stability > 0.1
				fascism >0.9
			}
		}

		activation = {
			has_stability < 0.1
			has_government = fascism
		}

		fixed_random_seed = no

		fire_only_once = yes

		is_good = no

		days_mission_timeout = 30

		timeout_effect = {
			#TODO Move this to an event
			WNG_start_anti_fascist_civil_war = yes
		}
	}
}

WNG_tarrin_conference_cat = {
	WNG_time_until_conference = {
		priority = 200

		allowed = {
			original_tag = WNG
		}
		available = {
			hidden_trigger = {
				always = no
			}
		}
		activation = {
			has_completed_focus = WNG_the_tarrin_compromise
			FRN = {
				exists = yes
				OR = {
					owns_state = 487
					owns_state = 652
					owns_state = 521
				}
			}
			NOT = {
				has_country_flag = WNG_conference_happened
			}
		}
		visible = {
			has_completed_focus = WNG_the_tarrin_compromise
			FRN = {
				exists = yes
				OR = {
					owns_state = 487
					owns_state = 652
					owns_state = 521
				}
			}
		}

		fire_only_once = yes

		is_good = yes

		days_mission_timeout = 60

		timeout_effect = {
			set_country_flag = WNG_conference_happened
			country_event = wingbardy.20
		}
	}

	WNG_influence_franmistria = {
		cost = 75
		days_remove = 11
		ai_will_do = {
			factor = 100
		}
		allowed = {
			original_tag = WNG
		}
		visible = {
			has_completed_focus = WNG_the_tarrin_compromise
			NOT = {
				has_country_flag = WNG_conference_happened
			}
		}
		complete_effect = {
			custom_effect_tooltip = WNG_influence_franmistria_tt
			FRN = {
				add_to_variable = {
					var = chance_to_hand_over_tarrin
					value = 2
				}
			}
		}
	}

	WNG_bribe_franmistrian_ministers = {
		cost = 125
		days_remove = 14
		ai_will_do = {
			factor = 200
		}
		allowed = {
			original_tag = WNG
		}
		visible = {
			has_completed_focus = WNG_the_tarrin_compromise
			NOT = {
				has_country_flag = WNG_conference_happened
			}
		}
		complete_effect = {
			custom_effect_tooltip = WNG_bribe_franmistrian_ministers_tt
			FRN = {
				add_to_variable = {
					var = chance_to_hand_over_tarrin
					value = 3
				}
			}
		}
	}

	WNG_visit_franmistria = {
		cost = 200
		fire_only_once = yes
		ai_will_do = {
			factor = 300
		}
		allowed = {
			original_tag = WNG
		}
		visible = {
			has_completed_focus = WNG_the_tarrin_compromise
			NOT = {
				has_country_flag = WNG_conference_happened
			}
		}
		complete_effect = {
			custom_effect_tooltip = WNG_visit_franmistria_tt
			FRN = {
				add_to_variable = {
					var = chance_to_hand_over_tarrin
					value = 4
				}
			}
		}
	}
}

form_WNG_workers_empire_category = {

	form_WNG_workers_empire = {

		icon = generic_form_nation

		allowed = {
			original_tag = WNG
		}

		visible = {
			original_tag = WNG
			has_completed_focus = WNG_the_workers_empire
			has_government = communism
			NOT = { has_global_flag = form_wingbardian_empire_flag }
		}

		available = {
			is_subject = no
			owns_state = 371
			OR = {
				owns_state = 366
				TAL = {
					is_subject_of = ROOT
				}
			}
			OR = {
				owns_state = 408
				ARA = {
					is_subject_of = ROOT
				}
			}
			OR = {
				owns_state = 529
				FAL = {
					is_subject_of = ROOT
				}
			}
			OR = {
				owns_state = 445
				SIC = {
					is_subject_of = ROOT
				}
			}
			OR = {
				owns_state = 515
				FRN = {
					is_subject_of = ROOT
				}
			}
		}

		complete_effect = {
			log = "[GetDateText]: [Root.GetName]: Decision form_WNG_workers_empire"
			set_cosmetic_tag = WNG_EMPIRE
			set_country_flag = is_wng_empire
			if = {
				limit = {
					has_country_leader = {
						character = WNG_antonino_proletarino
						ruling_only = yes
					}
				}
				WNG_antonino_proletarino = {
					set_portraits = {
						civilian = {
							large = "gfx/leaders/WNG/portrait_k_prolet.tga"
						}
					}
				}
			}
			if = {
				limit = {
					371 = {
						is_capital = no
					}
				}
				set_capital = {
					state = 371
					remember_old_capital = no
				}
			}
			WNG = { add_to_ROOT_potential_cores = yes }
			FAL = { add_to_ROOT_potential_cores = yes }
			SIC = { add_to_ROOT_potential_cores = yes }
			TAL = { add_to_ROOT_potential_cores = yes }
			FRN = { add_to_ROOT_potential_cores = yes }
			ARA = { add_to_ROOT_potential_cores = yes }
			hidden_effect = {
				news_event = { id = news_wingbardy.11 hours = 6 }
				set_global_flag = form_wingbardian_empire_flag
			}
		}

		ai_will_do = {
			factor = 200
		}
	}
	allow_pony_citizenship_commie = {

		icon = generic_civil_support

		visible = {
			OR = {
				AND = {
					NOT = {
						original_tag = WNG
					}
					WNG = {
						OR = {
							exists = no
							is_subject_of = ROOT
						}
					}
				}
				AND = {
					original_tag = WNG
					has_completed_focus = WNG_the_workers_empire
				}
			}
		}

		fire_only_once = yes

		cost = 75

		available = {
			is_subject = no
			# Wingbardy
			has_country_flag = is_wng_empire
			owns_state = 356
		}

		complete_effect = {
			log = "[GetDateText]: [Root.GetName]: Decision form_WNG_wingbardian_empire"
			EQC = { add_to_ROOT_potential_cores = yes }
		}

		ai_will_do = {
			factor = 150
		}
	}
	intergrate_griffonstone_c = {

		icon = generic_civil_support

		visible = {
			OR = {
				AND = {
					NOT = {
						original_tag = WNG
					}
					WNG = {
						OR = {
							exists = no
							is_subject_of = ROOT
						}
					}
				}
				AND = {
					original_tag = WNG
					has_completed_focus = WNG_the_workers_empire
				}
			}
		}

		fire_only_once = yes

		cost = 75

		available = {
			is_subject = no
			# Wingbardy
			has_country_flag = is_wng_empire
			owns_state = 389
		}

		complete_effect = {
			log = "[GetDateText]: [Root.GetName]: Decision form_WNG_wingbardian_empire"
			BOI = { add_to_ROOT_potential_cores = yes }
		}

		ai_will_do = {
			factor = 150
		}
	}
	intergrate_rumare_c = {

		icon = generic_civil_support

		visible = {
			OR = {
				AND = {
					NOT = {
						original_tag = WNG
					}
					WNG = {
						OR = {
							exists = no
							is_subject_of = ROOT
						}
					}
				}
				AND = {
					original_tag = WNG
					has_completed_focus = WNG_the_workers_empire
				}
			}
		}

		fire_only_once = yes

		cost = 50

		available = {
			is_subject = no
			# Wingbardy
			has_country_flag = is_wng_empire
			owns_state = 383
		}

		complete_effect = {
			log = "[GetDateText]: [Root.GetName]: Decision form_WNG_wingbardian_empire"
			LAK = { add_to_ROOT_potential_cores = yes }
		}

		ai_will_do = {
			factor = 150
		}
	}
	#intergrate_the_mountains_c = {
#
#		icon = generic_civil_support
#
#		visible = {
#			OR = {
#				AND = {
#					NOT = {
#						original_tag = WNG
#					}
#					WNG = {
#						OR = {
#							exists = no
#							is_subject_of = ROOT
#						}
#					}
#				}
#				AND = {
#					original_tag = WNG
#					has_completed_focus = WNG_the_workers_empire
#				}
#			}
#		}
#
#		fire_only_once = yes
#
#		cost = 50
#
#		available = {
#			is_subject = no
#			# Wingbardy
#			has_country_flag = is_wng_empire
#			BAN = { all_cores_owned_by_ROOT_or_subject = yes }
#		}
#
#		complete_effect = {
#			log = "[GetDateText]: [Root.GetName]: Decision form_WNG_wingbardian_empire"
#			BAN = { add_to_ROOT_potential_cores = yes }
#		}
#
#		ai_will_do = {
#			factor = 150
#		}
#	}
	intergrate_cyanolisia_c = {

		icon = generic_civil_support

		visible = {
			OR = {
				AND = {
					NOT = {
						original_tag = WNG
					}
					WNG = {
						OR = {
							exists = no
							is_subject_of = ROOT
						}
					}
				}
				AND = {
					original_tag = WNG
					has_completed_focus = WNG_the_workers_empire
				}
			}
		}

		fire_only_once = yes

		cost = 50

		available = {
			is_subject = no
			# Wingbardy
			has_country_flag = is_wng_empire
			owns_state = 671
		}

		complete_effect = {
			log = "[GetDateText]: [Root.GetName]: Decision form_WNG_wingbardian_empire"
			671 = {
				add_core_of = ROOT
			}
		}

		ai_will_do = {
			factor = 150
		}
	}
}

form_WNG_wingbardian_empire_category = {

	form_WNG_wingbardian_empire = {

		icon = generic_form_nation

		visible = {
			OR = {
				AND = {
					NOT = {
						original_tag = WNG
					}
					WNG = {
						OR = {
							exists = no
							is_subject_of = ROOT
						}
					}
				}
				AND = {
					original_tag = WNG
					OR = {
						has_completed_focus = WNG_wingbard_empire
						has_completed_focus = WNG_the_karthinian_restoration
						has_completed_focus = WNG_unite_the_kingdoms
					}
				}
			}
			if = {
				limit = {
					original_tag = TAL
				}
				NOT = {
					has_government = fascism
					has_government = communism
				}
			}
			NOT = { has_global_flag = form_wingbardian_empire_flag }
		}
		available = {
			is_subject = no
			# Wingbardy
			OR = {
				owns_state = 371
				WNG = {
					is_subject_of = ROOT
				}
			}
			OR = {
				owns_state = 366
				TAL = {
					is_subject_of = ROOT
				}
			}
			OR = {
				owns_state = 408
				ARA = {
					is_subject_of = ROOT
				}
			}
			OR = {
				owns_state = 529
				FAL = {
					is_subject_of = ROOT
				}
			}
			OR = {
				owns_state = 445
				SIC = {
					is_subject_of = ROOT
				}
			}
			OR = {
				owns_state = 515
				FRN = {
					is_subject_of = ROOT
				}
			}
		}

		complete_effect = {
			log = "[GetDateText]: [Root.GetName]: Decision form_WNG_wingbardian_empire"
			set_country_flag = is_wng_empire
			if = {
                limit = {
                    tag = FAL
				}
                drop_cosmetic_tag = yes
                set_cosmetic_tag = FAL_Falcoria
				if = {
					limit = {
						has_government = fascism
					}
					country_event = falcor.24
				}
			}
			else = {
				set_capital = {
					state = 371
					remember_old_capital = no
				}
			}
			if = {
				limit = {
					has_cosmetic_tag = JER_FRN_formed
				}
				drop_cosmetic_tag = yes
				set_cosmetic_tag = FRN_karthinia_aquileia
			}
			else_if = {
				limit = {
					has_country_flag = have_regular_puppets
				}
				set_cosmetic_tag = WNG_EMPIRE_REPUBLIC
			}
			else_if = {
				limit = {
					NOT = {original_tag = FAL }
				}
				set_cosmetic_tag = WNG_EMPIRE
			}
			WNG = { add_to_ROOT_potential_cores = yes }
			FAL = { add_to_ROOT_potential_cores = yes }
			SIC = { add_to_ROOT_potential_cores = yes }
			TAL = { add_to_ROOT_potential_cores = yes }
			FRN = { add_to_ROOT_potential_cores = yes }
			ARA = { add_to_ROOT_potential_cores = yes }
			if = {
				limit = {
					has_country_leader = {
						character = WNG_giulio_beakolini
						ruling_only = yes
					}
				}
				WNG_giulio_beakolini = {
					set_portraits = {
						civilian = {
							large = "gfx/leaders/WNG/portrait_wingbardy_giulio_beakolini_karthin.tga"
						}
					}
				}
			}
			hidden_effect = {
				news_event = { id = news_wingbardy.10 hours = 6 }
				set_global_flag = form_wingbardian_empire_flag
			}
		}

		ai_will_do = {
			factor = 200
		}
	}
	allow_pony_citizenship = {

		icon = generic_civil_support

		visible = {
			OR = {
				AND = {
					NOT = {
						original_tag = WNG
					}
					WNG = {
						OR = {
							exists = no
							is_subject_of = ROOT
						}
					}
				}
				AND = {
					original_tag = WNG
					OR = {
						has_completed_focus = WNG_wingbard_empire
						has_completed_focus = WNG_the_karthinian_restoration
						has_completed_focus = WNG_unite_the_kingdoms
					}
				}
			}
			NOT = { has_country_leader = { ruling_only = yes character = TAL_amilcare_fetivola } }
		}

		fire_only_once = yes

		cost = 75

		available = {
			is_subject = no
			has_war = no
			# Wingbardy
			has_country_flag = is_wng_empire
			has_full_control_of_state = 356
			has_full_control_of_state = 360
			has_full_control_of_state = 361
			has_full_control_of_state = 675
			has_full_control_of_state = 676
			has_full_control_of_state = 362
			has_full_control_of_state = 363
			has_full_control_of_state = 364
			has_full_control_of_state = 365
			has_full_control_of_state = 354
			has_full_control_of_state = 355
			has_full_control_of_state = 356
			has_full_control_of_state = 357
			has_full_control_of_state = 358
			has_full_control_of_state = 359
			EQC = {
				exists = no
			}
		}

		complete_effect = {
			log = "[GetDateText]: [Root.GetName]: Decision form_WNG_wingbardian_empire"
			custom_effect_tooltip = release_EQC_tp
			hidden_effect = {
				add_state_core = 358
				EQC = {
					transfer_state = 360
					transfer_state = 361
					transfer_state = 675
					transfer_state = 676
					transfer_state = 362
					transfer_state = 363
					transfer_state = 364
					transfer_state = 365
					transfer_state = 354
					transfer_state = 355
					transfer_state = 356
					transfer_state = 357
					transfer_state = 359
					ROOT = {
						puppet = PREV
					}
				}
				EQC = {
					generate_character = {
						token_base = WNG_EQC_puppet_leader
						name = WNG_EQC_puppet_leader
					}
					if = {
						limit = {
							has_character = WNG_EQC_puppet_leader
						}
						set_portraits = {
							character = WNG_EQC_puppet_leader
							civilian = { large ="gfx/leaders/Asia/Unknown_Griffon.dds" }
						}
						add_country_leader_role = {
							character = WNG_EQC_puppet_leader
							country_leader = {
								expire = "1965.1.1"
								ideology = despotism
							}
							promote_leader = yes
						}
						add_country_leader_role = {
							character = WNG_EQC_puppet_leader
							country_leader = {
								expire = "1965.1.1"
								ideology = fascism_ideology
							}
							promote_leader = yes
						}
					}
					if = {
						limit = {
							ROOT = {
								original_tag = FAL
							}
						}
						set_cosmetic_tag = EQC_FAL_protectorate
					}
					else_if = {
						limit = {
							ROOT = {
								original_tag = WNG
							}
						}
						set_cosmetic_tag = EQC_WNG_protectorate
					}
					load_focus_tree = { tree = generic_griffon_focus keep_completed = no }
				}
			}
		}
		ai_will_do = {
			factor = 150
		}
	}
	intergrate_griffonstone = {

		icon = generic_civil_support

		visible = {
			OR = {
				AND = {
					NOT = {
						original_tag = WNG
					}
					WNG = {
						OR = {
							exists = no
							is_subject_of = ROOT
						}
					}
				}
				AND = {
					original_tag = WNG
					OR = {
						has_completed_focus = WNG_wingbard_empire
						has_completed_focus = WNG_the_karthinian_restoration
						has_completed_focus = WNG_unite_the_kingdoms
					}
				}
			}
			NOT = { has_country_leader = { ruling_only = yes character = TAL_amilcare_fetivola } }
		}

		fire_only_once = yes

		cost = 75

		available = {
			is_subject = no
			# Wingbardy
			has_country_flag = is_wng_empire
			owns_state = 389
		}

		complete_effect = {
			log = "[GetDateText]: [Root.GetName]: Decision form_WNG_wingbardian_empire"
			BOI = { add_to_ROOT_potential_cores = yes }
		}

		ai_will_do = {
			factor = 150
		}
	}
	intergrate_rumare = {

		icon = generic_civil_support

		visible = {
			OR = {
				AND = {
					NOT = {
						original_tag = WNG
					}
					WNG = {
						OR = {
							exists = no
							is_subject_of = ROOT
						}
					}
				}
				AND = {
					original_tag = WNG
					OR = {
						has_completed_focus = WNG_wingbard_empire
						has_completed_focus = WNG_the_karthinian_restoration
						has_completed_focus = WNG_unite_the_kingdoms
					}
				}
			}
			NOT = { has_country_leader = { ruling_only = yes character = TAL_amilcare_fetivola } }
		}

		fire_only_once = yes

		cost = 50

		available = {
			is_subject = no
			# Wingbardy
			has_country_flag = is_wng_empire
			owns_state = 383
		}

		complete_effect = {
			log = "[GetDateText]: [Root.GetName]: Decision form_WNG_wingbardian_empire"
			LAK = { add_to_ROOT_potential_cores = yes }
		}

		ai_will_do = {
			factor = 150
		}
	}
	#intergrate_the_mountains = {
#
#		icon = generic_civil_support
#
#		visible = {
#			OR = {
#				AND = {
#					NOT = {
#						original_tag = WNG
#					}
#					WNG = {
#						OR = {
#							exists = no
#							is_subject_of = ROOT
#						}
#					}
#				}
#				AND = {
#					original_tag = WNG
#					OR = {
#						has_completed_focus = WNG_wingbard_empire
#						has_completed_focus = WNG_the_karthinian_restoration
#					}
#				}
#			}
#		}
#
#		fire_only_once = yes
#
#		cost = 50
#
#		available = {
#			is_subject = no
#			# Wingbardy
#			has_country_flag = is_wng_empire
#			BAN = { all_cores_owned_by_ROOT_or_subject = yes }
#		}
#
#		complete_effect = {
#			log = "[GetDateText]: [Root.GetName]: Decision form_WNG_wingbardian_empire"
#			BAN = { add_to_ROOT_potential_cores = yes }
#		}
#
#		ai_will_do = {
#			factor = 150
#		}
#	}
	intergrate_cyanolisia = {

		icon = generic_civil_support

		visible = {
			OR = {
				AND = {
					NOT = {
						original_tag = WNG
					}
					WNG = {
						OR = {
							exists = no
							is_subject_of = ROOT
						}
					}
				}
				AND = {
					original_tag = WNG
					OR = {
						has_completed_focus = WNG_wingbard_empire
						has_completed_focus = WNG_the_karthinian_restoration
						has_completed_focus = WNG_unite_the_kingdoms
					}
				}
			}
			NOT = { has_country_leader = { ruling_only = yes character = TAL_amilcare_fetivola } }
		}

		fire_only_once = yes

		cost = 50

		available = {
			is_subject = no
			# Wingbardy
			has_country_flag = is_wng_empire
			owns_state = 671
		}

		complete_effect = {
			log = "[GetDateText]: [Root.GetName]: Decision intergrate_cyanolisia"
			671 = {
				add_core_of = ROOT
			}
		}

		ai_will_do = {
			factor = 150
		}
	}
	WNG_hand_over_land_to_minotaurs = {

		icon = generic_civil_support

		visible = {
			original_tag = WNG
			has_government = fascism
			MIT = {
				exists = yes
				has_government = fascism
				NOT = { has_war_with = WNG }
			}
			OR = {
				owns_state = 510
				owns_state = 511
				owns_state = 507
			}
		}

		fire_only_once = yes

		cost = 50

		available = {
			is_subject = no
			OR = {
				owns_state = 510
				owns_state = 511
				owns_state = 507
			}
			MIT = {
				exists = yes
				has_government = fascism
				NOT = { has_war_with = WNG }
			}
		}

		complete_effect = {
			log = "[GetDateText]: [Root.GetName]: Decision WNG_hand_over_land_to_minotaurs"
			if = {
				limit = {
					owns_state = 510
				}
				MIT = {
					transfer_state = 510
				}
			}
			if = {
				limit = {
					owns_state = 511
				}
				MIT = {
					transfer_state = 511
				}
			}
			if = {
				limit = {
					owns_state = 507
				}
				MIT = {
					transfer_state = 507
				}
			}
			if = {
				limit = {
					owns_state = 446
				}
				MIT = {
					transfer_state = 446
				}
			}
			MIT = {
				country_event = wingbardy.100
			}
		}
		ai_will_do = {
			factor = 150
		}
	}
}

WNG_reunifying_the_republic_category = {
	WNG_offer_associate_status_to_TAG = {
		icon = generic_form_nation

		allowed = {
			original_tag = WNG
		}

		targets = { TAL FRN ARA FAL SIC FAL }
		targets_dynamic = yes
		target_trigger = {
			FROM = {
				OR = {
					original_tag = TAL
					original_tag = FRN
					original_tag = ARA
					original_tag = SIC
					original_tag = FAL
				}
			}
		}
		available = {
			if = {
				limit = {
					FROM = {
						original_tag = TAL
					}
				}
				has_completed_focus = WNG_unite_with_talouse
			}
			else_if = {
				limit = {
					FROM = {
						original_tag = ARA
					}
				}
				has_completed_focus = WNG_unite_with_arantiga
			}
			else_if = {
				limit = {
					FROM = {
						original_tag = FRN
					}
				}
				has_completed_focus = WNG_unite_with_arantiga
			}
			else_if = {
				limit = {
					FROM = {
						original_tag = SIC
					}
				}
				has_completed_focus = WNG_unite_with_sicameon
			}
			else_if = {
				limit = {
					FROM = {
						original_tag = FAL
					}
				}
				has_completed_focus = WNG_unite_with_falcor
			}
			FROM = {
				is_in_faction_with = ROOT
				NOT = { has_idea = WNG_intergration }
			}
		}
		target_root_trigger = {
			is_subject = no
			has_government = democratic
		}
		visible = {
			FROM = {
				exists = yes
				NOT = {
					is_subject_of = ROOT
				}
			}
		}
		cost = 50

		fire_only_once = yes

		complete_effect = {
			FROM = { country_event = wingbardy.90 }
			custom_effect_tooltip = if_they_accept
			effect_tooltip = {
				puppet = FROM
				FROM = {
					add_ideas = WNG_intergration
				}
			}
		}

		ai_will_do = {
			factor = 100
		}
	}
	WNG_intergrate_TAG = {
		icon = generic_form_nation

		allowed = {
			original_tag = WNG
		}

		targets = { TAL FRN ARA FAL SIC }
		targets_dynamic = yes
		target_trigger = {
			FROM = {
				OR = {
					original_tag = TAL
					original_tag = FRN
					original_tag = ARA
					original_tag = SIC
					original_tag = FAL
				}
			}
		}
		available = {
			FROM = {
				is_subject_of = ROOT
				has_autonomy_state = autonomy_integrated_puppet
			}
		}
		target_root_trigger = {
			is_subject = no
			has_government = democratic
		}
		visible = {
			FROM = {
				exists = yes
			}
		}
		cost = 50

		fire_only_once = yes

		complete_effect = {
			FROM = {
				every_core_state = {
					limit = {
						NOT = {
							is_core_of = ROOT
						}
					}
					add_core_of = ROOT
				}
			}
			FROM = {
				transfer_navy = {
					target = ROOT
				}
				every_character = {
					limit = {
						is_unit_leader = yes
						is_country_leader = no
					}
					set_nationality = ROOT
				}
			}
			annex_country = {
				target = FROM
				transfer_troops = yes
			}
		}

		ai_will_do = {
			factor = 100
		}
	}
}

foreign_politics = {

	WNG_puppet_commie_neighbours = {

		icon = generic_form_nation

		allowed = {
			original_tag = WNG
		}
		targets = { TAL FRN ARA FAL SIC }
		targets_dynamic = yes
		target_trigger = {
			FROM = {
				OR = {
					original_tag = TAL
					original_tag = FRN
					original_tag = ARA
					original_tag = FAL
					original_tag = SIC
				}
			}
		}

		available = {
			FROM = {
				is_in_faction_with = ROOT
				is_free_or_subject_of_root = yes
				has_government = communism
				NOT = { has_idea = WNG_intergration }
			}
		}
		target_root_trigger = {
			is_subject = no
			has_government = communism
			has_completed_focus = WNG_the_workers_empire
		}
		visible = {
			is_subject = no
			has_government = communism
			has_completed_focus = WNG_the_workers_empire
			FROM = {
				exists = yes
				OR = {
					original_tag = TAL
					original_tag = FRN
					original_tag = ARA
					original_tag = FAL
					original_tag = SIC
				}
			}
		}

		cost = 50

		fire_only_once = yes

		complete_effect = {
			log = "[GetDateText]: [Root.GetName]: Decision WNG_puppet_commie_neighbours target: [From.GetName]"
			FROM = { country_event = wingbardy.141 }
		}

		ai_will_do = {
			factor = 100
		}
	}

	WNG_puppet_fascist_neighbours = {

		icon = generic_form_nation

		allowed = {
			original_tag = WNG
		}
		targets = { TAL FRN ARA FAL SIC }
		targets_dynamic = yes
		target_trigger = {
			FROM = {
				OR = {
					original_tag = TAL
					original_tag = FRN
					original_tag = ARA
					original_tag = FAL
					original_tag = SIC
				}
			}
		}

		available = {
			FROM = {
				is_in_faction_with = ROOT
				is_free_or_subject_of_root = yes
				NOT = { has_government = communism }
				NOT = { has_idea = WNG_intergration }
			}
		}
		target_root_trigger = {
			is_subject = no
			has_completed_focus = WNG_wingbard_empire
			OR = {
				has_government = fascism
				has_government = neutrality
			}
		}

		cost = 50

		visible = {
			is_subject = no
			OR = {
				has_government = fascism
				has_government = neutrality
			}
			FROM = {
				exists = yes
				OR = {
					original_tag = TAL
					original_tag = FRN
					original_tag = ARA
					original_tag = FAL
					original_tag = SIC
				}
			}
		}

		fire_only_once = yes

		complete_effect = {
			log = "[GetDateText]: [Root.GetName]: Decision WNG_puppet_fascist_neighbours target: [From.GetName]"
			FROM = { country_event = wingbardy.141 }
		}

		ai_will_do = {
			factor = 100
		}
	}
	ZES_enslave_the_liberated = {
		allowed = {
			original_tag = ZAI
		}
		visible = {
			always = no
		}
		cost = 1
		complete_effect = {
			hidden_effect = { country_event = { id =  tradefed.150 days = 1 } }
		}
	}
	WNG_ally_wingbardy = {

		icon = generic_nationalism
		targets = { WNG }
		targets_dynamic = yes
		target_trigger = {
			FROM = {
				original_tag = WNG
			}
		}

		allowed = {
			OR = {
				original_tag = TAL
				original_tag = FRN
				original_tag = ARA
				original_tag = FAL
			}
		}

		available = {
			NOT = {
				has_war_with = FROM
			}
			is_subject = no
		}

		target_root_trigger = {
			is_subject = no
			has_government = communism
		}

		visible = {
			is_in_faction = no
			has_government = communism
			if = {
				limit = {
					original_tag = FRN
				}
				NOT = {
					has_completed_focus = FRN_torchbearers_of_peasants
					has_completed_focus = TAL_miners_split
				}
			}
			FROM = {
				exists = yes
				original_tag = WNG
				is_subject = no
				has_government = communism
				is_faction_leader = yes
			}
		}

		fire_only_once = yes

		cost = 0

		complete_effect = {
			log = "[GetDateText]: [Root.GetName]: Decision WNG_ally_wingbardy target: [From.GetName]"
			FROM = {
				country_event = generic.2
			}
		}

		ai_will_do = {
			factor = 50
		}
	}
	WNG_offer_alliance = {

		icon = generic_nationalism
		target_root_trigger = {
			OR = {
				has_completed_focus = WNG_international_communism
				has_completed_focus = WNG_alliance_with_the_minotaurs
				has_completed_focus = WNG_rebuild_the_pact
			}
		}
		targets = { FRN ARA TAL BRF BAN CYA LUS LAK JES SIC GRY }
		targets_dynamic = yes
		target_trigger = {
			FROM = {
				OR = {
					original_tag = BRF
					original_tag = BAN
					original_tag = CYA
					original_tag = LUS
					original_tag = FRN
					original_tag = ARA
					original_tag = TAL
					original_tag = LAK
					original_tag = JES
					original_tag = SIC
					original_tag = GRY
				}
			}
		}

		allowed = {
			original_tag = WNG
		}

		available = {
			has_war = no
			is_subject = no
			is_in_faction = yes
			FROM = {
				has_war = no
				OR = {
					is_neighbor_of = WNG
					WNG = {
						any_allied_country = {
							is_neighbor_of = FROM
						}
					}
				}
				NOT = {
					AND = {
						original_tag = FRN
						has_country_flag = FRN_left_pact
					}
				}
				OR = {
					NOT = {
						original_tag = JES
					}
					has_completed_focus = JES_second_elections
				}
			}
		}

		visible = {
			FROM = {
				exists = yes
				OR = {
					original_tag = BRF
					original_tag = BAN
					original_tag = CYA
					original_tag = LUS
					original_tag = FRN
					original_tag = ARA
					original_tag = TAL
					original_tag = LAK
					original_tag = JES
					original_tag = SIC
					original_tag = GRY
				}
				is_subject = no
				is_in_faction = no
				if = {
					limit = {
						ROOT = {
							OR = {
								has_government = fascism
								has_government = neutrality
							}
						}
					}
					OR = {
						AND = {
							has_government = fascism
							NOT = {
								OR = {
									original_tag = BAN
									original_tag = ARA
								}
							}
						}
						has_government = neutrality
					}
				}
				else_if = {
					limit = {
						ROOT = {
							has_government = democratic
						}
					}
					OR = {
						has_government = neutrality
						has_government = democratic
					}
				}
				else = {
					has_government = communism
				}
			}
		}

		cost = 100
		fire_only_once = yes
		complete_effect = {
			log = "[GetDateText]: [Root.GetName]: Decision WNG_offer_alliance target: [From.GetName]"
			FROM = {
				country_event = wingbardy.120
			}
		}

		ai_will_do = {
			factor = 50
		}
	}
	WNG_secure_new_mareland = {
		icon = griffon_claw
		allowed = {
			is_griffon_continent_country = yes
		}
		available = {
			OR = {
				is_in_faction = no
				is_faction_leader = yes
			}
			has_war_with = FROM
			FROM = {
				OR = {
					overlord = {
						has_war_with = ROOT
					}
					AND = {
						is_in_faction = yes
						is_faction_leader = no
						any_allied_country = {
							is_faction_leader = yes
							has_war_with = ROOT
						}
					}
				}
			}
			356 = {
				controller = {
					OR = {
						tag = ROOT
						is_ally_with = ROOT
					}
				}
			}
			362 = {
				controller = {
					OR = {
						tag = ROOT
						is_ally_with = ROOT
					}
				}
			}
		}
		visible = {
			FROM = {
				has_capitulated = yes
				OR = {
					AND = {
						is_subject = yes
						overlord = {
							has_war_with = ROOT
							is_on_griffon_continent = no
						}
					}
					any_allied_country = {
						is_on_griffon_continent = no
						has_war_with = ROOT
					}
				}
			}
		}
		targets = {
			EQC
		}
		target_trigger = {
			FROM = { original_tag = EQC }
		}
		cost = 50
		ai_will_do = {
			factor = 200
		}
		fire_only_once = yes
		complete_effect = {
			log = "[GetDateText]: [Root.GetName]: Decision WNG_secure_new_mareland"
			if = {
				limit = {
					FROM = {
						is_subject = yes
					}
				}
				FROM = {
					overlord = {
						country_event = { id = wingbardy.7 hours = 2 }
					}
				}
			}
			else_if = {
				limit = {
					FROM = {
						is_in_faction = yes
						is_faction_leader = no
					}
				}
				every_enemy_country = {
					limit = {
						is_in_faction_with = FROM
						is_faction_leader = yes
					}
					country_event = { id = wingbardy.7 hours = 2 }
				}
			}
		}
	}
	WNG_aid_ally = {
		icon = griffon_claw
		allowed = {
			OR = {
				original_tag = WNG
				original_tag = EQS
			}
		}
		available = {
			OR = {
				AND = {
					original_tag = WNG
					has_war = no
					is_subject = no
					has_government = democratic
					EQS = {
						has_defensive_war = yes
						is_subject = no
						has_government = democratic
					}
				}
				AND = {
					original_tag = EQS
					has_war = no
					is_subject = no
					has_government = democratic
					WNG = {
						has_defensive_war = yes
						is_subject = no
						has_government = democratic
					}
				}
			}
		}
		visible = {
			WNG = {
				has_completed_focus = WNG_mutual_support
			}
			NOT = {
				has_idea = WNG_united_against_disharmony
			}
		}
		cost = 50
		ai_will_do = {
			factor = 200
		}

		complete_effect = {
			log = "[GetDateText]: [Root.GetName]: Decision WNG_aid_ally"
			add_ideas = WNG_united_against_disharmony
			if = {
				limit = {
					original_tag = WNG
				}
				event_target:equestria = { country_event = wingbardy.133 }
			}
			else_if = {
				limit = {
					original_tag = EQS
				}
				WNG = { country_event = wingbardy.133 }
			}

		}
	}
	WNG_give_land_back_to_cats = {

		icon = generic_nationalism
		targets = { ABY }
		targets_dynamic = yes
		target_trigger = {
			FROM = {
				original_tag = ABY
			}
		}

		allowed = {
			original_tag = WNG
		}

		available = {
			has_war = no
			FROM = {
				has_war = no
			}
			is_subject = no
		}

		target_root_trigger = {
			is_subject = no
		}

		visible = {
			OR = {
				has_completed_focus = WNG_an_alliance_of_the_centre
				has_completed_focus = WNG_give_way_to_the_left_ppw
				has_completed_focus = WNG_a_victory_for_the_republicans
				has_completed_focus = WNG_a_victory_for_the_unitary_socialists
				has_completed_focus = WNG_the_socialists_take_power
				has_completed_focus = WNG_the_communists_take_power
			}
			any_owned_state = {
				is_core_of = FROM
			}
			FROM = {
				exists = yes
				is_subject = no
			}
		}

		fire_only_once = yes

		cost = 0

		complete_effect = {
			log = "[GetDateText]: [Root.GetName]: Decision WNG_give_land_back_to_cats target: [From.GetName]"
			FROM = {
				country_event = wingbardy.145
			}
		}

		ai_will_do = {
			factor = 100
		}
	}
}

WNG_royal_support_decision_cat = {
	WNG_anti_monarchy_uprising = {
		priority = 200
		allowed = {
			original_tag = WNG
		}

		activation = {
			check_variable = { WNG_popular_support < 51 }
			has_completed_focus = WNG_the_royal_intervention
			has_government = neutrality
			is_subject = no
			NOT = {
				has_country_flag = WNG_skip_revolt
			}
		}

		available  = {
			if = {
				limit = {
					is_ai = yes
				}
				OR = {
					custom_trigger_tooltip = {
						tooltip = WNG_popular_support_greater_than_50_tt
					}
					check_variable = { WNG_popular_support > 50 }
					has_country_flag = WNG_skip_revolt
				}
			}
			else = {
				custom_trigger_tooltip = {
					tooltip = WNG_popular_support_greater_than_50_tt
				}
				check_variable = { WNG_popular_support > 50 }
			}
		}

		fixed_random_seed = no

		fire_only_once = yes

		is_good = no

		days_mission_timeout = 100

		timeout_effect = {
			WNG_start_anti_monarchy_civil_war = yes
		}
	}

	WNG_raido_speach = {
		allowed = {
			original_tag = WNG
		}

		available = {
			custom_trigger_tooltip = {
				tooltip = WNG_less_than_100_popular_support_tt
			}
			check_variable = { WNG_popular_support < 100 }
			has_completed_focus = WNG_reach_out_to_the_common_griffon
		}

		cost = 20

		days_re_enable = 21

		ai_will_do = {
			base = 0
			modifier = {
				check_variable = {
					var = WNG_popular_support
					value = WNG_popular_support_max
					compare = less_than
				}
				add = 100
			}
			modifier = {
				factor = 0.5
				has_completed_focus = WNG_viva_il_re
			}
		}

		complete_effect  = {
			WNG_add_10_popular_support = yes
			add_days_mission_timeout = {
				mission = WNG_anti_monarchy_uprising
				days = 14
			}
			add_popularity = {
				ideology = neutrality
				popularity = 0.03
			}
		}
	}
	WNG_newspaper_campaign = {
		allowed = {
			original_tag = WNG
		}

		available = {
			custom_trigger_tooltip = {
				tooltip = WNG_less_than_100_popular_support_tt
			}
			check_variable = { WNG_popular_support < 100 }
			has_completed_focus = WNG_reach_out_to_the_common_griffon
		}

		cost = 40

		days_re_enable = 21
		days_remove = 35

		ai_will_do = {
			base = 0
			modifier = {
				check_variable = {
					var = WNG_popular_support
					value = WNG_popular_support_max
					compare = less_than
				}
				add = 200
			}
			modifier = {
				factor = 0.5
				has_completed_focus = WNG_viva_il_re
			}
		}

		modifier = {
			stability_weekly = 0.01
			neutrality_drift = 0.05
		}

		complete_effect  = {
			WNG_add_10_popular_support = yes
			add_days_mission_timeout = {
				mission = WNG_anti_monarchy_uprising
				days = 21
			}
		}
	}

	WNG_clamp_down_on_socalist_newspapers = {
		allowed = {
			original_tag = WNG
		}

		available = {
			custom_trigger_tooltip = {
				tooltip = WNG_less_than_100_popular_support_tt
			}
			check_variable = { WNG_popular_support < 100 }
			has_completed_focus = WNG_reach_out_to_the_common_griffon
		}

		cost = 50

		days_remove = 35

		ai_will_do = {
			base = 0
			modifier = {
				check_variable = {
					var = WNG_popular_support
					value = WNG_popular_support_max
					compare = less_than
				}
				add = 100
			}
			modifier = {
				factor = 0.5
				has_completed_focus = WNG_viva_il_re
			}
		}

		remove_effect = {
			WNG_add_15_popular_support = yes
			clr_country_flag = WNG_blocking_socalist_news
			add_days_mission_timeout = {
				mission = WNG_anti_monarchy_uprising
				days = 21
			}
		}

		modifier = {
			communism_drift = -0.05
			stability_weekly = -0.01
		}

		complete_effect  = {
			custom_effect_tooltip = WNG_clamp_down_on_socalist_newspapers_tt
			set_country_flag = WNG_blocking_socalist_news
			WNG_add_10_popular_support = yes
		}
	}

	WNG_visit_the_workers = {
		allowed = {
			original_tag = WNG
		}

		available = {
			custom_trigger_tooltip = {
				tooltip = WNG_less_than_100_popular_support_tt
			}
			check_variable = { WNG_popular_support < 100 }
			has_completed_focus = WNG_reach_out_to_the_common_griffon
		}

		cost = 40

		days_remove = 35

		ai_will_do = {
			base = 0
			modifier = {
				check_variable = {
					var = WNG_popular_support
					value = WNG_popular_support_max
					compare = less_than
				}
				add = 100
			}
			modifier = {
				factor = 0.5
				has_completed_focus = WNG_viva_il_re
			}
		}

		modifier = {
			production_factory_efficiency_gain_factor = 0.1
		}

		complete_effect = {
			WNG_add_15_popular_support = yes
			add_days_mission_timeout = {
				mission = WNG_anti_monarchy_uprising
				days = 21
			}
		}
	}

	WNG_crackdown_on_fascists = {
		allowed = {
			original_tag = WNG
		}

		available = {
			custom_trigger_tooltip = {
				tooltip = WNG_less_than_100_popular_support_tt
			}
			check_variable = { WNG_popular_support < 100 }
			has_completed_focus = WNG_reach_out_to_the_common_griffon
		}

		cost = 50

		days_remove = 35

		ai_will_do = {
			base = 0
			modifier = {
				check_variable = {
					var = WNG_popular_support
					value = WNG_popular_support_max
					compare = less_than
				}
				add = 100
			}
			modifier = {
				factor = 0.5
				has_completed_focus = WNG_viva_il_re
			}
		}

		modifier = {
			fascism_drift = -0.05
			stability_weekly = -0.01
		}

		complete_effect = {
			WNG_add_10_popular_support = yes
			add_days_mission_timeout = {
				mission = WNG_anti_monarchy_uprising
				days = 21
			}
		}
	}
}

war_measures = {
	WNG_divert_resources_to_the_navy = {
		allowed = {
			original_tag = WNG
		}

		available = {
			has_completed_focus = WNG_expand_the_regia_marina
		}
		visible = {
			has_completed_focus = WNG_expand_the_regia_marina
		}

		cost = 25

		days_remove = 70

		modifier = {
			industrial_capacity_factory = -0.1
			industrial_capacity_dockyard = 0.15
		}
	}
}

WNG_wingbardian_parliament_cat = {
	WNG_small_lobby_effort = {
		icon = generic_political_discourse
		allowed = {
			original_tag = WNG
		}
		available = {
			# NOT = {
			# 	has_decision = WNG_medium_lobby_effort
			# }
			WNG_parliament_max_support_trigger = yes
			OR = {
				has_completed_focus = WNG_meet_with_beakolini
				has_completed_focus = WNG_a_victory_for_the_unitary_socialists
				has_completed_focus = WNG_a_victory_for_the_republicans
				has_completed_focus = WNG_negotiate_with_the_PWDA
			}
			WNG_has_majority_government = no
		}
		ai_will_do = {
			base = 200
			modifier = {
				check_variable = { WNG.WNG_parliament_support > 275 }
				factor = 0
			}
			modifier = {
				has_political_power < 30
				factor = 0
			}
		}

		cost = 25

		modifier = {
			political_power_gain = -0.3
		}
		days_remove = 30
		remove_effect = {
			WNG_small_support_for_government = yes
		}
	}
	# WNG_medium_lobby_effort = {
	# 	icon = generic_political_discourse
	# 	allowed = {
	# 		original_tag = WNG
	# 	}
	# 	available = {
	# 		NOT = {
	# 			has_decision = WNG_small_lobby_effort
	# 		}
	# 		WNG_parliament_max_support_trigger = yes
	# 		OR = {
	# 			has_completed_focus = WNG_meet_with_beakolini
	# 			has_completed_focus = WNG_negotiate_with_the_PWDA
	# 		}
	# 	}
	# 	ai_will_do = {
	# 		base = 1
	# 		modifier = {
	# 			WNG_parliament_low_support_trigger = yes
	# 			add = 50
	# 		}
	# 		modifier = {
	# 			WNG_parliament_low_support_trigger = yes
	# 			has_government = fascism
	# 			factor = 2
	# 		}
	# 	}

	# 	cost = 0

	# 	modifier = {
	# 		political_power_gain = -0.75
	# 	}
	# 	days_remove = 45
	# 	remove_effect = {
	# 		WNG_medium_support_for_government = yes
	# 	}
	# }
	## Fascism get support
	#Support from the Prelate will cause conflict in the PPW and bring over some members to our side
	WNG_appeal_to_the_prelate_for_support = {
		icon = generic_political_discourse
		allowed = {
			original_tag = WNG
		}
		visible = {
			has_government = fascism
		}
		available = {
			WNG_parliament_max_support_trigger = yes
			WNG_has_majority_government = no
		}
		ai_will_do = {
			factor = 200
			modifier = {
				check_variable = { WNG.WNG_parliament_support > 275 }
				factor = 0
			}
		}
		cost = 30
		fire_only_once = yes
		days_remove = 7
		remove_effect = {
			WNG_medium_support_for_government = yes
			set_country_flag = WNG_divisions_in_the_ppw
			hidden_effect = {
				country_event = wingbardy.43
				country_event = {
					id = wingbardy.42
					days = 30
					random_days = 2
				}
			}
		}
	}
	WNG_intimidate_moderate_politicians = {
		icon = generic_political_discourse
		allowed = {
			original_tag = WNG
		}
		visible = {
			has_government = fascism
		}
		available = {
			WNG_parliament_max_support_trigger = yes
			WNG_has_majority_government = no
		}
		ai_will_do = {
			base = 200
			modifier = {
				check_variable = { WNG.WNG_parliament_support > 275 }
				factor = 0
			}
			modifier = {
				has_stability < 0.2
				factor = 0
			}
		}
		cost = 25
		days_remove = 7
		days_re_enable = 30
		remove_effect = {
			WNG_small_support_for_government = yes
		}
		modifier = {
			stability_weekly = -0.01
		}
	}
	WNG_bribe_conservative_politicans = {
		icon = generic_political_discourse
		allowed = {
			original_tag = WNG
		}
		visible = {
			has_government = fascism
		}
		available = {
			WNG_parliament_max_support_trigger = yes
			WNG_has_majority_government = no
		}
		ai_will_do = {
			base = 200
			modifier = {
				check_variable = { WNG.WNG_parliament_support > 275 }
				factor = 0
			}
		}
		cost = 25
		days_remove = 14
		days_re_enable = 14
		remove_effect = {
			WNG_small_support_for_government = yes
		}
		modifier = {
			consumer_goods_factor = 0.04
		}
	}
	WNG_launch_the_coup = {
		icon = generic_political_discourse
		allowed = {
			original_tag = WNG
		}
		visible = {
			has_government = fascism
			has_country_flag = WNG_fascist_coup_plan
		}
		available = {
			WNG_has_majority_government = no
		}
		ai_will_do = {
			base = 0
		}
		cost = 50

		complete_effect = {
			#TODO Move this to an event
			if = {
				limit = {
					fascism > 0.7
				}
				country_event = wingbardy.52
			}
			else = {
				WNG_start_anti_fascist_civil_war_monarchy = yes
			}
		}
	}
}

WNG_spread_the_revolution_cat = {
	WNG_spread_communist_propoganda_in_nation = {
		icon = generic_form_nation

		allowed = {
			original_tag = WNG
		}
		targets = { TAL FRN ARA FAL SIC }
		targets_dynamic = yes
		target_trigger = {
			FROM = {
				OR = {
					original_tag = TAL
					original_tag = FRN
					original_tag = ARA
					original_tag = FAL
					original_tag = SIC
				}
			}
		}

		available = {
			FROM = {
				NOT = { is_in_faction_with = ROOT }
				NOT = { is_subject_of = ROOT }
				NOT = { has_government = communism }
				NOT = { has_idea = WNG_communist_propaganda }
			}
		}
		target_root_trigger = {
			is_subject = no
			has_government = communism
			has_completed_focus = WNG_spread_the_revolution
		}
		visible = {
			is_subject = no
			has_government = communism
			has_completed_focus = WNG_spread_the_revolution
			FROM = {
				exists = yes
				OR = {
					original_tag = TAL
					original_tag = FRN
					original_tag = ARA
					original_tag = FAL
					original_tag = SIC
				}
			}
		}

		cost = 50

		fire_only_once = yes

		complete_effect = {
			log = "[GetDateText]: [Root.GetName]: Decision WNG_puppet_commie_neighbours target: [From.GetName]"
			FROM = {
				set_variable = {
					WNG_commie_guns = 0
				}
				add_ideas = WNG_communist_propaganda
				country_event = Wingbardy.76
			}
		}

		ai_will_do = {
			factor = 100
		}
	}
	WNG_arm_communist_milita = {
		icon = generic_form_nation

		allowed = {
			original_tag = WNG
		}
		targets = { TAL FRN ARA FAL SIC }
		targets_dynamic = yes
		target_trigger = {
			FROM = {
				OR = {
					original_tag = TAL
					original_tag = FRN
					original_tag = ARA
					original_tag = FAL
					original_tag = SIC
				}
			}
		}

		available = {
			FROM = {
				NOT = { is_in_faction_with = ROOT }
				NOT = { is_subject_of = ROOT }
				NOT = { has_government = communism }
				has_idea = WNG_communist_propaganda
			}
		}
		target_root_trigger = {
			is_subject = no
			has_government = communism
			has_completed_focus = WNG_spread_the_revolution
		}
		visible = {
			is_subject = no
			has_government = communism
			has_completed_focus = WNG_spread_the_revolution
			FROM = {
				exists = yes
				OR = {
					original_tag = TAL
					original_tag = FRN
					original_tag = ARA
					original_tag = FAL
					original_tag = SIC
				}
			}
		}

		custom_cost_trigger = {
			has_political_power > 49
			has_equipment = { infantry_equipment > 499 }
		}
		custom_cost_text = decision_cost_500_guns_50_pp
		fire_only_once = yes

		complete_effect = {
			log = "[GetDateText]: [Root.GetName]: Decision WNG_puppet_commie_neighbours target: [From.GetName]"
			FROM = {
				add_equipment_to_stockpile = {
					type = infantry_equipment
					amount = -500
				}
				add_to_variable = {
					WNG_commie_guns = 500
				}
				add_popularity = {
					ideology = communism
					popularity = 0.05
				}
			}
		}

		days_re_enable = 91

		ai_will_do = {
			factor = 100
		}
	}
	WNG_instigate_communist_uprising = {
		icon = generic_form_nation

		allowed = {
			original_tag = WNG
		}
		targets = { TAL FRN ARA FAL SIC }
		targets_dynamic = yes
		target_trigger = {
			FROM = {
				OR = {
					original_tag = TAL
					original_tag = FRN
					original_tag = ARA
					original_tag = FAL
					original_tag = SIC
				}
			}
		}

		available = {
			FROM = {
				NOT = { is_in_faction_with = ROOT }
				NOT = { is_subject_of = ROOT }
				NOT = { has_government = communism }
				has_idea = WNG_communist_propaganda
				communism > 0.5
			}
		}
		target_root_trigger = {
			is_subject = no
			has_government = communism
			has_completed_focus = WNG_spread_the_revolution
		}
		visible = {
			is_subject = no
			has_government = communism
			has_completed_focus = WNG_spread_the_revolution
			FROM = {
				exists = yes
				OR = {
					original_tag = TAL
					original_tag = FRN
					original_tag = ARA
					original_tag = FAL
					original_tag = SIC
				}
			}
		}

		cost = 50

		fire_only_once = yes

		complete_effect = {
			log = "[GetDateText]: [Root.GetName]: Decision WNG_puppet_commie_neighbours target: [From.GetName]"
			FROM = {
				country_event = Wingbardy.77
			}
		}

		ai_will_do = {
			factor = 75
		}
	}
}

demobilization = {
	WNG_demobilise_red_guard = {
		icon = revolt

		available = {
			has_war = no
		}

		allowed = {
			original_tag = WNG
		}

		cost = 10
		ai_will_do = {
			factor = 500
		}

		visible = {
			has_war = no
			has_global_flag = WNG_civil_war
			has_global_flag = WNG_civil_war_over
			NOT = {
				has_country_flag = WNG_civil_war_troops_dispanded
			}
			OR = {
				has_government = communism
				has_government = democratic
			}
		}
		complete_effect = {
			log = "[GetDateText]: [Root.GetName]: Decision WNG_demobilise_red_guard"
			delete_unit_template_and_units = { division_template = "Guardia Rossa" }
			if = {
				limit = {
					has_completed_focus = WNG_secure_police_support
				}
				delete_unit_template_and_units = { division_template = "Brigata Carabinieri" }
			}
			set_country_flag = WNG_civil_war_troops_dispanded
		}
	}
	WNG_demobilise_red_guard_mission = {
		icon = revolt
		is_good = no
		days_mission_timeout = 120
		available = {
			OR = {
				has_war = yes
				has_country_flag = WNG_civil_war_troops_dispanded
			}
		}
		activation = {
			original_tag = WNG
			has_war = no
			has_global_flag = WNG_civil_war
			has_global_flag = WNG_civil_war_over
			NOT = {
				has_country_flag = WNG_civil_war_troops_dispanded
			}
			OR = {
				has_government = communism
				has_government = democratic
			}
		}
		timeout_effect = {
			log = "[GetDateText]: [Root.GetName]: Decision timeout WNG_demobilise_red_guard_mission"

			if = {
				limit = {
					has_stability < 0.25
				}
				add_war_support = -0.1
			}
			if = {
				limit = {
					has_stability > 0.2
				}
				add_stability = -0.1
			}
			if = {
				limit = {
					has_government = communism
				}
				add_popularity = { ideology = democratic popularity = 0.1 }
			}
			if = {
				limit = {
					NOT = { has_government = communism }
				}
				add_popularity = { ideology = communism popularity = 0.1 }
			}
		}
	}
}

WNG_mafia_decisions_cat ={
	WNG_rising_mafia = {
		icon = GFX_decision_generic_independence
		is_good = no
		days_mission_timeout = 183
		available = {
			OR = {
				AND = {
					has_stability > 0.7
					has_idea = WNG_mafia_0
				}
				has_idea = WNG_mafia_3
			}
		}
		activation = {

			OR = {
				AND = {
					has_stability < 0.71
					has_idea = WNG_mafia_0
				}
				has_idea = WNG_mafia_1
				has_idea = WNG_mafia_2
			}
		}
		timeout_effect = {
			WNG_increase_mafia = yes
		}
	}
	WNG_tackle_the_mafia = {
		icon = GFX_decision_generic_army_support

		available = {
			OR = {
				has_idea = WNG_mafia_3
				has_idea = WNG_mafia_2
				AND = {
					has_stability > 0.7
					has_idea = WNG_mafia_1
				}
			}
		}

		allowed = {
			original_tag = WNG
		}

		cost = 25
		ai_will_do = {
			factor = 75
			modifier = {
				factor = 0
				OR = {
					AND = {
						has_government = fascism
						has_completed_focus = WNG_control_the_local_governments
					}
				}
			}
		}

		visible = {
			OR = {
				has_idea = WNG_mafia_0
				has_idea = WNG_mafia_1
				has_idea = WNG_mafia_2
				has_idea = WNG_mafia_3
			}
		}
		fire_only_once = no

		days_remove = 60

		modifier = {
			political_power_factor = -0.05
		}
		remove_effect = {
			WNG_reduce_mafia = yes
		}
	}
	WNG_send_in_grover_gori = {
		icon = GFX_decision_generic_army_support

		available = {
			OR = {
				has_idea = WNG_mafia_3
				has_idea = WNG_mafia_2
				has_idea = WNG_mafia_1
			}
			has_government = fascism
			has_completed_focus = WNG_control_the_local_governments
		}

		allowed = {
			original_tag = WNG
		}

		cost = 25
		ai_will_do = {
			factor = 100
		}

		visible = {
			OR = {
				has_idea = WNG_mafia_0
				has_idea = WNG_mafia_1
				has_idea = WNG_mafia_2
				has_idea = WNG_mafia_3
			}
			has_completed_focus = WNG_meet_with_beakolini
		}
		fire_only_once = no

		days_remove = 60

		remove_effect = {
			WNG_reduce_mafia = yes
			add_manpower = -100
			hidden_effect = {
				if = {
					limit = {
						NOT = {
							has_country_flag = WNG_mafia_handled_1
						}
					}
					country_event = {
						id = wingbardy_flavour.2
						days = 30
						random_days = 4
					}
				}
			}
		}
	}
	WNG_send_the_cpai_after_the_mafia = {
		icon = GFX_decision_generic_army_support

		available = {
			OR = {
				has_idea = WNG_mafia_3
				has_idea = WNG_mafia_2
				has_idea = WNG_mafia_1
			}
			has_government = communism
			has_completed_focus = WNG_establish_the_griffons_commissariat
		}

		allowed = {
			original_tag = WNG
		}

		cost = 25
		ai_will_do = {
			factor = 100
		}

		visible = {
			OR = {
				has_idea = WNG_mafia_0
				has_idea = WNG_mafia_1
				has_idea = WNG_mafia_2
				has_idea = WNG_mafia_3
			}
			has_completed_focus = WNG_the_communists_take_power
		}
		fire_only_once = no

		days_remove = 60

		remove_effect = {
			WNG_reduce_mafia = yes
			hidden_effect = {
				if = {
					limit = {
						NOT = {
							has_country_flag = WNG_mafia_handled_1
						}
					}
					country_event = {
						id = wingbardy_flavour.3
						days = 30
						random_days = 4
					}
				}
			}
		}
	}
	WNG_destroy_the_mafia_from_within = {
		icon = GFX_decision_generic_army_support

		available = {
			OR = {
				has_idea = WNG_mafia_3
				has_idea = WNG_mafia_2
				has_idea = WNG_mafia_1
			}
			has_government = democratic
			has_completed_focus = WNG_crackdown_on_the_mafia
		}

		allowed = {
			original_tag = WNG
		}

		cost = 25
		ai_will_do = {
			factor = 100
		}

		visible = {
			OR = {
				has_idea = WNG_mafia_0
				has_idea = WNG_mafia_1
				has_idea = WNG_mafia_2
				has_idea = WNG_mafia_3
			}
			has_completed_focus = WNG_a_victory_for_the_republicans
		}
		fire_only_once = no

		days_remove = 60

		remove_effect = {
			WNG_reduce_mafia = yes
			#TODO - Enable after loc
			# hidden_effect = {
			# 	if = {
			# 		limit = {
			# 			NOT = {
			# 				has_country_flag = WNG_mafia_handled_1
			# 			}
			# 		}
			# 	}
			# 	country_event = {
			# 		id = wingbardy_flavour.4
			# 		days = 30
			# 		random_days = 4
			# 	}
			# }
		}
	}
	WNG_eliminate_the_mafia = {
		icon = GFX_decision_generic_army_support

		available = {
			has_idea = WNG_mafia_0
			has_government = democratic
			has_completed_focus = WNG_reform_the_justice_system
		}

		cancel_trigger = {
			OR = {
				has_idea = WNG_mafia_1
				has_idea = WNG_mafia_2
				has_idea = WNG_mafia_3
			}
		}

		visible = {
			OR = {
				has_idea = WNG_mafia_0
				has_idea = WNG_mafia_1
				has_idea = WNG_mafia_2
				has_idea = WNG_mafia_3
			}
			has_completed_focus = WNG_a_victory_for_the_republicans
		}

		allowed = {
			original_tag = WNG
		}

		cost = 25
		ai_will_do = {
			factor = 100
		}

		fire_only_once = no

		days_remove = 60

		remove_effect = {
			swap_ideas = {
				remove_idea = WNG_mafia_0
				add_idea = WNG_crime_free_society
			}
		}
	}
}

political_actions = {
	WNG_counter_commie_propaganda = {
		icon = anti_communist

		available = {

		}

		allowed = {
			OR = {
				original_tag = TAL
				original_tag = FRN
				original_tag = ARA
				original_tag = FAL
				original_tag = SIC
			}
		}

		cost = 150
		ai_will_do = {
			factor = 0
		}

		visible = {
			has_idea = WNG_communist_propaganda
		}
		fire_only_once = yes

		days_remove = 30

		remove_effect = {
			add_stability = -0.1
			remove_ideas = WNG_communist_propaganda
		}
	}
}

WNG_altar_of_the_fatherland_cat = {
	WNG_finish_the_falcor_war_memorial = {
		icon = GFX_decision_generic_construction
		visible = {
			always = yes
		}
		available = {
			has_war = no
			OR = {
				has_completed_focus = WNG_meet_with_beakolini
				has_completed_focus = WNG_viva_il_re
				has_completed_focus = WNG_negotiate_with_the_PWDA
				has_completed_focus = WNG_establish_the_national_transitional_government
				has_completed_focus = WNG_push_the_liberals_out_of_power
			}
			owns_state = 371
			has_full_control_of_state = 371
		}
		modifier = {
			civilian_factory_use = 1
		}
		cost = 25

		days_remove = 70
		remove_effect = {
			add_political_power = 25
			add_stability = 0.02
			custom_effect_tooltip = WNG_add_to_altar_stage
			add_to_variable = {
				WNG_alta_stage = 1
			}
		}
		ai_will_do = {
			factor = 50
		}
		fire_only_once = yes
	}
	WNG_finish_the_gumburto_memorial = {
		icon = GFX_decision_generic_construction
		visible = {
			NOT = {
				has_cosmetic_tag = WNG_republic
				has_government = communism
			}
		}
		available = {
			has_war = no
			OR = {
				has_completed_focus = WNG_meet_with_beakolini
				has_completed_focus = WNG_viva_il_re
				has_completed_focus = WNG_negotiate_with_the_PWDA
			}
			owns_state = 371
			has_full_control_of_state = 371
		}
		modifier = {
			civilian_factory_use = 1
		}
		cost = 25

		days_remove = 70
		cancel_trigger = {
			OR = {
				has_cosmetic_tag = WNG_republic
				has_government = communism
			}
		}
		remove_effect = {
			add_political_power = 25
			add_stability = 0.02
			custom_effect_tooltip = WNG_add_to_altar_stage
			add_to_variable = {
				WNG_alta_stage = 1
			}
		}
		ai_will_do = {
			factor = 50
		}
		fire_only_once = yes
	}
	WNG_complete_the_temple_of_arcturius = {
		icon = GFX_decision_generic_construction
		visible = {
			NOT = {
				has_government = communism
			}
		}
		available = {
			has_war = no
			NOT = {
				has_government = communism
			}
			OR = {
				has_completed_focus = WNG_meet_with_beakolini
				has_completed_focus = WNG_viva_il_re
				has_completed_focus = WNG_negotiate_with_the_PWDA
				has_completed_focus = WNG_establish_the_national_transitional_government
			}
			owns_state = 371
			has_full_control_of_state = 371
		}
		modifier = {
			civilian_factory_use = 1
		}
		cost = 25

		days_remove = 70
		cancel_trigger = {
			has_government = communism
		}
		remove_effect = {
			add_political_power = 25
			add_stability = 0.02
			custom_effect_tooltip = WNG_add_to_altar_stage
			add_to_variable = {
				WNG_alta_stage = 1
			}
		}
		ai_will_do = {
			factor = 50
		}
		fire_only_once = yes
	}
	WNG_the_monument_to_liberty = {
		icon = GFX_decision_generic_construction
		visible = {
			has_cosmetic_tag = WNG_republic
			NOT = {
				has_government = communism
			}
		}
		available = {
			has_war = no
			has_cosmetic_tag = WNG_republic
			NOT = { has_government = communism }
			has_completed_focus = WNG_establish_the_national_transitional_government
			owns_state = 371
			has_full_control_of_state = 371
		}
		modifier = {
			civilian_factory_use = 1
		}
		cost = 25

		days_remove = 70
		cancel_trigger = {
			has_government = communism
		}
		remove_effect = {
			add_political_power = 25
			add_stability = 0.02
			custom_effect_tooltip = WNG_add_to_altar_stage
			add_to_variable = {
				WNG_alta_stage = 1
			}
		}
		ai_will_do = {
			factor = 50
		}
		fire_only_once = yes
	}
	WNG_build_the_monument_of_the_proletariat = {
		icon = GFX_decision_generic_construction
		visible = {
			has_government = communism
		}
		available = {
			has_war = no
			has_government = communism
			has_completed_focus = WNG_push_the_liberals_out_of_power
			owns_state = 371
			has_full_control_of_state = 371
		}
		modifier = {
			civilian_factory_use = 1
		}
		cost = 25

		days_remove = 70
		cancel_trigger = {
			NOT = { has_government = communism }
		}
		remove_effect = {
			add_political_power = 25
			add_stability = 0.02
			custom_effect_tooltip = WNG_add_to_altar_stage
			add_to_variable = {
				WNG_alta_stage = 1
			}
		}
		ai_will_do = {
			factor = 50
		}
		fire_only_once = yes
	}
	WNG_the_spirit_of_the_revolution = {
		icon = GFX_decision_generic_construction
		visible = {
			has_government = communism
		}
		available = {
			has_war = no
			has_government = communism
			has_completed_focus = WNG_push_the_liberals_out_of_power
			owns_state = 371
			has_full_control_of_state = 371
		}
		modifier = {
			civilian_factory_use = 1
		}
		cost = 25

		days_remove = 70
		cancel_trigger = {
			NOT = { has_government = communism }
		}
		remove_effect = {
			add_political_power = 25
			add_stability = 0.02
			custom_effect_tooltip = WNG_add_to_altar_stage
			add_to_variable = {
				WNG_alta_stage = 1
			}
		}
		ai_will_do = {
			factor = 50
		}
		fire_only_once = yes
	}
	WNG_complete_the_altar = {
		icon = GFX_decision_generic_construction
		visible = {
			always = yes
		}
		available = {
			custom_trigger_tooltip = {
				tooltip = WNG_altar_ready_to_finish
				OR = {
					check_variable = {
						WNG_alta_stage = 3
					}
					AND = {
						has_government = fascism
						has_cosmetic_tag = WNG_republic
						check_variable = {
							WNG_alta_stage = 2
						}
					}
				}

			}
			owns_state = 371
			has_full_control_of_state = 371
		}
		cost = 25

		days_remove = 70
		cancel_trigger = {
		}
		ai_will_do = {
			factor = 50
		}
		remove_effect = {
			add_political_power = 50
			add_stability = 0.05
			371 = {
				hidden_effect = { add_dynamic_modifier = { modifier = WNG_altar } }
				custom_effect_tooltip = WNG_altar_tt
			}
			country_event = wingbardy_flavour.12
		}
		fire_only_once = yes
	}
}

WNG_gumberto_teaching_cat = {
	WNG_gumberto_bonding = {
		visible = {
			has_completed_focus = WNG_one_night_in_griffenheim
			NOT = {
				has_country_flag = WNG_gumberto_exit
			}
			always = no # TODO - Enable when the event is done
		}
		available = {
			always = yes
		}
		cost = 25

		days_remove = 14
		ai_will_do = {
			factor = 50
		}
		remove_effect = {
			country_event = wingbardy_gumberto.26
		}
		fire_only_once = yes
	}
	WNG_gumberto_hunting = {
		visible = {
			has_completed_focus = WNG_one_night_in_griffenheim
			NOT = {
				has_country_flag = WNG_gumberto_exit
			}
		}
		available = {
			always = yes
		}
		cost = 25

		days_remove = 14
		ai_will_do = {
			factor = 50
		}
		remove_effect = {
			country_event = wingbardy_gumberto.27
		}
		fire_only_once = yes
	}
	WNG_gumberto_state_dinner = {
		visible = {
			has_completed_focus = WNG_one_night_in_griffenheim
			NOT = {
				has_country_flag = WNG_gumberto_exit
			}
		}
		available = {
			always = yes
		}
		cost = 25

		days_remove = 14
		ai_will_do = {
			factor = 50
		}
		remove_effect = {
			country_event = wingbardy_gumberto.28
		}
		fire_only_once = yes
	}
}

WNG_murder_investigation_cat = {
	WNG_review_the_suspects = {
		#icon =
		visible = {
			NOT = {
				has_country_flag = WNG_investigation_did_accusation_flag
			}
		}
		available = {
			always = yes
		}

		complete_effect = {
			country_event = { id = wingbardy_investigation.1 }
		}
		ai_will_do = {
			factor = 0
		}
		fire_only_once = no
	}
	WNG_search_crime_scene = {
		#icon =
		visible = {
			NOT = {
				has_country_flag = WNG_investigation_did_accusation_flag
			}
		}
		available = {
			always = yes
		}
		cost = 25
		days_remove = 30
		remove_effect = {
			country_event = { id = wingbardy_investigation.2 }
		}
		ai_will_do = {
			factor = 50
		}
		fire_only_once = yes
	}
	WNG_question_nobles = {
		#icon =
		visible = {
			NOT = {
				has_country_flag = WNG_investigation_did_accusation_flag
			}
		}
		available = {
			always = yes
		}
		cost = 25
		days_remove = 30
		remove_effect = {
			country_event = { id = wingbardy_investigation.3 }
		}
		ai_will_do = {
			factor = 50
		}
		fire_only_once = yes
	}
	WNG_send_agents = {
		#icon =
		visible = {
			NOT = {
				has_country_flag = WNG_investigation_did_accusation_flag
			}
		}
		available = {
			always = yes
		}
		cost = 25
		days_remove = 30
		remove_effect = {
			country_event = { id = wingbardy_investigation.6 }
		}
		ai_will_do = {
			factor = 50
		}
		fire_only_once = yes
	}
	WNG_recall_memory = {
		#icon =
		visible = {
			NOT = {
				has_country_flag = WNG_investigation_did_accusation_flag
			}
		}
		available = {
			always = yes
		}
		cost = 25
		days_remove = 30
		remove_effect = {
			country_event = { id = wingbardy_investigation.7 }
		}
		ai_will_do = {
			factor = 50
		}
		fire_only_once = yes
	}
	WNG_find_noble = {
		#icon =
		visible = {
			NOT = {
				has_country_flag = WNG_investigation_did_accusation_flag
			}
			has_country_flag = WNG_noble_lead_flag
		}
		available = {
			always = yes
		}
		cost = 25
		days_remove = 30
		remove_effect = {
			country_event = { id = wingbardy_investigation.8 }
		}
		ai_will_do = {
			factor = 50
		}
		fire_only_once = yes
	}
	WNG_comb_weapon_seizure_record = {
		#icon =
		visible = {
			NOT = {
				has_country_flag = WNG_investigation_did_accusation_flag
			}
			has_country_flag = WNG_weapon_seizure_records_flag
		}
		available = {
			always = yes
		}
		cost = 25
		days_remove = 30
		remove_effect = {
			country_event = { id = wingbardy_investigation.9 }
		}
		ai_will_do = {
			factor = 50
		}
		fire_only_once = yes
	}
	WNG_comb_mail_records = {
		#icon =
		visible = {
			NOT = {
				has_country_flag = WNG_investigation_did_accusation_flag
			}
			has_country_flag = WNG_mail_records_flag
		}
		available = {
			always = yes
		}
		cost = 25
		days_remove = 30
		remove_effect = {
			country_event = { id = wingbardy_investigation.10 }
		}
		ai_will_do = {
			factor = 50
		}
		fire_only_once = yes
	}
	WNG_search_history_file = {
		#icon =
		visible = {
			NOT = {
				has_country_flag = WNG_investigation_did_accusation_flag
			}
			has_country_flag = WNG_history_records_flag
		}
		available = {
			always = yes
		}
		cost = 25
		days_remove = 30
		remove_effect = {
			country_event = { id = wingbardy_investigation.11 }
		}
		ai_will_do = {
			factor = 50
		}
		fire_only_once = yes
	}
	WNG_wine_tasting = {
		#icon =
		visible = {
			NOT = {
				has_country_flag = WNG_investigation_did_accusation_flag
			}
			OR = {
				has_country_flag = WNG_choose_wine_straw_flag
				has_country_flag = WNG_choose_wine_fra_flag
				has_country_flag = WNG_choose_wine_vin_flag
			}
		}
		available = {
			always = yes
		}
		cost = 25
		days_remove = 30
		remove_effect = {
			if = {
				limit = {
					has_country_flag = WNG_choose_wine_straw_flag
				}
				country_event = { id = wingbardy_investigation.12 }
			}
			if = {
				limit = {
					has_country_flag = WNG_choose_wine_fra_flag
				}
				country_event = { id = wingbardy_investigation.13 }
			}
			if = {
				limit = {
					has_country_flag = WNG_choose_wine_vin_flag
				}
				country_event = { id = wingbardy_investigation.14 }
			}
		}
		ai_will_do = {
			factor = 50
		}
		fire_only_once = yes
	}


	WNG_make_an_accusation = {
		#icon =
		visible = {
			always = yes
		}
		available = {
			always = yes
		}
		cost = 25
		complete_effect = {
			set_country_flag = WNG_investigation_did_accusation_flag
			country_event = { id = wingbardy_investigation.15 }
		}
		ai_will_do = {
			factor = 50
		}
		fire_only_once = yes
	}

	WNG_kidnap_the_killer = {
		#icon =
		visible = {
			has_country_flag = WNG_investigation_kidnap_erich_flag
			NOT = {
				has_dlc = "La Resistance"
			}
		}
		available = {
			always = yes
		}
		cost = 25
		days_remove = 60
		remove_effect = {
			country_event = { id = wingbardy_investigation.24 }
		}
		ai_will_do = {
			factor = 50
		}
		fire_only_once = yes
	}

	WNG_interrogate_killer = {
		#icon =
		visible = {
			has_country_flag = WNG_investigation_delve_deeper_flag
			has_country_flag = WNG_investigation_imprisoned_killer_flag
		}
		available = {
			always = yes
		}
		cost = 25
		days_remove = 10
		remove_effect = {
			country_event = { id = wingbardy_investigation.27 }
		}
		ai_will_do = {
			factor = 50
		}
		fire_only_once = yes
	}

	WNG_investigate_seal = {
		#icon =
		visible = {
			has_country_flag = WNG_investigation_delve_deeper_flag
			has_country_flag = WNG_mail_records_flag
		}
		available = {
			always = yes
		}
		cost = 25
		days_remove = 30
		remove_effect = {
			country_event = { id = wingbardy_investigation.28 }
		}
		ai_will_do = {
			factor = 50
		}
		fire_only_once = yes
	}

	WNG_search_grover_room = {
		#icon =
		visible = {
			has_country_flag = WNG_search_grover_room_flag
			OR = {
				NOT = {
					has_dlc = "La Resistance"
				}
				owns_state = 382
				382 = {
					owner = {
						is_subject_of = WNG
					}
				}
			}
			NOT = {
				has_country_flag = WNG_regency_chambers_infiltration_chosen_flag
				has_country_flag = WNG_grover_room_infiltration_chosen_flag
			}
		}
		available = {
			NOT = {
				has_country_flag = WNG_choose_regency_chambers_flag
			}
		}
		cost = 25
		days_remove = 30
		complete_effect = {
			set_country_flag = WNG_choose_grover_room_flag
			set_country_flag = WNG_grover_room_infiltrated_flag
		}
		remove_effect = {
			country_event = { id = wingbardy_investigation.29 }
		}
		ai_will_do = {
			factor = 50
		}
		fire_only_once = yes
	}

	WNG_search_regency_chambers = {
		#icon =
		visible = {
			has_country_flag = WNG_search_regency_chamber_flag
			OR = {
				NOT = {
					has_dlc = "La Resistance"
				}
				owns_state = 382
				382 = {
					owner = {
						is_subject_of = WNG
					}
				}
			}
			NOT = {
				has_country_flag = WNG_regency_chambers_infiltration_chosen_flag
				has_country_flag = WNG_grover_room_infiltration_chosen_flag
			}
		}
		available = {
			NOT = {
				has_country_flag = WNG_choose_grover_room_flag
			}
		}
		cost = 25
		days_remove = 30
		complete_effect = {
			set_country_flag = WNG_choose_regency_chambers_flag
			set_country_flag = WNG_regency_chambers_infiltrated_flag
		}
		remove_effect = {
			country_event = { id = wingbardy_investigation.30 }
		}
		ai_will_do = {
			factor = 50
		}
		fire_only_once = yes
	}

	WNG_final_decision_investigation = {
		#icon =
		visible = {
			has_country_flag = WNG_last_investigation_decision_flag
		}
		available = {
			always = yes
		}
		cost = 25
		days_remove = 30
		remove_effect = {
			country_event = { id = wingbardy_investigation.31 }
		}
		ai_will_do = {
			factor = 50
		}
		fire_only_once = yes
	}
}

WNG_support_the_saddle_arabian_civil_war_cat = {
	WNG_support_SDF = {
		icon = GFX_decision_generic_nationalism
		allowed = {
			original_tag = WNG
		}
		visible = {
			NOT = {
				has_country_flag = WNG_support_EMR
			}
		}
		available = {
			SDF = {
				exists = yes
				OR = {
					has_war_with = SDC
					has_war_with = SDL
					has_war_with = SDS
					has_war_with = EMR
				}
				OR = {
					has_government = fascism
					has_government = neutrality
				}
			}
		}
		cost = 0
		fire_only_once = yes
		ai_will_do = {
			factor = 5
			modifier = {
				factor = 3
				has_government = fascism
			}
		}
		complete_effect = {
			custom_effect_tooltip = WNG_support_SDF_tt
			set_country_flag = WNG_support_SDF
		}
	}
	WNG_support_EMR = {
		icon = GFX_decision_generic_nationalism
		allowed = {
			original_tag = WNG
		}
		visible = {
			NOT = {
				has_country_flag = WNG_support_SDF
			}
		}
		available = {
			EMR = {
				exists = yes
				OR = {
					has_war_with = SDC
					has_war_with = SDL
					has_war_with = SDS
					has_war_with = EMR
				}
				OR = {
					has_government = fascism
					has_government = neutrality
				}
			}
		}
		cost = 0
		fire_only_once = yes
		ai_will_do = {
			factor = 5
			modifier = {
				factor = 3
				has_government = neutrality
			}
		}
		complete_effect = {
			custom_effect_tooltip = WNG_support_EMR_tt
			set_country_flag = WNG_support_EMR
		}
	}
	WNG_send_arms_to_arabia = {
		icon = GFX_decision_generic_prepare_civil_war
		allowed = {
			original_tag = WNG
		}
		visible = {
			OR = {
				has_country_flag = WNG_support_EMR
				has_country_flag = WNG_support_SDF
			}
			if = {
				limit = {
					has_country_flag = WNG_support_EMR
				}
				FROM = {
					original_tag = EMR
				}
			}
			else = {
				FROM = {
					original_tag = SDF
				}
			}
		}
		available = {
			if = {
				limit = {
					has_country_flag = WNG_support_SDF
				}
				SDF = {
					exists = yes
					OR = {
						has_war_with = SDC
						has_war_with = SDL
						has_war_with = SDS
						has_war_with = EMR
					}
					OR = {
						has_government = fascism
						has_government = neutrality
					}
				}
			}
			else = {
				EMR = {
					exists = yes
					OR = {
						has_war_with = SDC
						has_war_with = SDL
						has_war_with = SDS
						has_war_with = EMR
					}
					OR = {
						has_government = fascism
						has_government = neutrality
					}
				}
			}
		}
		targets = { SDF EMR }
		targets_dynamic = yes
		target_trigger = {
			FROM = {
				OR = {
					original_tag = SDF
					original_tag = EMR
				}
			}
		}
		ai_will_do = {
			factor = 25
			modifier = {
				factor = 0
				has_war = yes
			}
			modifier = {
				factor = 0
				has_equipment = { infantry_equipment < 999 }
			}
		}
		custom_cost_trigger = {
			has_political_power > 49
			has_equipment = { infantry_equipment > 499 }
		}
		custom_cost_text = decision_cost_500_guns_50_pp
		complete_effect = {
			add_political_power = -50
			send_equipment = {
				target = FROM
				type = infantry_equipment
				amount = 500
			}
			FROM = {
				add_opinion_modifier = {
					target = ROOT
					modifier = lend_leased_arabian_civil_war_temp
				}
			}
		}
	}
	WNG_send_advisors_to_arabia = {
		icon = GFX_decision_generic_army_support
		allowed = {
			original_tag = WNG
		}
		visible = {
			OR = {
				has_country_flag = WNG_support_EMR
				has_country_flag = WNG_support_SDF
			}
			if = {
				limit = {
					has_country_flag = WNG_support_EMR
				}
				FROM = {
					original_tag = EMR
				}
			}
			else = {
				FROM = {
					original_tag = SDF
				}
			}
		}
		available = {
			if = {
				limit = {
					has_country_flag = WNG_support_SDF
				}
				SDF = {
					exists = yes
					OR = {
						has_war_with = SDC
						has_war_with = SDL
						has_war_with = SDS
						has_war_with = EMR
					}
					OR = {
						has_government = fascism
						has_government = neutrality
					}
				}
			}
			else = {
				EMR = {
					exists = yes
					OR = {
						has_war_with = SDC
						has_war_with = SDL
						has_war_with = SDS
						has_war_with = EMR
					}
					OR = {
						has_government = fascism
						has_government = neutrality
					}
				}
			}
		}
		targets = { SDF EMR }
		targets_dynamic = yes
		target_trigger = {
			FROM = {
				OR = {
					original_tag = SDF
					original_tag = EMR
				}
			}
		}
		ai_will_do = {
			factor = 50
			modifier = {
				factor = 0
				has_war = yes
			}
		}
		cost = 50
		fire_only_once = yes
		complete_effect = {
			FROM = {
				add_ideas = WNG_advisors
				add_opinion_modifier = {
					target = ROOT
					modifier = lend_leased_arabian_civil_war
				}
			}
		}
	}
}