on_actions = {
	on_startup = {
		effect = {
			if = { # Kiria civil war
				limit = {
					has_game_rule = {
						rule = kir_civil_war_status
						option = KIR_CIVIL_WAR
					}
					KIR = { is_ai = no }
				}
				KIR = {
					set_country_flag = KIR_CIVIL_WAR_SCRIPTED_GAME_RULE
					set_country_flag = { flag = KIR_CIVIL_WAR_SCRIPTED_GAME_RULE_TIMER days = 120 value = 1 }
					country_lock_all_division_template = yes
					country_event = { id = kirin_setup.1 }
				}
			}

			if = { # Equestria civil war
				limit = {
					has_game_rule = {
						rule = equestria_united_status
						option = EQS_STATUS_CIVIL_WAR
					}
				}
				set_global_flag = equestrian_civil_war
				EQS = {
					set_variable = {
						var = NMM_weaponstealers
						value = 1
					}
					set_variable = {
						var = NMM_workers
						value = 1
					}
					set_variable = {
						var = NMM_bats
						value = 1
					}
					set_variable = {
						var = NMM_partisans
						value = 1
					}
					country_event = equestria.106
					country_event = lunas.2
					country_event = equestria.179
					country_event = equestria.105
					country_event = equestria.100
				}
			}
			else_if = { # Twilight Theory april fools 2022
				limit = {
					has_game_rule = {
						rule = tno_april_fool
						option = TNO_APRIL_FOOL
					}
				}
				EQS = {
					country_event = {
						id = equestria_TNO_reference.1
						days = 44
					}
				}
			}
			if = { # Of Kaisers and Choirs April Fools 2024
				limit = {
					has_game_rule = {
						rule = aby_april_fool
						option = ABY_APRIL_FOOL
					}
				}
				ABY = {
					load_focus_tree = ABY_april_fools_tree
					set_country_flag = katztime
				}
			}
			if = { # River Federation federated
				limit = {
					has_game_rule = {
						rule = river_fed_united_status
						option = RIVER_FED_UNITED
					}
				}
				RCT = { unite_river_federation = yes }
			}

			if = { # Northern war Threat contained
				limit = {
					has_game_rule = {
						rule = war_in_the_north_status
						option = DED_ANNEXED
					}
				}
				HLR = {
					annex_country = {
						target = DED
						transfer_troops = no
					}
				}
			}
			else_if = { # Northern war Dread apocalypse
				limit = {
					DED = { is_ai = yes }
					has_game_rule = {
						rule = war_in_the_north_status
						option = REAL_THREAT
					}
				}
				DED = { add_ideas = DED_Special_Game_Rule_Buff }
			}

			if = { # Equestrian dominions
				limit = {
					has_game_rule = {
						rule = eqs_puppet_status
						option = DIRECT_RULE
					}
				}
				every_country = {
					limit = {
						is_subject_of = EQS
					}
					every_unit_leader = { set_nationality = EQS }
				}
				EQS  = {
					annex_country = { target = STL transfer_troops = no }
					annex_country = { target = STG transfer_troops = no }
					annex_country = { target = CRY transfer_troops = yes }
					annex_country = { target = EQC transfer_troops = yes }
					annex_country = { target = PCB transfer_troops = yes }
					every_state = {
						limit = {
							OR = {
								is_core_of = STL
								is_core_of = STG
								is_core_of = CRY
								is_core_of = EQC
								is_core_of = PCB
							}
						}
						add_core_of = EQS
					}
				}
			}

			if = { # New California Expidition april fools 2020
				limit = {
					OR = {
						has_game_rule = {
							rule = ncr_exists_status
							option = NCR_ACTIVE
						}
						has_game_rule = {
							rule = ncr_exists_status
							option = NCR_PLAY_AS
						}
					}
				}
				EQS = { country_event = utility.12 }
			}

			if = { # Dread flood april fools 2021
				limit = {
					has_game_rule = {
						rule = ded_april_fool
						option = DEFAULT
					}
				}
				DED = {
					load_focus_tree = DED
					set_technology = {
						ded_width = 1
						popup = no
					}
				}
				else = {
					DED = {
						DED_aprilfool_startup = yes
					}
				}
			}

			if = {
				limit = {
					has_game_rule = {
						rule = infunstructure
						option = PSODY_MODE
					}
				}
				every_state = {
					set_building_level = {
						type = infrastructure
						level = 0
					}
					set_building_level = {
						type = supply_node
						level = 0
					}
					set_building_level = {
						type = rail_way
						level = 0
					}
				}
			}

			# if = {
				# limit = {
					# has_game_rule = {
						# rule = gri_empire_united_status
						# option = GRI_EMPIRE_REPUBLIC
					# }
				# }
				# NTR = {
					# annex_country = { target = SRS transfer_troops = no }
					# every_state = {
						# limit = { is_core_of = SRS }
						# add_core_of = NTR
					# }
				# }
				# GRI = {
					# remove_ideas = GRI_bureaucracy
					# remove_ideas = GRI_land_thougth
					# remove_ideas = CHN_GRI_Attache_FOR_GRI
					# remove_ideas = GRI_boreas_archonate
					# set_cosmetic_tag = GRI_FAT_Puppet
					# set_popularities = {
						# democratic = 36
						# fascism = 7
						# communism = 27
						# neutrality = 30
					# }
					# set_politics = {
						# ruling_party = democratic
						# last_election = "1000.10.10"
						# election_frequency = 36
						# elections_allowed = no
					# }
					# create_country_leader = {
						# name = "Schnabel Sunglider"
						# desc = ""
						# picture = "gfx/leaders/FAT/Dem.tga"
						# expire = "1965.1.1"
						# ideology = liberalism
						# traits = {
						# }
					# }
				# }
				# FAT = {
					# set_cosmetic_tag = FAT_Monarchy
					# create_country_leader = {
						# name = "Duke Otto III"
						# desc = ""
						# picture = "Kromskoy.tga"
						# expire = "1965.1.1"
						# ideology = despotism
						# traits = {
						# }
					# }
					# set_party_name = {
						# ideology = neutrality
						# long_name = GRI_FAT_neutrality_party_long
						# name = GRI_FAT_neutrality_party
					# }
					# set_party_name = {
						# ideology = communism
						# long_name = GRI_FAT_communism_party_long
						# name = GRI_FAT_communism_party
					# }
					# remove_ideas = FAT_republican_struggle
					# remove_ideas = FAT_Chaos_idea
					# remove_ideas = FAT_unruly_army_idea
					# remove_ideas = FAT_The_Cloudburian_Minority_idea
					# remove_ideas = GRW_risk_of_famine
				# }
			# }
			# if = {
				# limit = {
					# has_game_rule = {
						# rule = gri_empire_united_status
						# option = GRI_EMPIRE_UNITED
					# }
				# }

				# GRI= {
					# if = {
						# limit = { NOT = { has_idea = modern_society } }
						# add_ideas = modern_society
					# }
					# if = {
						# limit = { NOT = { has_idea = proper_science_base } }
						# set_country_flag = proper_science_base_unlocked
						# add_ideas = proper_science_base
					# }
					# set_faction_name = "Griffonian_Empire"
				# }

				# GRI = {
					# puppet = ERI
					# puppet = EYR
					# puppet = AVI
					# puppet = FLO
					# puppet = AET
					# puppet = TRD
					# puppet = JER
					# puppet = FAT
					# puppet = CYA
					# puppet = BRF
					# puppet = BOI
					# puppet = SIC
					# puppet = WNG
					# puppet = TAL
					# puppet = FRN
					# puppet = GRY
					# puppet = GRU
					# puppet = ARA
					# puppet = LAK
					# puppet = FAL
					# puppet = LUS
					# puppet = HLQ
					# puppet = LNS
					# puppet = HAU
					# puppet = GRF
					# puppet = MIT
				# }

				# every_country = {
					# limit = {
						# is_subject_of = GRI
					# }
					# set_cosmetic_tag = GRI_SUBJECT
					# load_focus_tree = generic_griffon_focus
					# transfer_navy = { target = GRI }
					# every_unit_leader = { set_nationality = GRI }
				# }

				# AET = {
					# annex_country = { target = HEL transfer_troops = no }
					# every_state = {
						# limit = { is_core_of = HEL }
						# add_core_of = AET
					# }
				# }
				# TRD = {
					# annex_country = { target = FEZ transfer_troops = yes }
					# every_state = {
						# limit = { is_core_of = FEZ }
						# add_core_of = TRD
					# }
				# }
				# NTR = {
					# annex_country = { target = SRS transfer_troops = no }
					# every_state = {
						# limit = { is_core_of = SRS }
						# add_core_of = NTR
					# }
				# }
				# FAL = {
					# transfer_state = 530
					# set_capital = { state = 530 }
				# }
				# WNG = { remove_state_core = 530 }
				# BOI = {
					# annex_country = { target = BAN transfer_troops = yes }
					# every_state = {
						# limit = { is_core_of = BAN }
						# add_core_of = BOI
					# }
					# remove_ideas = idol_of_boreas_lost
					# remove_ideas = kingdom_with_no_king
				# }
				# BRF = {
					# transfer_state = 507
					# annex_country = { target = GRW transfer_troops = no }
					# every_state = {
						# limit = { is_core_of = GRW }
						# add_core_of = BRF
					# }
					# remove_ideas = GRW_risk_of_famine
					# remove_ideas = prywhen_civil_war
				# }
				# JER  = {
					# annex_country = { target = VIN transfer_troops = yes }
					# annex_country = { target = JEB transfer_troops = yes }
					# annex_country = { target = JFT transfer_troops = yes }
					# annex_country = { target = JRR transfer_troops = yes }
					# annex_country = { target = POM transfer_troops = yes }
					# every_state = {
						# limit = {
							# OR = {
								# is_core_of = VIN
								# is_core_of = JEB
								# is_core_of = JFT
								# is_core_of = JRR
								# is_core_of = POM
							# }
						# }
						# add_core_of = JER
					# }
					# transfer_navy = { target = GRI }
					# remove_ideas = JER_memories
				# }
				# FAT = {
					# create_country_leader = {
						# name = "Duke Otto III"
						# desc = ""
						# picture = "Kromskoy.tga"
						# expire = "1965.1.1"
						# ideology = despotism
						# traits = {
						# }
					# }
					# set_party_name = {
						# ideology = neutrality
						# long_name = GRI_FAT_neutrality_party_long
						# name = GRI_FAT_neutrality_party
					# }
					# set_party_name = {
						# ideology = communism
						# long_name = GRI_FAT_communism_party_long
						# name = GRI_FAT_communism_party
					# }
					# remove_ideas = FAT_republican_struggle
					# remove_ideas = FAT_Chaos_idea
					# remove_ideas = FAT_unruly_army_idea
					# remove_ideas = FAT_The_Cloudburian_Minority_idea
					# remove_ideas = GRW_risk_of_famine
				# }
				# LUS = {
					# remove_ideas = LUS_prywhen_communist_influence
				# }
				# #MNC = {
				# #	remove_ideas = MNC_economy
				# #}
				# GRF = { puppet = GFF }
				# GRI = { set_cosmetic_tag = GRI_MASTER }
				# FAL = { set_cosmetic_tag = FAL_GRI_puppet }
				# FAT = { set_cosmetic_tag = FAT_GRI_puppet }
				# SIC = { set_cosmetic_tag = SIC_GRI_puppet }
				# GRU = { set_cosmetic_tag = GRU_GRI_puppet }
				# FLO = { set_cosmetic_tag = FLO_GRI_puppet }
				# BRF = { set_cosmetic_tag = BRF_GRI_puppet }
				# KAT = { set_cosmetic_tag = KAT_GRI_puppet }
				# TRD = { set_cosmetic_tag = TRD_GRI_puppet }
				# STW = { set_cosmetic_tag = STW_GRI_puppet }
				# HAU = { set_cosmetic_tag = HAU_GRI_puppet }
				# MIT = { set_cosmetic_tag = MIT_GRI_puppet }
				# MNC = { set_cosmetic_tag = MNC_GRI_puppet }
				# YAL = { set_cosmetic_tag = YAL_GRI_puppet }
				# PYT = { set_cosmetic_tag = PYT_GRI_puppet }
			# }
		}
	}
}
