
########    ###    ##    ## ##    ##  ######  
   ##      ## ##   ###   ## ##   ##  ##    ## 
   ##     ##   ##  ####  ## ##  ##   ##       
   ##    ##     ## ## ## ## #####     ######  
   ##    ######### ##  #### ##  ##         ## 
   ##    ##     ## ##   ### ##   ##  ##    ## 
   ##    ##     ## ##    ## ##    ##  ######  

CHN_chntank1_organization = {
	name = chntank1
	include = generic_heavy_tank_organization
	icon = GFX_idea_CHN_aurelia_armory
	allowed = {
		has_dlc = "Arms Against Tyranny"
		OR = {
			original_tag = CHN
			original_tag = CCN
		}
	}
	
	tree_header_text = {
		text = mio_header_engine_and_drive_system
		x = 0.5
	}

	tree_header_text = {
		text = mio_header_chassis
		x = 4
	}

	tree_header_text = {
		text = mio_header_guns_and_turret
		x = 7
	}

	override_trait = {
		token = generic_mio_trait_wide_tracks
		
		position = { x=0 y=0 }
	}

	override_trait = {
		token = generic_mio_trait_one_piece_hull_side_coverings
		
		position = { x=3 y=0 }
	}

	override_trait = {
		token = generic_mio_trait_improved_crew_ergonomics

		position = { x=0 y=2 }
	}

	override_trait = {
		token = generic_mio_trait_fully_cast_turret

		position = { x=4 y=0 }
	}

	add_trait = {
		token = GER_mio_trait_multi_role_tanks
		name = GER_mio_trait_multi_role_tanks
		icon = GFX_generic_mio_department_icon_tank_heavy_tank_aa
		special_trait_background = yes

		position = { x=2 y=0 }
		relative_position_id = generic_mio_trait_one_piece_hull_side_coverings

		visible = {
			FROM = { 
				OR = {
					original_tag = CHN
					original_tag = CCN
				}
			}
		}
		available = {
		}

		equipment_bonus = {
			soft_attack = 0.05
			air_attack = 0.05
		}

		ai_will_do = {
			base = 2
		}
	}

	add_trait = {
		token = GER_mio_trait_anti_tank_specialization
		name = GER_mio_trait_anti_tank_specialization
		icon = GFX_generic_mio_department_icon_tank_heavy_tank_at
		special_trait_background = yes

		all_parents = {
            generic_mio_trait_one_piece_hull_side_coverings
            GER_mio_trait_multi_role_tanks
        }

		position = { x=1 y=1 }
		relative_position_id = generic_mio_trait_one_piece_hull_side_coverings

		visible = {
			FROM = { 
				OR = {
					original_tag = CHN
					original_tag = CCN
				}
			}
		}

		available = {
		}

		equipment_bonus = {
			hard_attack = 0.05
			ap_attack = 0.05
		}

		ai_will_do = {
			base = 2
		}
	}

	add_trait = {
		token = GER_mio_trait_unorthodox_transmission_design
		name = GER_mio_trait_unorthodox_transmission_design
		icon = GFX_generic_mio_department_icon_tank_heavy_tank_engine
		special_trait_background = yes

		all_parents = {
            generic_mio_trait_simplified_transmission_system
        }

		position = { x=-1 y=1 }
		relative_position_id = generic_mio_trait_simplified_transmission_system

		visible = {
			FROM = { 
				OR = {
					original_tag = CHN
					original_tag = CCN
				}
			}
		}

		available = {
			
		}

		limit_to_equipment_type = { 
			armor
		}

		equipment_bonus = {
			maximum_speed = 0.05
			reliability = -0.02
		}

		ai_will_do = {
			base = 2
		}
	}
	
	initial_trait = {
		organization_modifier = {
			military_industrial_organization_research_bonus = 0.05
		}
		equipment_bonus = {
			armor_value = 0.15
			defense = 0.05
		}
		production_bonus = {
			production_cost_factor = -0.05
		}
	}
}
CHN_chntank2_organization = {
	name = chntank2
	include = generic_mobile_tank_organization
	icon = GFX_idea_CHN_carapace
	allowed = {
		has_dlc = "Arms Against Tyranny"
		OR = {
			original_tag = CHN
			original_tag = PLB
			original_tag = CCN
		}
	}
	visible = {
		owner = {	
			OR = {
				original_tag = CHN
				original_tag = CCN
				AND = {
					original_tag = PLB
					has_country_flag = exu_comp
				}
			}
		}
	}
	initial_trait = {
		organization_modifier = {
			military_industrial_organization_research_bonus = 0.05
		}
		equipment_bonus = {
			soft_attack = 0.05
			armor_value = -0.05
			maximum_speed = 0.1
		}
		production_bonus = {
			production_cost_factor = -0.05
		}
	}
}
CHN_chntank3_organization = {
	name = chntank3
	include = generic_medium_tank_organization
	icon = GFX_idea_CHN_KLAA
	allowed = {
		has_dlc = "Arms Against Tyranny"
		OR = {
			original_tag = CCN
			original_tag = CHN
			original_tag = MAN
		}
	}

	available = {
		if = {
			limit = { owner = { original_tag = MAN } } 
			owner = { is_in_faction_with = CHN } 
		}
	}
	
	tree_header_text = {
		text = mio_header_design
		x = 1
	}

	tree_header_text = {
		text = mio_header_armor
		x = 4
	}

	tree_header_text = {
		text = mio_header_engines
		x = 7
	}

	override_trait = {
		token = generic_mio_trait_armor_steel_working

		position = { x=3 y=0 }
	}


	add_trait = {
		token = GER_mio_trait_high_velocity_armament
		name = GER_mio_trait_high_velocity_armament
		icon = GFX_generic_mio_department_icon_tank_general_at
		special_trait_background = yes

		position = { x=1 y=2 }
		relative_position_id = generic_mio_trait_spaced_armor

		all_parents = { generic_mio_trait_improved_gun_metallurgy }

		any_parent = { generic_mio_trait_spaced_armor generic_mio_trait_crew_survival_layout generic_mio_trait_sloped_side_armor }
		
		available = {
		}

		equipment_bonus = {
			ap_attack = 0.05
			hard_attack = 0.05
		}

		ai_will_do = {
			base = 2
		}
	}

	add_trait = {
		token = GER_mio_trait_schachtellaufwerk 
		name = GER_mio_trait_schachtellaufwerk 
		icon = GFX_generic_mio_department_icon_tank_medium_tank_quality
		special_trait_background = yes

		position = { x=-1 y=1 }
		relative_position_id = generic_mio_trait_improved_suspension

		all_parents = { generic_mio_trait_improved_suspension }

		
		available = {
		}

		equipment_bonus = {
			breakthrough = 0.03
			reliability = 0.03
		}

		ai_will_do = {
			base = 2
		}
	}

	add_trait = {
		token = GER_mio_trait_mobility_design_philosophy
		name = GER_mio_trait_mobility_design_philosophy 
		icon = GFX_generic_mio_department_icon_tank_medium_tank_engine
		special_trait_background = yes

		position = { x=1 y=1 }
		relative_position_id = generic_mio_trait_improved_suspension

		all_parents = { generic_mio_trait_improved_suspension }

		
		available = {
		}

		equipment_bonus = {
			maximum_speed = 0.05
		}

		ai_will_do = {
			base = 2
		}
	}
	
	initial_trait = {
		organization_modifier = {
			military_industrial_organization_research_bonus = 0.05
		}
		equipment_bonus = {
			hard_attack = 0.05
			reliability = 0.05
		}
		production_bonus = {
			production_cost_factor = -0.05
		}
	}
}
CHN_tank_sirius_mustang_organization = {
	name = CHN_tank_sirius_mustang
	include = generic_main_battle_tank_organization
	icon = GFX_idea_EQS_sirius
	allowed = {
		has_dlc = "Arms Against Tyranny"
		original_tag = CHN
	}

	visible = {
		owner = { has_completed_focus = CHN_post_war_2_h }
	}
}


 ######  ##     ## #### ########   ######  
##    ## ##     ##  ##  ##     ## ##    ## 
##       ##     ##  ##  ##     ## ##       
 ######  #########  ##  ########   ######  
      ## ##     ##  ##  ##              ## 
##    ## ##     ##  ##  ##        ##    ## 
 ######  ##     ## #### ##         ######  



 CHN_chnnavy2_organization = {
	name =  chnnavy2
	include = generic_battle_line_ship_organization
	icon = GFX_idea_CHN_eiskaltenseen
	allowed = {
		has_dlc = "Arms Against Tyranny"
		OR = {
			original_tag = CHN
			original_tag = CCN
			original_tag = PLB
		}
	}
	visible = {
		owner = {			
			OR = {
				original_tag = CHN
				original_tag = CCN
				AND = {
					original_tag = PLB
					has_country_flag = exu_comp
				}
			}
		}
	}

	override_trait = {
		token = generic_mio_trait_internal_armor_belt
		
		position = { x=1 y=0 }
	}

	override_trait = {
		token = generic_mio_trait_advanced_armor_design
		
		position = { x=0 y=2 }
	}

	override_trait = {
		token = generic_mio_trait_anti_air_layout
		
		position = { x=3 y=0 }
	}
	
	add_trait = {  
		token = GER_mio_trait_history_of_battleships
		name = GER_mio_trait_history_of_battleships
		icon = GFX_generic_mio_department_icon_ship_capital_ship_production
		special_trait_background = yes

		relative_position_id = generic_mio_trait_internal_armor_belt

		position = { x=1 y=0 }  


        limit_to_equipment_type = { mio_cat_eq_all_battleship }

      	equipment_bonus = {
			hg_attack = 0.05
			build_cost_ic = -0.05
		}

		ai_will_do = {
			base = 2
		}
	}

	add_trait = {  
		token = GER_mio_trait_krupp_guns
		name = GER_mio_trait_krupp_guns
		icon = GFX_generic_mio_department_icon_ship_capital_ship_weapons
		special_trait_background = yes

		relative_position_id = GER_mio_trait_history_of_battleships

		all_parents = { GER_mio_trait_history_of_battleships }
		position = { x=0 y=1 }  

      	equipment_bonus = {
			hg_attack = 0.05
			lg_attack = 0.05
		}

		ai_will_do = {
			base = 2
		}
	}

	add_trait = {  
		token = GER_mio_trait_h_class_battleships
		name = GER_mio_trait_h_class_battleships
		icon = GFX_generic_mio_department_icon_ship_capital_ship_quality
		special_trait_background = yes

		relative_position_id = GER_mio_trait_krupp_guns

		all_parents = { GER_mio_trait_krupp_guns }

		position = { x=0 y=1 }  

        limit_to_equipment_type = { mio_cat_eq_all_battleship }

      	equipment_bonus = {
			hg_armor_piercing = 0.05
			naval_speed = 0.05
			build_cost_ic = -0.05
		}

		ai_will_do = {
			base = 2
		}
	}

}

CHN_chnnavy1_organization = {
	name =  chnnavy1
	include = generic_raider_ship_organization
	icon = GFX_idea_CHN_NG_shipyards
	allowed = {
		has_dlc = "Arms Against Tyranny"
		original_tag = CHN
	}

	override_trait = {
		token = generic_mio_trait_unescorted_raider_requirements
		
		position = { x=2 y=1 }
	}
	override_trait = {
		token = generic_mio_trait_raider_escort_requirements
		
		position = { x=0 y=1 }
	}

	add_trait = {  
		token = GER_mio_trait_heavy_raiders
		name = GER_mio_trait_heavy_raiders
		icon = GFX_generic_mio_department_icon_ship_screen_ship_engine
		special_trait_background = yes

		relative_position_id = generic_mio_trait_raiding_capital_ships

		all_parents = { generic_mio_trait_raiding_capital_ships }

		position = { x=-2 y=1 }  

        limit_to_equipment_type = { ship_hull_cruiser }

      	equipment_bonus = {
			surface_visibility = -0.05
			naval_speed = 0.05
			naval_range = 0.05
		}

		ai_will_do = {
			base = 2
		}
	}

	add_trait = {  
		token = GER_mio_trait_o_class_battlecruisers
		name = GER_mio_trait_o_class_battlecruisers
		icon = GFX_generic_mio_department_icon_ship_screen_ship_engine
		special_trait_background = yes

		relative_position_id = GER_mio_trait_heavy_raiders

		all_parents = { GER_mio_trait_heavy_raiders }

		position = { x=0 y=1 }  

        limit_to_equipment_type = { mio_cat_eq_all_cruiser }

      	equipment_bonus = {
			hg_armor_piercing = 0.05
			naval_speed = 0.05
			build_cost_ic = -0.05
		}

		ai_will_do = {
			base = 2
		}
	}

	add_trait = {  
		token = GER_mio_trait_u_boat_yards
		name = GER_mio_trait_u_boat_yards
		icon = GFX_generic_mio_department_icon_ship_submarine_production
		special_trait_background = yes

		relative_position_id = generic_mio_trait_raiding_submarines

		all_parents = { generic_mio_trait_raiding_submarines }

		position = { x=2 y=1 }  

        limit_to_equipment_type = { submarine }

        equipment_bonus = {
			build_cost_ic = -0.1		
		}

		ai_will_do = {
			base = 2
		}
	}

	add_trait = {  
		token = GER_mio_trait_high_test_peroxide
		name = GER_mio_trait_high_test_peroxide
		icon = GFX_generic_mio_department_icon_ship_submarine_engine
		special_trait_background = yes

		relative_position_id = GER_mio_trait_u_boat_yards

		all_parents = { GER_mio_trait_u_boat_yards }

		position = { x=0 y=1 }  

        limit_to_equipment_type = { submarine }

        equipment_bonus = {
			naval_speed = 0.1		
		}

		ai_will_do = {
			base = 2
		}
	}
}


########  ##          ###    ##    ## ########  ######  
##     ## ##         ## ##   ###   ## ##       ##    ## 
##     ## ##        ##   ##  ####  ## ##       ##       
########  ##       ##     ## ## ## ## ######    ######  
##        ##       ######### ##  #### ##             ## 
##        ##       ##     ## ##   ### ##       ##    ## 
##        ######## ##     ## ##    ## ########  ######  


CHN_chnairm5_organization = {
	name = chnairm5
	include = generic_light_aircraft_organization
	icon = GFX_idea_CHN_svarm_aircraft
	allowed = {
		has_dlc = "Arms Against Tyranny"
		OR = {
			original_tag = CHN
			original_tag = CCN
		}
	}
	add_trait = {
		token = CHN_mio_trait_maintenance_first_design
		name = GER_mio_trait_maintenance_first_design

		icon = GFX_generic_mio_department_icon_plane_fighter_line_efficiency
		special_trait_background = yes
		
		position = { x=-2 y=1 }
		relative_position_id = generic_mio_trait_expanded_production_facilities

		all_parents = { generic_mio_trait_expanded_production_facilities }

		equipment_bonus = {
			reliability = 0.05
		}

		production_bonus = {
			production_efficiency_gain_factor = 0.05
		}
	}

	add_trait = {
		token = CHM_mio_trait_fuselage_based_weapons
		name = GER_mio_trait_fuselage_based_weapons

		icon = GFX_generic_mio_trait_icon_anti_air_attack
		special_trait_background = yes
		
		position = { x=1 y=1 }
		relative_position_id = generic_mio_trait_gun_pods

		any_parent = { generic_mio_trait_heavier_airframe generic_mio_trait_maximum_wing_loads generic_mio_trait_gun_pods }

		equipment_bonus = {
			air_attack = 0.05
			air_agility = 0.05
		} 
	}
}
CHN_chnairm4_organization = {
	name = chnairm4
	include = generic_cas_aircraft_organization
	icon = GFX_idea_CHN_vespidae
	allowed = {
		has_dlc = "Arms Against Tyranny"
		OR = {
			original_tag = CHN
			original_tag = CCN
		}
	}
	
	add_trait = {
		token = CHN_mio_trait_psychological_warfare
		name = GER_mio_trait_psychological_warfare

		icon = GFX_generic_mio_trait_icon_fuel_consumption
		special_trait_background = yes
		
		position = { x=2 y=0 }
		relative_position_id = generic_mio_trait_reinforced_wings

		equipment_bonus = {
			fuel_consumption = -0.05
		} 
	}
	
	add_trait = {
		token = GER_mio_trait_90_degree_dives
		name = GER_mio_trait_90_degree_dives

		icon = GFX_generic_mio_department_icon_plane_cas_quality
		special_trait_background = yes
		
		position = { x=0 y=1 }
		relative_position_id = generic_mio_trait_automatic_pull_out
		all_parents = { generic_mio_trait_automatic_pull_out }

		equipment_bonus = {
			air_ground_attack = 0.05
		} 
	}
}
CHN_chnairm3_organization = {
	name = chnairm3
	include = generic_medium_aircraft_organization
	icon = GFX_idea_CHN_united_wing_association
	allowed = {
		has_dlc = "Arms Against Tyranny"
		OR = {
			original_tag = CHN
			original_tag = CCN
		}
	}
	
	add_trait = {
		token = GER_mio_trait_flying_boat_specialist
		name = GER_mio_trait_flying_boat_specialist
		icon = GFX_generic_mio_trait_icon_torpedo_attack
		special_trait_background = yes
		
		position = { x=-1 y=1 }
		relative_position_id = generic_mio_trait_skip_bombing
		all_parents = { generic_mio_trait_skip_bombing }

		limit_to_equipment_type = { mio_cat_eq_all_medium_plane }

		equipment_bonus = {
			surface_detection = 0.03
			naval_strike_attack = 0.05
		} 
	}

	add_trait = {
		token = GER_mio_trait_schnellbomber_doctrine
		name = GER_mio_trait_schnellbomber_doctrine
		icon = GFX_generic_mio_department_icon_plane_medium_engine
		special_trait_background = yes
		
		position = { x=-1 y=1 }
		relative_position_id = generic_mio_trait_refined_engines
		all_parents = { generic_mio_trait_refined_engines }

		limit_to_equipment_type = { mio_cat_eq_all_medium_plane }

		equipment_bonus = {
			maximum_speed = 0.1
		} 
	} 
}
CHN_chnairm2_organization = {
	name = chnairm2
	include = generic_heavy_aircraft_organization
	icon = GFX_idea_generic_air_manufacturer_2
	allowed = {
		has_dlc = "Arms Against Tyranny"
		OR = {
			original_tag = CHN
			original_tag = CCN
		}
	}
	
	tree_header_text = {
		text = mio_header_design_department
		x = 2
	}

	tree_header_text = {
		text = mio_header_operational_department
		x = 7
	}

	override_trait = {
		token = generic_mio_trait_advanced_turbochargers

		position = { x=0 y=1 }
	}

	override_trait = {
		token = generic_mio_trait_extended_rear_fuselage

		position = { x=5 y=0 }
	}

	override_trait = {
		token = generic_mio_trait_pressurized_cockpit

		position = { x=2 y=1 }
	}

	add_trait = {
		token = GER_mio_trait_doppel_blitz
		name = GER_mio_trait_doppel_blitz
		icon = GFX_generic_mio_department_icon_plane_heavy_engine
		special_trait_background = yes
		
		position = { x=3 y=0 }
		relative_position_id = generic_mio_trait_reinforced_frames

		equipment_bonus = {
			maximum_speed = 0.05
		} 
	} 

	add_trait = {
		token = GER_mio_trait_advanced_night_equipment
		name = GER_mio_trait_advanced_night_equipment
		icon = GFX_generic_mio_trait_icon_detection
		special_trait_background = yes
		
		position = { x=-1 y=1 }
		relative_position_id = generic_mio_trait_pressurized_cockpit
		all_parents = { generic_mio_trait_pressurized_cockpit }

		equipment_bonus = {
			night_penalty = -0.05
		} 
	} 

	add_trait = {
		token = GER_mio_trait_stepless_cockpit
		name = GER_mio_trait_stepless_cockpit
		icon = GFX_generic_mio_trait_icon_strategic_attack
		special_trait_background = yes
		
		position = { x=1 y=1 }
		relative_position_id = generic_mio_trait_pressurized_cockpit
		all_parents = { generic_mio_trait_pressurized_cockpit }

		limit_to_equipment_type = { large_plane_airframe strat_bomber_intercontinental_equipment }

		equipment_bonus = {
			air_bombing = 0.05
		} 
	} 
}
CHN_chnairm1_organization = {
	name = chnairm1
	include = generic_naval_aircraft_organization
	icon = GFX_idea_CHN_klab
	allowed = {
		has_dlc = "Arms Against Tyranny"
		OR = {
			original_tag = CHN
			original_tag = CCN
		}
	}
}




##     ##    ###    ######## ######## ########  #### ######## ##       
###   ###   ## ##      ##    ##       ##     ##  ##  ##       ##       
#### ####  ##   ##     ##    ##       ##     ##  ##  ##       ##       
## ### ## ##     ##    ##    ######   ########   ##  ######   ##       
##     ## #########    ##    ##       ##   ##    ##  ##       ##       
##     ## ##     ##    ##    ##       ##    ##   ##  ##       ##       
##     ## ##     ##    ##    ######## ##     ## #### ######## ######## 


CHN_chnequip1_organization = {
	include = generic_artillery_organization
	name = chnequip1
	icon = GFX_idea_CHN_eiskaltenseen

	allowed = {
		OR = {
			original_tag = CHN
			original_tag = CCN
		}
		has_dlc = "Arms Against Tyranny"
	}
	
	add_trait = { 
		token = GER_mio_trait_3_7_cm_pak
		name = GER_mio_trait_3_7_cm_pak
		icon = GFX_generic_mio_department_icon_anti_tank
		special_trait_background = yes

		position = { x = 1 y = 0 }
		relative_position_id = generic_mio_trait_big_guns

		#any_parent = { generic_mio_trait_cantilever_wing_structure }

		limit_to_equipment_type = { 
			anti_tank_equipment
		}

		equipment_bonus = {
			ap_attack = 0.05
			hard_attack = 0.05
			soft_attack = 0.1
		}
	}

	add_trait = { 
		token = GER_mio_trait_7_5_cm_pak
		name = GER_mio_trait_7_5_cm_pak
		icon = GFX_generic_mio_trait_icon_ap_attack
		special_trait_background = yes

		position = { x = 0 y = 1 }
		relative_position_id = GER_mio_trait_3_7_cm_pak

		any_parent = { GER_mio_trait_3_7_cm_pak }

		limit_to_equipment_type = { 
			anti_tank_equipment
		}

		equipment_bonus = {
			ap_attack = 0.05
			hard_attack = 0.1
		}
	}

	add_trait = { 
		token = GER_mio_trait_versatile_carriage
		name = GER_mio_trait_versatile_carriage
		icon = GFX_generic_mio_department_icon_anti_air
		special_trait_background = yes

		position = { x = 1 y = 1 }
		relative_position_id = generic_mio_trait_rapid_fire

		all_parents = {
			generic_mio_trait_rapid_fire
			generic_mio_trait_advanced_barrel_forging
		}

		limit_to_equipment_type = { 
			anti_tank_equipment
			anti_air_equipment
		}

		equipment_bonus = {
			ap_attack = 0.03
			hard_attack = 0.03
			air_attack = 0.05
		}
	}

	add_trait = { 
		token = GER_mio_trait_dual_recoil_mechanism
		name = GER_mio_trait_dual_recoil_mechanism
		icon = GFX_generic_mio_department_icon_artillery
		special_trait_background = yes

		position = { x = 1 y = 1 }
		relative_position_id = generic_mio_trait_advanced_barrel_forging

		all_parents = {
			generic_mio_trait_advanced_barrel_forging
			generic_mio_trait_big_guns
		}

		available = {
			FROM = {
				has_tech = artillery3
			}
		}

		limit_to_equipment_type = { 
			artillery_equipment
		}

		equipment_bonus = {
			soft_attack = 0.1
			build_cost_ic = 0.05
		}
	}
	initial_trait = {
		equipment_bonus = {
			defense = 0.15
		}
	}
}


CHN_chnequip2_organization = {
	include = generic_infantry_equipment_organization
	name = chnequip2
	icon = GFX_idea_CHN_nidhogg

	allowed = {
		OR = {
			original_tag = CHN
			original_tag = CCN
		}
		has_dlc = "Arms Against Tyranny"
	}
	
	override_trait = {
		token = generic_mio_trait_armor_piercing_rounds

		position = { x=0 y=2 }
	}

	override_trait = {
		token = generic_mio_trait_advanced_barrel_forging

		position = { x=1 y=2 }
	}

	override_trait = {
		token = generic_mio_trait_reinforced_stocks

		position = { x=3 y=0 }
	}

	override_trait = {
		token = generic_mio_trait_medium_machineguns

		position = { x=0 y=2 }
	}
	
	add_trait = {
		token = GER_mio_trait_experienced_manufacturer
		name = GER_mio_trait_experienced_manufacturer
		icon = GFX_generic_mio_trait_icon_reliability
		special_trait_background = yes

		position = { x=-1 y=0 }  
		relative_position_id = generic_mio_trait_drum_pattern_sights

		equipment_bonus = {
			reliability = 0.05
		}

		ai_will_do = {
			base = 2
		}
	}

	add_trait = {
		token = GER_mio_trait_export_models
		name = GER_mio_trait_export_models
		icon = GFX_generic_mio_department_icon_facilities
		special_trait_background = yes

		position = { x=-1 y=1 }  
		relative_position_id = generic_mio_trait_drum_pattern_sights
		production_bonus = {
			production_efficiency_cap_factor = 0.03
			production_cost_factor = -0.03
		}
		
		ai_will_do = {
			base = 2
		}
	}

	add_trait = {
		token = GER_mio_trait_karabiner
		name = GER_mio_trait_karabiner
		icon = GFX_generic_mio_trait_icon_production_capacity
		special_trait_background = yes

		position = { x=0 y=1 }  
		relative_position_id = generic_mio_trait_reinforced_stocks

		all_parents = {	generic_mio_trait_reinforced_stocks }

		equipment_bonus = {
			soft_attack = 0.03
		}

		production_bonus = {
			production_capacity_factor = 0.03
		}

		ai_will_do = {
			base = 2
		}
	}

	add_trait = {
		token = GER_mio_trait_sturmgewehr
		name = GER_mio_trait_sturmgewehr
		icon = GFX_generic_mio_department_icon_infantry_offense
		special_trait_background = yes

		position = { x=2 y=2 }
		relative_position_id = generic_mio_trait_bolt_action

		any_parent = { generic_mio_trait_semi_auto generic_mio_trait_bolt_action }

		available = {
			FROM = {
				has_tech = advanced_infantry_weapons
			}
		}

		equipment_bonus = {
			soft_attack = 0.07
			breakthrough = 0.03
		}

		production_bonus = {
			production_cost_factor = 0.05
		}

		ai_will_do = {
			base = 2
		}
	}
}

CHN_chnequip3_organization = {
	include = generic_motorized_mechanized_organization
	name = chnequip3
	icon = GFX_idea_CHN_open_carriers_and_automotives

	allowed = {
		has_dlc = "Arms Against Tyranny"
		OR = {
			original_tag = CHN
			original_tag = CCN
			original_tag = PLB
		}
	}
	visible = {
		owner = {			
			OR = {
				original_tag = CHN
				original_tag = CCN
				AND = {
					original_tag = PLB
					has_country_flag = exu_comp
				}
			}
		}
	}
	
	add_trait = {
		token = GER_mio_trait_continental_ag_tires
		name = GER_mio_trait_continental_ag_tires
		icon = GFX_generic_mio_trait_icon_reliability
		special_trait_background = yes

		position = { x=9 y=0 }  

		equipment_bonus = {
			reliability = 0.05
			build_cost_ic = -0.02
		}

		ai_will_do = {
			base = 2
		}
	}

	add_trait = {
		token = GER_mio_trait_ford_facilities
		name = GER_mio_trait_ford_facilities
		icon = GFX_generic_mio_trait_icon_production_capacity
		special_trait_background = yes

		position = { x=9 y=1 }  

		production_bonus = {
			production_capacity_factor = 0.05
		}

		ai_will_do = {
			base = 2
		}
	}

	add_trait = {
		token = GER_mio_trait_efficiency_in_mass_production
		name = GER_mio_trait_efficiency_in_mass_production
		icon = GFX_generic_mio_trait_icon_efficiency_cap
		special_trait_background = yes

		position = { x=0 y=1 }
		relative_position_id = GER_mio_trait_ford_facilities

		any_parent = { GER_mio_trait_ford_facilities }

		production_bonus = {
			production_efficiency_cap_factor = 0.05
		}

		ai_will_do = {
			base = 2
		}
	}

	add_trait = {
		token = GER_mio_trait_improved_engines
		name = GER_mio_trait_improved_engines
		icon = GFX_generic_mio_department_icon_motorized_mechanized_engine
		special_trait_background = yes

		position = { x=-1 y=1 }
		relative_position_id = GER_mio_trait_ford_facilities

		any_parent = { GER_mio_trait_ford_facilities }

		equipment_bonus = {
			maximum_speed = 0.05
			reliability = 0.03
			build_cost_ic = 0.02
		}

		ai_will_do = {
			base = 2
		}
	}
	
	initial_trait = {
		equipment_bonus = {
			reliability = 0.02
			build_cost_ic = -0.05
		}
	}
}
