
strategic_region={
	id=287
	name="STRATEGICREGION_287"
	provinces={
		218 2608 2633 3607 5413 5437 5460 5485 5511 5535 5537 5559 5609 5635 5637 5701 5727 5847 5856 5897 8455 8483 8510 8535 8558 8594 8659 8674 
	}
	naval_terrain=water_deep_ocean
	weather={
	}
}
