characters={
	GRF_governor_teafeather={
		name=GRF_governor_teafeather
		portraits={
			civilian={
				large="gfx/leaders/GRF/Governor.tga"
			}
		}
		country_leader={
			desc="teabird_desc"
			ideology=centrism
			traits={ popular_figurehead2 }
			expire="1965.1.1.1"
			id=-1
		}
	}
	GRF_provisional_council={
		name=GRF_provisional_council
		portraits={
			civilian={
				large="GFX_portrait_Council_GRF"
			}
		}
	}
	GRF_reyhard_ironclaw={
		name=GRF_reyhard_ironclaw
		portraits={
			civilian={
				large="gfx/leaders/GRF/Ironclaw.tga"
			}
			army={
				large="gfx/leaders/GRF/Ironclaw.tga"
				small="GFX_idea_GRF_reyhard_ironclaw"
			}
		}
		allowed_civil_war = {	
			OR = {
				has_government = neutrality
				has_government = fascism
			}
        }
		
		country_leader={
			desc="caesar_from_fnv_desc"
			ideology=nazism
			traits={ warmonger dictator }
			expire="1965.1.1.1"
			id=-1
		}
		corps_commander={
			traits={ old_guard griffon_race_trait politically_connected harsh_leader }
			skill=2
			attack_skill=4
			defense_skill=1
			planning_skill=1
			logistics_skill=1
		}
	}
	GRF_protector_kute={
		name=GRF_protector_kute
		portraits={
			civilian={
				large="gfx/leaders/GRF/GovernorKute.tga"
			}
		}
	}
	GRF_wilhelm_silverwing={
		name=GRF_wilhelm_silverwing
		portraits={
			civilian= {
				large="gfx/leaders/GRF/Wilhelm_Silverwing.tga"
			}
			army = {
				large="gfx/leaders/GRF/Wilhelm_Silverwing.tga"
				small="GFX_idea_GRF_wilhelm_silverwing"
			}
		}
		allowed_civil_war = {	
			OR = {
				has_government = democratic
				has_government = communism
			}
        }
		country_leader={
			desc="always_depressed_desc"
			ideology=socialism
			expire="1965.1.1.1"
			id=-1
			traits = { defender_of_the_peasantry }
		}
	}
	GRF_triton_blackpeak={
		name=GRF_triton_blackpeak
		allowed_civil_war = {	
			OR = {
				has_government = democratic
				has_government = communism
			}
        }
		portraits={
			civilian={
				large="gfx/leaders/GRF/Triton_Blackpeak.tga"
			}
		}
	}
	GRF_heinrich_redtail={
		name=GRF_heinrich_redtail
		portraits={
			civilian={
				large="gfx/leaders/GRF/Heinrich.tga"
			}
		}
		allowed_civil_war = {	
			OR = {
				has_government = democratic
				has_government = communism
			}
        }
		country_leader={
			desc="snooty_commie_bird_desc"
			ideology=democratic_socialism
			expire="1965.1.1.1"
			id=-1
			traits = { labor_defense_organizer }
		}
	}
	GRF_erwin_highhill={
		name=GRF_erwin_highhill
		portraits={
			army={
				large="gfx/leaders/GRF/Highhill.tga"
				small="GFX_idea_GRF_Erwin_Highhill"
			}
		}
		allowed_civil_war = {
			OR = {
				has_government = neutrality
				has_government = fascism
			}
        }
		
		field_marshal={
			traits={ old_guard griffon_race_trait offensive_doctrine }
			skill=3
			attack_skill=2
			defense_skill=2
			planning_skill=3
			logistics_skill=3
			legacy_id=10101
			desc = chadhill_desc
		}
		
		advisor = {
			slot = high_command
			idea_token = erwinh
			ledger = army
			cost = 50
			allowed = {
				original_tag = GRF
			}
			available = {
				NOT = { has_country_flag = GRF_refuse_junta }
				custom_trigger_tooltip = {
					tooltip = HAS_UNIT_LEADER_HIGHILL
					GRF_erwin_highhill = { is_unit_leader = yes }
				}
			}
			traits = { army_infantry_1 }
			ai_will_do = {
				factor = 1
			}
			on_add = {
				owner = {
					add_power_balance_value = {
						id = GRF_civil_war_bop
						value = 0.025
					}
				}
			}
			on_remove = {
				owner = {
					add_power_balance_value = {
						id = GRF_civil_war_bop
						value = -0.025
					}
				}
			}
		}
	}
	GRF_gabriel={
		name=GRF_gabriel
		portraits={
			army={
				large="gfx/leaders/GRF/Gabriel.tga"
				small="GFX_idea_GRF_Gabriel"
			}
		}
		allowed_civil_war = {
			OR = {
				has_government = communism
				has_government = democratic
			}
		}
		
		corps_commander={
			traits={ thestral_race_trait trait_mountaineer }
			skill=2
			attack_skill=1
			defense_skill=2
			planning_skill=2
			logistics_skill=2
			legacy_id=-1
		}
	}
	GRF_hector_goldcrest={
		name=GRF_hector_goldcrest
		portraits={
			army={
				large="gfx/leaders/GRF/Hector.tga"
				small="GFX_idea_GRF_Hector_Goldcrest"
			}
		}
		allowed_civil_war = {
			OR = {
				has_government = neutrality
				has_government = fascism
			}
        }
		
		corps_commander={
			traits={ griffon_race_trait ranger }
			skill=3
			attack_skill=2
			defense_skill=3
			planning_skill=2
			logistics_skill=3
			legacy_id=-1
		}
	}
	GRF_erika_rosetalon={
		name=GRF_erika_rosetalon
		portraits={
			army={
				large="gfx/leaders/GRF/Erika.tga"
				small="GFX_idea_GRF_Erika_Rosetalon"
			}
		}
		allowed_civil_war = {
			OR = {
				has_government = communism
				has_government = democratic
			}
        }
		
		advisor = {
			slot = high_command
			idea_token = erika_rosetalon
			ledger = army
			cost = 50
			
			allowed = {
				original_tag = GRF
			}
			traits = { army_logistics_1 }
			ai_will_do = {
				factor = 1
			}
			
			on_add = {
				owner = {
					add_power_balance_value = {
						id = GRF_civil_war_bop
						value = -0.025
					}
				}
			}
			on_remove = {
				owner = {
					add_power_balance_value = {
						id = GRF_civil_war_bop
						value = 0.025
					}
				}
			}
		}
		corps_commander={
			traits={ griffon_race_trait hill_fighter skilled_staffer  }
			skill=2
			attack_skill=2
			defense_skill=1
			planning_skill=2
			logistics_skill=2
			legacy_id=-1
		}
	}
	GRF_toki_bright={
		name=GRF_toki_bright
		portraits={
			army={
				large="gfx/leaders/GRF/BrightSomething.tga"
				small="GFX_idea_GRF_Toki_Bright"
			}
		}
		allowed_civil_war = {
			OR = {
				has_government = communism
				has_government = democratic
			}
        }
		
		corps_commander={
			traits={ pony_race_trait trait_mountaineer }
			skill=1
			attack_skill=1
			defense_skill=1
			planning_skill=1
			logistics_skill=1
			legacy_id=-1
		}
	}
	GRF_daniel_crimsonbeak={
		name=GRF_daniel_crimsonbeak
		portraits={
			army={
				large="gfx/leaders/GRF/Danior.tga"
				small="GFX_idea_GRF_Daniel_Crimsonbeak"
			}
		}
		allowed_civil_war = {
			OR = {
				has_government = communism
				has_government = democratic
			}
        }
		
		corps_commander={
			traits={ griffon_race_trait panzer_leader }
			skill=2
			attack_skill=3
			defense_skill=1
			planning_skill=2
			logistics_skill=1
			legacy_id=810
			desc = chernobyl_beak
		}
	}
	GRF_paddy_rockfeller={
		name=GRF_paddy_rockfeller
		portraits={
			army={
				large="gfx/leaders/GRF/CroppedPaddy.tga"
				small="GFX_idea_GRF_Paddy_Rockfeller"
			}
		}
		allowed_civil_war = {
			OR = {
				has_government = communism
				has_government = democratic
			}
        }
		
		corps_commander={
			traits={ air_force_commander bleeding_heart pony_race_trait }
			skill=2
			attack_skill=2
			defense_skill=2
			planning_skill=1
			logistics_skill=2
			legacy_id=820
			desc = GRF_paddy_desc
		}
	}
	GRF_jean_de_basse={
		name=GRF_jean_de_basse
		portraits={
			army={
				large="gfx/leaders/GRF/Jean.tga"
				small="GFX_idea_GRF_Jean_de_Basse"
			}
		}
		allowed_civil_war = {
			OR = {
				has_government = neutrality
				has_government = fascism
			}
        }
		
		advisor = {
			slot = high_command
			idea_token = jean_de_basse
			ledger = army
			cost = 50
			
			allowed = {
				original_tag = GRF
			}
			traits = { army_regrouping_1 }
			ai_will_do = {
				factor = 1
			}
			on_add = {
				owner = {
					add_power_balance_value = {
						id = GRF_civil_war_bop
						value = 0.025
					}
				}
			}
			on_remove = {
				owner = {
					add_power_balance_value = {
						id = GRF_civil_war_bop
						value = -0.025
					}
				}
			}
		}
		corps_commander={
			traits={ griffon_race_trait organizer trickster winter_specialist }
			skill=3
			attack_skill=2
			defense_skill=3
			planning_skill=2
			logistics_skill=3
			legacy_id=821
			desc = GRF_jean_desc
		}
	}
	GRF_nick_vinchester={
		name=GRF_nick_vinchester
		portraits={
			army={
				large="gfx/leaders/GRF/Nick_Vinchester.tga"
				small="GFX_idea_GRF_Nick_Vinchester"
			}
		}
		navy_leader={
			traits={ griffon_race_trait fly_swatter cruiser_captain }
			skill=3
			attack_skill=2
			defense_skill=2
			maneuvering_skill=1
			coordination_skill=1
			legacy_id=-1
		}
	}
	GRF_heinrich_lighttalon={
		name=GRF_heinrich_lighttalon
		portraits={
			army={
				large="gfx/leaders/Asia/portrait_griffon_generic_navy_2.dds"
				small="GFX_portrait_griffon_generic_navy_2_small"
			}
		}
		allowed_civil_war = {
			OR = {
				has_government = neutrality
				has_government = fascism
			}
        }
		
		navy_leader={
			traits={ griffon_race_trait inshore_fighter }
			skill=3
			attack_skill=1
			defense_skill=2
			maneuvering_skill=1
			coordination_skill=1
			legacy_id=-1
		}
	}
	GRF_conrad_darkclaw={
		name=GRF_conrad_darkclaw
		portraits={
			army={
				large="gfx/leaders/Asia/portrait_griffon_generic_navy_5.dds"
				small="GFX_portrait_griffon_generic_navy_5_small"
			}
		}
		allowed_civil_war = {
			OR = {
				has_government = communism
				has_government = democratic
			}
        }
		
		navy_leader={
			traits={ bold griffon_race_trait }
			skill=1
			attack_skill=1
			defense_skill=1
			maneuvering_skill=1
			coordination_skill=1
			legacy_id=-1
		}
	}
	GRF_horst_longbeak={
		name=GRF_horst_longbeak
		portraits={
			army={
				large="gfx/leaders/Asia/portrait_griffon_generic_navy_3.dds"
				small="GFX_portrait_griffon_generic_navy_3_small"
			}
		}
		navy_leader={
			traits={ chief_engineer griffon_race_trait spotter }
			skill=2
			attack_skill=3
			defense_skill=1
			maneuvering_skill=1
			coordination_skill=1
			legacy_id=-1
		}
	}

	GRF_oscar = {
		name = oscar
		portraits = {
			civilian = {
				small = "GFX_idea_GRF_Oscar"
			}
		}

		advisor = {
			slot = political_advisor
			idea_token = oscar
			
			allowed = {
				original_tag = GRF
			}
			ai_will_do = {
				factor = 1.5
			}
			traits = { silent_workgriffon }
		}
	}
	
	GRF_skeiron = {
		name = skeiron
		portraits = {
			civilian = {
				small = "GFX_idea_GRF_Skeiron"
				large = "gfx/leaders/GRF/Skeiron_Goldfeather.tga"
			}
		}
		allowed_civil_war = {
			OR = {
				has_government = neutrality
				has_government = fascism
			}
        }
		advisor = {
			slot = political_advisor
			idea_token = skeiron
			
			allowed = {
				original_tag = GRF
			}
			visible = {
			    NOT = {
				    OR = {
					    has_government = communism
						has_government = democratic
					}
				}
			}
			available = {
				NOT = {
				    OR = {
					    has_government = communism
						has_government = democratic
					}
				}
			}
			on_add = {
				owner = {
					add_power_balance_value = {
						id = GRF_civil_war_bop
						value = 0.025
					}
				}
			}
			on_remove = {
				owner = {
					add_power_balance_value = {
						id = GRF_civil_war_bop
						value = -0.025
					}
				}
			}
			traits = { war_industrialist }
		}

		country_leader = {
			desc = "ultimate_griffon_desc"
			#picture = "Skeiron_Goldfeather.tga"
			expire = "1965.1.1"
			ideology = corporatocracy
			traits = { }
		}
	}

	GRF_triton = {
		name = triton
		portraits = {
			civilian = {
				small = "GFX_idea_GRF_Triton"
			}
		}
		allowed_civil_war = {
			OR = {
				has_government = communism
				has_government = democratic
			}
        }
		advisor = {
			slot = political_advisor
			idea_token = triton
			
			allowed = {
				original_tag = GRF
			}
			visible = {
			    NOT = {
					has_government = fascism
				}
			}
			available = {
				NOT = {
					has_government = fascism
				}
			}
			on_add = {
				owner = {
					add_power_balance_value = {
						id = GRF_civil_war_bop
						value = -0.025
					}
				}
			}
			on_remove = {
				owner = {
					add_power_balance_value = {
						id = GRF_civil_war_bop
						value = 0.025
					}
				}
			}
			traits = { captain_of_industry }
		}
	}
	
	GRF_andor = {
		name = andor
		portraits = {
			civilian = {
				small = "GFX_idea_GRF_Andor"
			}
		}
		allowed_civil_war = {
			OR = {
				has_government = neutrality
				has_government = fascism
			}
        }
		advisor = {
			slot = political_advisor
			idea_token = andor
			
			allowed = {
				original_tag = GRF
			}
			traits = { prince_of_terror }
		
		}
	}
	GRF_eric = {
		name = eric
		portraits = {
			civilian = {
				small = "GFX_idea_unknown_advisor_griffon"
			}
		}
		allowed_civil_war = {	
			OR = {
				has_government = fascism
				has_government = neutrality
			}
        }
		advisor = {
			slot = political_advisor
			idea_token = eric
			
			allowed = {
				original_tag = GRF
			}
			visible = {
			    has_government = fascism
			}
			traits = { collaborating_press_chief }
		}
	}
	GRF_irmela = {
		name = irmela
		portraits = {
			civilian = {
				small = "GFX_idea_GRF_Irmela"
			}
		}
		
		advisor = {
			slot = political_advisor
			idea_token = irmela
			
			allowed = {
				original_tag = GRF
			}
			visible = {
				OR = {
					has_government = communism
					has_government = democratic
					has_government = neutrality
				}
			}
			traits = { backroom_backstabber }
		}
	}
	GRF_myron = {
		name = myron
		portraits = {
			civilian = {
				small = "GFX_idea_WNG_Griffmadeo_bordiga"
			}
		}
		
		advisor = {
			slot = political_advisor
			idea_token = myron
			
			allowed = {
				original_tag = GRF
			}
			#picture = WNG_Griffmadeo_bordiga
			visible = {
				OR = {
					has_government = communism
					has_government = democratic
					has_government = neutrality
				}
			}
			traits = { compassionate_gentleman }
		}
	}
	GRF_ophion = {
		name = ophion
		portraits = {
			army = {
				small = "GFX_idea_GRF_Ophion"
			}
		}
		allowed_civil_war = {
			OR = {
				has_government = communism
				has_government = democratic
			}
        }
		advisor = {
			slot = army_chief
			idea_token = ophion
			cost = 100

			allowed = {
				original_tag = GRF
			}
			traits = { army_chief_defensive_2 }
			ai_will_do = {
				factor = 1
			}
		}
	}
	GRF_astraea = {
		name = astraea
		portraits = {
			army = {
				small = "GFX_idea_GRF_Astraea"
			}
		}
		allowed_civil_war = {
			OR = {
				has_government = neutrality
				has_government = fascism
			}
        }
		advisor = {
			slot = army_chief
			idea_token = astraea
			cost = 50
			
			allowed = {
				original_tag = GRF
			}
			traits = { army_chief_maneuver_1 }
			ai_will_do = {
				factor = 1
			}
			on_add = {
				owner = {
					add_power_balance_value = {
						id = GRF_civil_war_bop
						value = 0.025
					}
				}
			}
			on_remove = {
				owner = {
					add_power_balance_value = {
						id = GRF_civil_war_bop
						value = -0.025
					}
				}
			}
		}
	}
	GRF_eyda = {
		name = eyda
		portraits = {
			army = {
				small = "GFX_idea_GRF_Eyda"
			}
		}
		
		advisor = {
			slot = army_chief
			idea_token = eyda
			cost = 100

			allowed = {
				original_tag = GRF
			}
			traits = { alt_army_entrenchment_2 }
			ai_will_do = {
				factor = 1
			}
		}
	}
	GRF_ciaphas = {
		name = ciaphas
		portraits = {
			army = {
				small = "GFX_idea_GRF_Ciaphas"
			}
		}
		allowed_civil_war = {	
			OR = {
				has_government = neutrality
				has_government = fascism
			}
        }
		advisor = {
			slot = air_chief
			idea_token = ciaphas
			cost = 200
			
			allowed = {
				original_tag = GRF
			}
			traits = { air_chief_ground_support_3 }
			ai_will_do = {
				factor = 1
			}
			on_add = {
				owner = {
					add_power_balance_value = {
						id = GRF_civil_war_bop
						value = 0.025
					}
				}
			}
			on_remove = {
				owner = {
					add_power_balance_value = {
						id = GRF_civil_war_bop
						value = -0.025
					}
				}
			}
		}
	}
	GRF_eir = {
		name = eir
		portraits = {
			army = {
				small = "GFX_idea_GRF_Eir"
			}
		}
		allowed_civil_war = {
			OR = {
				has_government = communism
				has_government = democratic
			}
        }
		advisor = {
			slot = air_chief
			idea_token = eir
			cost = 100
			
			allowed = {
				original_tag = GRF
			}
			traits = { air_chief_reform_2 }
			ai_will_do = {
				factor = 1
			}
			on_add = {
				owner = {
					add_power_balance_value = {
						id = GRF_civil_war_bop
						value = -0.025
					}
				}
			}
			on_remove = {
				owner = {
					add_power_balance_value = {
						id = GRF_civil_war_bop
						value = 0.025
					}
				}
			}
		}
	}
	GRF_hyperion = {
		name = hyperion
		portraits = {
			army = {
				small = "GFX_idea_GRF_Hyperion"
			}
		}
		allowed_civil_war = {
			OR = {
				has_government = communism
				has_government = democratic
			}
        }
		advisor = {
			slot = navy_chief
			idea_token = hyperion
			cost = 100

			allowed = {
				original_tag = GRF
			}
			traits = { navy_chief_decisive_battle_2 }
			ai_will_do = {
				factor = 0.1
			}
			on_add = {
				owner = {
					add_power_balance_value = {
						id = GRF_civil_war_bop
						value = -0.025
					}
				}
			}
			on_remove = {
				owner = {
					add_power_balance_value = {
						id = GRF_civil_war_bop
						value = 0.025
					}
				}
			}
		}
	}
	GRF_erebos = {
		name = erebos
		portraits = {
			army = {
				small = "GFX_idea_GRF_Erebos"
			}
		}
		allowed_civil_war = {
			OR = {
				has_government = neutrality
				has_government = fascism
			}
        }
		advisor = {
			slot = navy_chief
			idea_token = erebos
			cost = 200

			allowed = {
				original_tag = GRF
			}
			traits = { alt_navy_submarine_3 }
			ai_will_do = {
				factor = 0.1
			}
			on_add = {
				owner = {
					add_power_balance_value = {
						id = GRF_civil_war_bop
						value = 0.025
					}
				}
			}
			on_remove = {
				owner = {
					add_power_balance_value = {
						id = GRF_civil_war_bop
						value = -0.025
					}
				}
			}
		}
	}
	GRF_pontus = {
		name = pontus
		portraits = {
			army = {
				small = "GFX_idea_GRF_Pontus"
			}
		}
		allowed_civil_war = {
			OR = {
				has_government = neutrality
				has_government = fascism
			}
        }
		advisor = {
			slot = high_command
			idea_token = pontus
			ledger = army
			cost = 50
			
			allowed = {
				original_tag = GRF
			}
			traits = { army_armored_1 }
			ai_will_do = {
				factor = 1
			}
			on_add = {
				owner = {
					add_power_balance_value = {
						id = GRF_civil_war_bop
						value = 0.025
					}
				}
			}
			on_remove = {
				owner = {
					add_power_balance_value = {
						id = GRF_civil_war_bop
						value = -0.025
					}
				}
			}
		}
	}
	GRF_edwin = {
		name = edwin
		portraits = {
			army = {
				small = "GFX_idea_GRF_Edwin"
				large = "gfx/leaders/GRF/GRF_Edwin.tga"
			}
		}
		allowed_civil_war = {
			OR = {
				has_government = neutrality
				has_government = fascism
			}
        }
		advisor = {
			slot = high_command
			idea_token = edwin
			ledger = army
			cost = 100
			
			allowed = {
				OR = {
					original_tag = GRF
					original_tag = JAK
				}
			}
			traits = { alt_army_chief_morale_2 }
			ai_will_do = {
				factor = 1
			}
			on_add = {
				owner = {
					if = {
						limit = {
							original_tag = GRF
						}		
						add_power_balance_value = {
							id = GRF_civil_war_bop
							value = 0.025
						}
					}
				}
			}
			on_remove = {
				owner = {
					if = {
						limit = {
							original_tag = GRF
						}		
						add_power_balance_value = {
							id = GRF_civil_war_bop
							value = -0.025
						}
					}
				}
			}
		}
	}
	GRF_eurus = {
		name = eurus
		portraits = {
			army = {
				small = "GFX_idea_GRF_Eurus"
			}
		}
		allowed_civil_war = {
			OR = {
				has_government = communism
				has_government = democratic
			}
        }
		advisor = {
			slot = high_command
			idea_token = eurus
			ledger = army
			cost = 50
			
			allowed = {
				original_tag = GRF
			}
			traits = { alt_army_chief_organizational_1 }
			ai_will_do = {
				factor = 1
			}
			on_add = {
				owner = {
					add_power_balance_value = {
						id = GRF_civil_war_bop
						value = -0.025
					}
				}
			}
			on_remove = {
				owner = {
					add_power_balance_value = {
						id = GRF_civil_war_bop
						value = 0.025
					}
				}
			}
		}
	}
	GRF_ares = {
		name = ares
		portraits = {
			army = {
				small = "GFX_idea_GRF_Ares"
			}
		}
		allowed_civil_war = {
			OR = {
				has_government = neutrality
				has_government = fascism
			}
        }
		advisor = {
			slot = theorist
			idea_token = ares
			ledger = army
			cost = 100
			
			allowed = {
				original_tag = GRF
			}

			traits = { military_theorist }
			on_add = {
				owner = {
					add_power_balance_value = {
						id = GRF_civil_war_bop
						value = 0.025
					}
				}
			}
			on_remove = {
				owner = {
					add_power_balance_value = {
						id = GRF_civil_war_bop
						value = -0.025
					}
				}
			}
		}
	}
	GRF_cedric = {
		name = cedric
		portraits = {
			army = {
				small = "GFX_idea_GRF_Cedric"
			}
		}
		allowed_civil_war = {
			OR = {
				has_government = communism
				has_government = democratic
			}
        }
		advisor = {
			slot = theorist
			idea_token = cedric
			ledger = air
			cost = 100

			allowed = {
				original_tag = GRF
			}
			on_add = {
				owner = {
					add_power_balance_value = {
						id = GRF_civil_war_bop
						value = -0.025
					}
				}
			}
			on_remove = {
				owner = {
					add_power_balance_value = {
						id = GRF_civil_war_bop
						value = 0.025
					}
				}
			}
			traits = { air_warfare_theorist }
		}
	}
	GRF_frida = {
		name = frida
		portraits = {
			army = {
				small = "GFX_idea_GRF_Frida"
			}
		}
		
		advisor = {
			slot = theorist
			idea_token = frida
			ledger = air
			cost = 100
			
			allowed = {
				original_tag = GRF
			}
			research_bonus = {
				rocketry = 0.15
			}
			traits = { rocket_scientist }
		}

		scientist = {
			traits = { scientist_trait_rocketry_specialist scientist_trait_bright }
			skills = {
				specialization_air = 3
			}
			
			
			desc = frida_desc
		}
	}
	GRF_stephan_randolf = {
		name = GRF_stephan_randolf
		portraits = {
			army = {
				large = "gfx/leaders/GRF/New_Vegas_Guy.tga"
				small = "GFX_idea_New_Vegas_Guy_small"
			}
		}
	}
	GRF_cronos_beamquill = {
		name = GRF_cronos_beamquill
		portraits = {
			army = {
				large = "gfx/leaders/Asia/portrait_griffon_generic_land_3.dds"
				small = "GFX_portrait_griffon_generic_land_3_small"
			}
		}
	}
	GRF_arnaud_cuvillier = {
		name = GRF_arnaud_cuvillier
		portraits = {
			army = {
				large = "gfx/leaders/Asia/portrait_griffon_generic_land_7.dds"
				small = "GFX_portrait_griffon_generic_land_7_small"
			}
		}
	}
	GRF_felix_cloudtalon = {
		name = GRF_felix_cloudtalon
		portraits = {
			army = {
				large = "gfx/leaders/Asia/portrait_griffon_generic_land_9.dds"
				small = "GFX_portrait_griffon_generic_land_9_small"
			}
		}
	}
	GRF_lord_protector_trubach={
		name=TRD_lord_protector_trubach
		portraits={
			civilian={
				large="gfx/leaders/AVI/general_trubach.tga"
			}
		}
	}
	GRF_elder_elsa = {
		name = GRF_elder_elsa
		portraits = {
			civilian = {
				large="gfx/leaders/CYA/Regency.tga"
			}
		}
	}
	GRF_urlik_of_scyfling = {
		name = PLB_urlik_of_scyfling
		portraits = {
			army = {
				large="gfx/leaders/PLB/PLB_urlik_of_scyfling.tga"
				small = "GFX_idea_unknown_advisor_griffon"
			}
		}
	}
	GRF_sus_griffon = {
		name = GRF_sus_griffon
		portraits = {
			army = {
				large="gfx/leaders/GRF/GRF_Suspicious_Griffon.tga"
				small = "GFX_idea_GRF_amogus"
			}
		}
	}
}
