characters={
	RCT_river_swirl={
		name=RCT_river_swirl
		portraits={
			civilian={
				large="gfx/leaders/RCT/Riverswirl.tga"
			}
		}
		gender = female
		country_leader={
			desc="POLITICS_RIVERSWIRL_DESC"
			ideology=liberalism
			expire="1965.1.1.1"
			id=-1
		}
	}
	RCT_nova_whirl={
		name=RCT_nova_whirl
		portraits={
			civilian={
				large="gfx/leaders/RCT/Nova_Whirl_Official.tga"
			}
			army={
				large="gfx/leaders/RCT/Nova_Whirl.tga"
				small="gfx/interface/ideas/Advisors/RCT/RCT_nova_whirl.tga"
			}
		}
		gender = female
		country_leader={
			desc="POLITICS_NOVAWHIRL_DESC"
			ideology=dengism
			expire="1965.1.1.1"
			id=-1
		}
	}
	RCT_arclight={
		instance = {
			allowed = {
				has_dlc = "La Resistance"
			}
			name=RCT_arclight
			portraits={
				civilian={
					small="GFX_idea_RCT_arclight"
					large="gfx/leaders/RCT/Arclight.tga"
				}
			}
			advisor={
				slot = political_advisor
				idea_token = RCT_arclight
				allowed = {
					can_form_river_fed = yes
					has_dlc = "La Resistance"
				}
				visible = {
					OR = {
						original_tag = RCT
						has_country_flag = RIV_annexed_RCT
					}
					NOT = {
						has_country_leader = {
							character = RCT_arclight
							ruling_only = yes
						}
					}
				}
				available = {
					has_intelligence_agency = yes
					hidden_trigger = {
						OR = {
							original_tag = RCT
							has_country_flag = RIV_annexed_RCT
						}
					}
					OR = {
						has_government = democratic
						has_government = neutrality
					}
				}
				traits = { head_of_ohs_lar }
			}
		}
		instance = {
			allowed = {
				NOT = {	has_dlc = "La Resistance" }
			}
			name=RCT_arclight
			portraits={
				civilian={
					small="GFX_idea_RCT_arclight"
					large="gfx/leaders/RCT/Arclight.tga"
				}
			}
			advisor={
				slot = political_advisor
				idea_token = RCT_arclight
				allowed = {
					can_form_river_fed = yes
					NOT = { has_dlc = "La Resistance" }
				}
				visible = {
					OR = {
						original_tag = RCT
						has_country_flag = RIV_annexed_RCT
					}
					NOT = {
						has_country_leader = {
							character = RCT_arclight
							ruling_only = yes
						}
					}
				}
				available = {
					hidden_trigger = {
						OR = {
							original_tag = RCT
							has_country_flag = RIV_annexed_RCT
						}
					}
					OR = {
						has_government = democratic
						has_government = neutrality
					}
				}
				traits = { head_of_ohs }
			}
		}
	}

	RCT_hector_lipizzan={
		name=RCT_old_guard_guy
		portraits={
			army={
				small=GFX_idea_RCT_old_guard_guy
			}
			civilian={
				large="gfx/leaders/RCT/Hector_Lipizzan.tga"
			}
		}
		field_marshal={
			traits={ old_guard infantry_officer pony_race_trait guerilla_fighter }
			skill=3
			attack_skill=2
			defense_skill=4
			planning_skill=2
			logistics_skill=2
			legacy_id=650
		}
		country_leader={
			desc="POLITICS_HECTOR_DESC"
			ideology=despotism
			expire="1965.1.1.1"
			id=-1
		}
		advisor={
			slot = army_chief
			idea_token = RCT_old_guard_guy
			cost = 100
			allowed = {
				can_form_river_fed = yes
			}
			traits = {
				army_chief_old_guard
			}
			ai_will_do = {
				factor = 0.1
			}
		}
	}
	RCT_arthur_flow={
		name=RCT_arthur_flow
		portraits={
			civilian={
				large="gfx/leaders/Pony/portrait_pony_generic_navy_1.dds"
			}
		}
		country_leader={
			ideology=ultranationalism
			expire="1965.1.1.1"
			id=-1
		}
	}
	RCT_gear_tail={
		name=RCT_gear_tail
		portraits={
			army={
				large="gfx/leaders/RCT/Gear_Tail.tga"
				small="gfx/interface/ideas/Advisors/RCT/RCT_gear_tail.tga"
			}
		}
	}
	RCT_twotail_tail={
		name=RCT_twotail_tail
		portraits={
			army={
				large="gfx/leaders/RCT/Twotail_Tail.tga"
				small="gfx/interface/ideas/Advisors/RCT/RCT_twotail_tail.tga"
			}
		}
		gender = female
	}
	RCT_katerina_kaffenhoof={
		name=RCT_katerina_kaffenhoof
		portraits={
			army={
				large="gfx/leaders/RCT/Katerina_Kaffenhoof.tga"
				small=GFX_idea_RCT_xayah
			}
		}
		gender = female
		corps_commander={
			traits={ brilliant_strategist pony_race_trait }
			skill=3
			attack_skill=1
			defense_skill=1
			planning_skill=4
			logistics_skill=4
			legacy_id=649
		}
		advisor={
			slot = high_command
			idea_token = RCT_xayah
			ledger = army
			cost = 200
			allowed = {
				can_form_river_fed = yes
			}
			traits = {
				army_regrouping_3
			}
			ai_will_do = {
				factor = 1
			}
		}
	}
	RCT_artemis_rosamund={
		name=RCT_artemis_rosamund
		portraits={
			army={
				large="gfx/leaders/RCT/Artemis_Rosamund.tga"
				small=GFX_idea_RCT_syndra
			}
		}
		gender = female
		corps_commander={
			traits={ promising_general pony_race_trait }
			skill=3
			attack_skill=4
			defense_skill=1
			planning_skill=1
			logistics_skill=4
			legacy_id=651
		}
		advisor={
			slot = high_command
			idea_token = RCT_syndra
			ledger = army
			cost = 50
			allowed = {
				can_form_river_fed = yes
			}
			traits = {
				army_armored_1
			}
			ai_will_do = {
				factor = 1
			}
		}
	}
	RCT_auriga={
		name=RCT_auriga
		portraits={
			army={
				large="gfx/leaders/RCT/Auriga.tga"
				small="gfx/interface/ideas/Advisors/RCT/RCT_auriga.tga"
			}
		}
		gender = female
		corps_commander={
			traits={ trait_unpredictable pony_race_trait }
			skill=2
			attack_skill=3
			defense_skill=2
			planning_skill=1
			logistics_skill=1
			legacy_id=-1
		}
	}
	RCT_arcane_tesla={
		name=RCT_arcane_tesla
		portraits={
			army={
				large="gfx/leaders/RCT/Arcane_Tesla.tga"
				small=GFX_idea_RCT_quinn
			}
		}
		corps_commander={
			traits={ pony_race_trait organizer trait_engineer }
			skill=3
			attack_skill=2
			defense_skill=2
			planning_skill=3
			logistics_skill=3
			legacy_id=653
		}
		advisor={
			slot = high_command
			idea_token = RCT_quinn
			ledger = army
			cost = 50
			allowed = {
				can_form_river_fed = yes
			}
			traits = {
				army_infantry_1
			}
			ai_will_do = {
				factor = 1
			}
		}
	}
	RCT_spring_rain={
		name=RCT_spring_rain
		portraits={
			army={
				large="gfx/leaders/RCT/Spring_Rain.tga"
				small="gfx/interface/ideas/Advisors/RCT/RCT_spring_rain.tga"
			}
		}
		corps_commander={
			traits={ career_officer trait_cautious pony_race_trait hill_fighter }
			skill=3
			attack_skill=3
			defense_skill=2
			planning_skill=2
			logistics_skill=3
			legacy_id=-1
		}
	}
	RCT_caramel_haze={
		name=RCT_caramel_haze
		portraits={
			army={
				large="gfx/leaders/RCT/Caramel_Haze.tga"
				small="gfx/interface/ideas/Advisors/RCT/RCT_caramel_haze.tga"
			}
		}
		corps_commander={
			traits={ infantry_officer pony_race_trait organizer }
			skill=2
			attack_skill=1
			defense_skill=2
			planning_skill=2
			logistics_skill=2
			legacy_id=652
		}
	}
	RCT_ironside_vandergallop = {
		name = RCT_ironside_vandergallop
		portraits = {
			army = {
				large="gfx/leaders/RCT/Ironside.tga"
				small="gfx/interface/ideas/Advisors/RCT/RCT_ironside.tga"
			}
		}
	}
	RCT_ermilia_czrnozemiszna={
		name=RCT_ermilia_czrnozemiszna
		portraits={
			army={
				large="gfx/leaders/RCT/Ermilia.tga"
				small=GFX_idea_RCT_ermilia_chernozemishna
			}
		}
		gender = female
		corps_commander={
			traits={ pony_race_trait commando skirmisher }
			skill=2
			attack_skill=1
			defense_skill=2
			planning_skill=1
			logistics_skill=3
			legacy_id=654
		}
		advisor={
			slot = high_command
			idea_token = RCT_ermilia_chernozemishna
			ledger = army
			cost = 200
			allowed = {
				original_tag = RCT
			}
			available = {
				has_completed_focus = RCT_special_ops
			}
			traits = {
				army_commando_3
			}
			ai_will_do = {
				factor = 1
			}
		}
	}
	RCT_arcane_gear={
		name=RCT_arcane_gear
		portraits={
			army={
				large="gfx/leaders/RCT/Arcane_Gear.tga"
				small="gfx/interface/ideas/Advisors/RCT/RCT_arcane_gear.tga"
			}
		}
		corps_commander={
			traits={ pony_race_trait skilled_staffer }
			skill=3
			attack_skill=2
			defense_skill=2
			planning_skill=3
			logistics_skill=3
			legacy_id=-1
			desc = arcane_gear_desc
		}
	}
	RCT_ema_rosic={
		name=RCT_ema_rosic
		portraits={
			army={
				large="gfx/leaders/RCT/Ema_Rosic.tga"
				small="gfx/interface/ideas/Advisors/RCT/RCT_ema_rosic.tga"
			}
		}
		gender = female
		corps_commander={
			traits={ media_personality pony_race_trait ranger }
			skill=2
			attack_skill=1
			defense_skill=3
			planning_skill=2
			logistics_skill=1
			legacy_id=-1
		}
	}
	RCT_jakov_coltsevic={
		name=RCT_jakov_coltsevic
		portraits={
			army={
				large="gfx/leaders/RCT/Jakov_Coltsevic.tga"
				small="gfx/interface/ideas/Advisors/RCT/RCT_jakov_coltsevic.tga"
			}
		}
		corps_commander={
			traits={ media_personality pony_race_trait hill_fighter }
			skill=2
			attack_skill=2
			defense_skill=1
			planning_skill=1
			logistics_skill=3
			legacy_id=-1
		}
	}
	RCT_brilliant_specter={
		name=RCT_brilliant_specter
		portraits={
			army={
				large="gfx/leaders/RCT/BrillSpecter.tga"
				small="gfx/interface/ideas/Advisors/RCT/RCT_brill_specter.tga"
			}
		}
		corps_commander={
			traits={ inflexible_strategist trait_cautious pony_race_trait trickster }
			skill=1
			attack_skill=1
			defense_skill=1
			planning_skill=1
			logistics_skill=1
			legacy_id=655
		}
	}
	RCT_brilliant_shade={
		name=RCT_brilliant_shade
		portraits={
			army={
				large="gfx/leaders/RCT/BrillShade.tga"
				small="gfx/interface/ideas/Advisors/RCT/RCT_brill_shade.tga"
			}
		}
		gender = female
		corps_commander={
			traits={ brilliant_strategist trait_reckless trait_unpredictable pony_race_trait }
			skill=1
			attack_skill=1
			defense_skill=1
			planning_skill=1
			logistics_skill=1
			legacy_id=656
		}
	}
	RCT_hawkeye_falconer={
		name=RCT_hawkeye_falconer
		portraits={
			army={
				large="gfx/leaders/RCT/hawkeye.tga"
				small="gfx/interface/ideas/Advisors/RCT/RCT_hawkeye.tga"
			}
		}
		corps_commander={
			traits={ promising_general pony_race_trait commando }
			skill=1
			attack_skill=1
			defense_skill=1
			planning_skill=1
			logistics_skill=1
			legacy_id=-1
		}
	}
	RCT_pumpkin_swirl={
		name=RCT_pumpkin_swirl
		portraits={
			civilian={
				small="GFX_idea_RCT_pumpkin_swirl"
				large="gfx/leaders/RCT/pumpkin_swirl.tga"
			}
		}
		advisor={
			slot = political_advisor
			idea_token = RCT_pumpkin_swirl
			can_be_fired = no
			allowed = {
				original_tag = RCT
			}
			visible = {
				has_country_flag = Promoted_Cousin_Pumpkin
			}
			available = {
				has_country_leader = { character = RCT_river_swirl ruling_only = yes }
			}
			traits = {
				pumpkin_swirl_trait
			}
			ai_will_do = {
				factor = 0.5
			}
			on_add = {
				ROOT = {
					set_country_flag = { flag = Cousin_Pumpkin_timeout value = 1 days = 180 }
				}
			}
		}
	}
	RCT_dep_assistant={
		name=RCT_dep_assistant
		portraits={
			civilian={
				small="GFX_idea_unknown_advisor6"
			}
		}
		advisor={
			slot = political_advisor
			idea_token = RCT_dep_assistant
			available = {
				has_country_flag = RCT_dep_aid
			}

			allowed = {
				original_tag = RCT
			}

			traits = { war_industrialist }
		}
	}
	RCT_cap_of_ind={
		name=RCT_cap_of_ind
		portraits={
			civilian={
				small="GFX_idea_RCT_cap_of_ind"
			}
		}
		advisor={
			slot = political_advisor
			idea_token = RCT_cap_of_ind
			available = {
				has_completed_focus = RCT_industry_start
			}

			allowed = {
				original_tag = RCT
			}

			cost = 50

			traits = { captain_of_industry }

			research_bonus = { industry = 0.05 }
		}
	}
	RCT_Behind_Trusther={
		name=RCT_Behind_Trusther
		portraits={
			civilian={
				small="GFX_idea_RCT_Behind_Trusther"
			}
		}
		advisor={
			slot = political_advisor
			idea_token = RCT_Behind_Trusther
			allowed = {
				can_form_river_fed = yes
			}
			visible = {
				OR = {
					original_tag = RCT
					has_country_flag = RIV_annexed_RCT
				}
			}
			available = {
				hidden_trigger = {
					OR = {
						original_tag = RCT
						has_country_flag = RIV_annexed_RCT
					}
				}
				if = {
					limit = { has_civil_war = yes }
					NOT = {
						any_enemy_country = {
							has_idea = RCT_Behind_Trusther
						}
					}
				}
			}
			traits = { backroom_backstabber }
		}
	}
	RCT_Flowing_Tear={
		name=RCT_Flowing_Tear
		portraits={
			civilian={
				small="GFX_idea_RCT_Flowing_Tear"
			}
		}
		advisor={
			slot = political_advisor
			idea_token = RCT_Flowing_Tear
			allowed = {
				can_form_river_fed = yes
			}
			visible = {
				OR = {
					original_tag = RCT
					has_country_flag = RIV_annexed_RCT
				}
			}
			available = {
				hidden_trigger = {
					OR = {
						original_tag = RCT
						has_country_flag = RIV_annexed_RCT
					}
				}
				if = {
					limit = { has_civil_war = yes }
					NOT = {
						any_enemy_country = {
							has_idea = RCT_Flowing_Tear
						}
					}
				}
			}
			traits = { industrialist }
		}
	}
	RCT_Logical_Thinking={
		name=RCT_Logical_Thinking
		portraits={
			civilian={
				small="GFX_idea_RCT_Logical_Thinking"
			}
		}
		advisor={
			slot = political_advisor
			idea_token = RCT_Logical_Thinking
			allowed = {
				can_form_river_fed = yes
			}
			visible = {
				OR = {
					original_tag = RCT
					has_country_flag = RIV_annexed_RCT
				}
			}
			available = {
				hidden_trigger = {
					OR = {
						original_tag = RCT
						has_country_flag = RIV_annexed_RCT
					}
				}
				if = {
					limit = { has_civil_war = yes }
					NOT = {
						any_enemy_country = {
							has_idea = RCT_Logical_Thinking
						}
					}
				}
			}
			traits = { prince_of_terror }
		}
	}
	RCT_Surreal_Grass={
		name=RCT_Surreal_Grass
		portraits={
			civilian={
				small="GFX_idea_RCT_Surreal_Grass"
			}
		}
		advisor={
			slot = political_advisor
			idea_token = RCT_Surreal_Grass
			allowed = {
				can_form_river_fed = yes
			}
			visible = {
				OR = {
					original_tag = RCT
					has_country_flag = RIV_annexed_RCT
				}
			}
			available = {
				hidden_trigger = {
					OR = {
						original_tag = RCT
						has_country_flag = RIV_annexed_RCT
					}
				}
				if = {
					limit = { has_civil_war = yes }
					NOT = {
						any_enemy_country = {
							has_idea = RCT_Surreal_Grass
						}
					}
				}
			}
			traits = { propaganda_expert }
		}
	}
	RCT_Wet_Water={
		name=RCT_Wet_Water
		portraits={
			civilian={
				small="GFX_idea_RCT_coltovac_academy"
			}
		}
		advisor={
			slot = theorist
			idea_token = RCT_Wet_Water
			ledger = army
			cost = 100
			allowed = {
				can_form_river_fed = yes
			}
			visible = {
				OR = {
					original_tag = RCT
					has_country_flag = RIV_annexed_RCT
				}
			}
			available = {
				hidden_trigger = {
					OR = {
						original_tag = RCT
						has_country_flag = RIV_annexed_RCT
					}
				}
				if = {
					limit = { has_civil_war = yes }
					NOT = {
						any_enemy_country = {
							has_idea = RCT_Wet_Water
						}
					}
				}
			}
			traits = { military_theorist }
		}
	}
	RCT_Jolly_River={
		name=RCT_Jolly_River
		portraits={
			civilian={
				small="GFX_idea_RCT_jolly_river"
			}
		}
		advisor={
			slot = theorist
			idea_token = RCT_Jolly_River
			ledger = navy
			cost = 100
			allowed = {
				can_form_river_fed = yes
			}
			visible = {
				OR = {
					original_tag = RCT
					has_country_flag = RIV_annexed_RCT
				}
			}
			available = {
				hidden_trigger = {
					OR = {
						original_tag = RCT
						has_country_flag = RIV_annexed_RCT
					}
				}
				if = {
					limit = { has_civil_war = yes }
					NOT = {
						any_enemy_country = {
							has_idea = RCT_Jolly_River
						}
					}
				}
			}
			traits = { naval_theorist }
		}
	}
	RCT_Hoover_Balls={
		name=RCT_Hoover_Balls
		portraits={
			civilian={
				small="GFX_idea_RCT_sunny_sands"
			}
		}
		advisor={
			idea_token = RCT_Hoover_Balls
			slot = theorist
			ledger = air
			cost = 100
			allowed = {
				can_form_river_fed = yes
			}
			visible = {
				OR = {
					original_tag = RCT
					has_country_flag = RIV_annexed_RCT
				}
			}
			available = {
				hidden_trigger = {
					OR = {
						original_tag = RCT
						has_country_flag = RIV_annexed_RCT
					}
				}
				if = {
					limit = { has_civil_war = yes }
					NOT = {
						any_enemy_country = {
							has_idea = RCT_Hoover_Balls
						}
					}
				}
			}
			traits = { air_warfare_theorist }
		}
	}
	RCT_Nuclear_Water={
		name=RCT_Nuclear_Water
		portraits={
			civilian={
				small="GFX_idea_unknown_advisor6"
			}
		}
		advisor={
			slot = theorist
			idea_token = RCT_Nuclear_Water
			ledger = army
			cost = 100
			allowed = {
				can_form_river_fed = yes
			}
			visible = {
				OR = {
					original_tag = RCT
					has_country_flag = RIV_annexed_RCT
				}
			}
			available = {
				hidden_trigger = {
					OR = {
						original_tag = RCT
						has_country_flag = RIV_annexed_RCT
					}
				}
				if = {
					limit = { has_civil_war = yes }
					NOT = {
						any_enemy_country = {
							has_idea = RCT_Nuclear_Water
						}
					}
				}
			}
			research_bonus = {
				nuclear = 0.15
			}
			traits = { nuclear_scientist }
		}
		scientist = {
			traits = { scientist_trait_nuclear_specialist scientist_trait_bright }
			skills = {
				specialization_nuclear = 3
			}
			
			
			desc = RCT_Nuclear_Water_desc
			visible = {
				owner = {
					hidden_trigger = {
						OR = {
							original_tag = RCT
							has_country_flag = RIV_annexed_RCT
						}
					}
					if = {
						limit = { has_civil_war = yes }
						NOT = {
							any_enemy_country = {
								has_idea = RCT_Nuclear_Water
							}
						}
					}
				}
			}
		}
	}
	RCT_taloniser={
		name=RCT_taloniser
		portraits={
			civilian={
				small="GFX_idea_RCT_taloniser"
			}
		}
		advisor={
			cost = 200
			slot = army_chief
			idea_token = RCT_taloniser
			available = {
				has_completed_focus = RCT_defensive_staff
			}

			allowed = {
				original_tag = RCT
			}

			traits = { army_chief_defensive_3 }

			ai_will_do = {
				factor = 1
			}
		}
	}
	RCT_beakoliser={
		name=RCT_beakoliser
		portraits={
			civilian={
				small="GFX_idea_RCT_beakoliser"
			}
		}
		advisor={
			cost = 200
			slot = army_chief
			idea_token = RCT_beakoliser
			available = {
				has_completed_focus = RCT_offensive_staff
			}

			allowed = {
				original_tag = RCT
			}

			traits = { army_chief_offensive_3 }

			ai_will_do = {
				factor = 1
			}
		}
	}
	RCT_river_swimmer={
		name=RCT_river_swimmer
		portraits={
			civilian={
				small="GFX_idea_RCT_river_swimmer"
			}
		}
		advisor={
			cost = 200
			slot = army_chief
			idea_token = RCT_river_swimmer
			allowed = {
				can_form_river_fed = yes
			}
			visible = {
				OR = {
					original_tag = RCT
					has_country_flag = RIV_annexed_RCT
				}
			}
			available = {
				hidden_trigger = {
					OR = {
						original_tag = RCT
						has_country_flag = RIV_annexed_RCT
					}
				}
				if = {
					limit = { has_civil_war = yes }
					NOT = {
						any_enemy_country = {
							has_idea = RCT_river_swimmer
						}
					}
				}
			}
			traits = { army_chief_drill_3 }

			ai_will_do = {
				factor = 0.1
			}
		}
	}
	RCT_hollow_water={
		name=RCT_hollow_water
		portraits={
			civilian={
				small="GFX_idea_RCT_hollow_water"
			}
		}
		advisor={
			cost = 50
			slot = army_chief
			idea_token = RCT_hollow_water
			allowed = {
				can_form_river_fed = yes
			}
			visible = {
				OR = {
					original_tag = RCT
					has_country_flag = RIV_annexed_RCT
				}
			}
			available = {
				hidden_trigger = {
					OR = {
						original_tag = RCT
						has_country_flag = RIV_annexed_RCT
					}
				}
				if = {
					limit = { has_civil_war = yes }
					NOT = {
						any_enemy_country = {
							has_idea = RCT_hollow_water
						}
					}
				}
			}
			traits = { army_chief_reform_1 }

			ai_will_do = {
				factor = 0.1
			}
		}
	}
	RCT_Flying_Waterfall={
		name=RCT_Flying_Waterfall
		portraits={
			civilian={
				small="GFX_idea_unknown_advisor6"
			}
		}
		advisor={
			cost = 100
			slot = air_chief
			idea_token = RCT_Flying_Waterfall
			allowed = {
				can_form_river_fed = yes
			}
			visible = {
				OR = {
					original_tag = RCT
					has_country_flag = RIV_annexed_RCT
				}
			}
			available = {
				hidden_trigger = {
					OR = {
						original_tag = RCT
						has_country_flag = RIV_annexed_RCT
					}
				}
				if = {
					limit = { has_civil_war = yes }
					NOT = {
						any_enemy_country = {
							has_idea = RCT_Flying_Waterfall
						}
					}
				}
			}
			traits = { air_chief_safety_2  }

			ai_will_do = {
				factor = 1
			}
		}
	}
	RCT_Stabby_Stabby={
		name=RCT_Stabby_Stabby
		portraits={
			civilian={
				small="GFX_idea_RCT_thunder_rain"
			}
		}
		advisor={
			cost = 50
			slot = air_chief
			idea_token = RCT_Stabby_Stabby
			allowed = {
				can_form_river_fed = yes
			}
			visible = {
				OR = {
					original_tag = RCT
					has_country_flag = RIV_annexed_RCT
				}
			}
			available = {
				hidden_trigger = {
					OR = {
						original_tag = RCT
						has_country_flag = RIV_annexed_RCT
					}
				}
				if = {
					limit = { has_civil_war = yes }
					NOT = {
						any_enemy_country = {
							has_idea = RCT_Stabby_Stabby
						}
					}
				}
			}
			traits = { air_chief_old_guard  }

			ai_will_do = {
				factor = 1
			}
		}
	}
	RCT_Leteci_sef={
		name=RCT_Leteci_sef
		portraits={
			civilian={
				small="GFX_idea_unknown_advisor6"
			}
		}
		advisor={
			cost = 100
			slot = air_chief
			idea_token = RCT_Leteci_sef
			allowed = {
				can_form_river_fed = yes
			}
			visible = {
				OR = {
					original_tag = RCT
					has_country_flag = RIV_annexed_RCT
				}
			}
			available = {
				hidden_trigger = {
					OR = {
						original_tag = RCT
						has_country_flag = RIV_annexed_RCT
					}
				}
				if = {
					limit = { has_civil_war = yes }
					NOT = {
						any_enemy_country = {
							has_idea = RCT_Leteci_sef
						}
					}
				}
			}
			traits = { air_chief_ground_support_2  }

			ai_will_do = {
				factor = 1
			}
		}
	}
	RCT_Sea_Colt={
		name=RCT_Sea_Colt
		portraits={
			civilian={
				small="GFX_idea_unknown_advisor6"
			}
		}
		advisor={
			cost = 50
			slot = navy_chief
			idea_token = RCT_Sea_Colt
			allowed = {
				can_form_river_fed = yes
			}
			visible = {
				OR = {
					original_tag = RCT
					has_country_flag = RIV_annexed_RCT
				}
			}
			available = {
				hidden_trigger = {
					OR = {
						original_tag = RCT
						has_country_flag = RIV_annexed_RCT
					}
				}
				if = {
					limit = { has_civil_war = yes }
					NOT = {
						any_enemy_country = {
							has_idea = RCT_Sea_Colt
						}
					}
				}
			}
			traits = { navy_chief_old_guard  }
			ai_will_do = {
				factor = 1
			}
		}
	}
	RCT_Pollar_River={
		name=RCT_Pollar_River
		portraits={
			civilian={
				small="GFX_idea_unknown_advisor6"
			}
		}
		advisor={
			cost = 200
			slot = navy_chief
			idea_token = RCT_Pollar_River
			allowed = {
				can_form_river_fed = yes
			}
			visible = {
				OR = {
					original_tag = RCT
					has_country_flag = RIV_annexed_RCT
				}
			}
			available = {
				hidden_trigger = {
					OR = {
						original_tag = RCT
						has_country_flag = RIV_annexed_RCT
					}
				}
				if = {
					limit = { has_civil_war = yes }
					NOT = {
						any_enemy_country = {
							has_idea = RCT_Pollar_River
						}
					}
				}
			}
			traits = { navy_chief_maneuver_3  }
			ai_will_do = {
				factor = 1
			}
		}
	}
	RCT_quick={
		name=RCT_quick
		portraits={
			civilian={
				small="GFX_idea_RCT_quick"
			}
		}
		advisor={
			cost = 50
			slot = high_command
			ledger = army
			idea_token = RCT_quick
			allowed = {
				can_form_river_fed = yes
			}
			visible = {
				OR = {
					original_tag = RCT
					has_country_flag = RIV_annexed_RCT
				}
			}
			available = {
				hidden_trigger = {
					OR = {
						original_tag = RCT
						has_country_flag = RIV_annexed_RCT
					}
				}
			}
			traits = { field_surgeon }

			ai_will_do = {
				factor = 1
			}
		}
	}
	RCT_Under_Water={
		name=RCT_Under_Water
		portraits={
			civilian={
				small="GFX_idea_unknown_advisor6"
			}
		}
		advisor={
			cost = 200
			slot = high_command
			ledger = navy
			idea_token = RCT_Under_Water
			allowed = {
				can_form_river_fed = yes
			}
			visible = {
				OR = {
					original_tag = RCT
					has_country_flag = RIV_annexed_RCT
				}
			}
			available = {
				hidden_trigger = {
					OR = {
						original_tag = RCT
						has_country_flag = RIV_annexed_RCT
					}
				}
				if = {
					limit = { has_civil_war = yes }
					NOT = {
						any_enemy_country = {
							has_idea = RCT_Under_Water
						}
					}
				}
			}
			traits = { navy_submarine_3 }

			ai_will_do = {
				factor = 1
			}
		}
	}
	RCT_Helping_Hoof={
		name=RCT_Helping_Hoof
		portraits={
			civilian={
				small="GFX_idea_RCT_helping_hoof"
			}
		}
		advisor={
			cost = 50
			slot = high_command
			ledger = air
			idea_token = RCT_Helping_Hoof
			allowed = {
				can_form_river_fed = yes
			}
			visible = {
				OR = {
					original_tag = RCT
					has_country_flag = RIV_annexed_RCT
				}
			}
			available = {
				hidden_trigger = {
					OR = {
						original_tag = RCT
						has_country_flag = RIV_annexed_RCT
					}
				}
				if = {
					limit = { has_civil_war = yes }
					NOT = {
						any_enemy_country = {
							has_idea = RCT_Helping_Hoof
						}
					}
				}
			}
			traits = { air_close_air_support_1 }

			ai_will_do = {
				factor = 1
			}
		}
	}
	RCT_Up_Oven={
		name=RCT_Up_Oven
		portraits={
			civilian={
				small="GFX_idea_RCT_Up_Oven"
			}
		}
		advisor={
			cost = 200
			slot = high_command
			ledger = air
			idea_token = RCT_Up_Oven
			allowed = {
				can_form_river_fed = yes
			}
			visible = {
				OR = {
					original_tag = RCT
					has_country_flag = RIV_annexed_RCT
				}
			}
			available = {
				hidden_trigger = {
					OR = {
						original_tag = RCT
						has_country_flag = RIV_annexed_RCT
					}
				}
				if = {
					limit = { has_civil_war = yes }
					NOT = {
						any_enemy_country = {
							has_idea = RCT_Up_Oven
						}
					}
				}
			}
			traits = { air_tactical_bombing_3 }

			ai_will_do = {
				factor = 1
			}
		}
	}
	RCT_head_of_intelligence={
		portraits={
			civilian={
				small="GFX_idea_unknown_advisor6"
			}
		}
		advisor={
			slot = political_advisor
			idea_token = RCT_head_of_intelligence
			allowed = {
				has_dlc = "La Resistance"
				original_tag = RCT
			}
			available = {
				has_intelligence_agency = yes
				has_government = communism
			}
			traits = {
				head_of_intelligence 
			}
			ai_will_do = {
				factor = 1
				modifier = {
					has_intelligence_agency = no
					factor = 0
				}
			}
		}
	}
}
