armor_CHN = {

	available_for = {
		CHN
		CCN
	}

	role = armor

	upgrade_prio = {
		factor = 3.1
	}

	###match_to_count = 0.5

	light_armor_default_CHN = {

		upgrade_prio = {
			factor = 2
		}

		reinforce_prio = 1

		target_template = {
			
			support = {
				engineer = 1
				mot_recon = 1
				artillery = 1
				infiltrator_company = 1
				signal_company = 1
			}

			regiments = {
				light_armor = 6
				motorized = 4
			}
		}

	}

	medium_armor_default_CHN = {

		upgrade_prio = {
			factor = 2.5
			modifier = {
				factor = 0.01
				has_tech = mechanised_infantry
				num_of_military_factories > 60
			}
			modifier = {
				factor = 0.01
				has_tech = mechanised_infantry
				OR = {
					has_tech = main_battle_tank
					has_tech = main_battle_tank_chassis
				}
				num_of_military_factories > 60
			}
			modifier = {
				factor = 0.01
				NOT = {
					AND = {
						OR = {
							has_tech = basic_medium_tank
							has_tech = basic_medium_tank_chassis
						}
						num_of_military_factories > 24
					}
				}
			}
		}

		reinforce_prio = 1

		can_upgrade_in_field = {
			has_tech = mechanised_infantry
			num_of_military_factories > 60
			has_equipment = { mechanized_equipment > 10 }
		}

		replace_at_match = 0.6
		replace_with = medium_armor_default_2_CHN
		target_min_match = 0.5

		target_template = {
			
			support = {
				engineer = 1
				anti_air = 1
				logistics_company = 1
				light_tank_recon = 1
				infiltrator_company = 1
			}

			regiments = {
				medium_armor = 8
				motorized = 7
			}
		}
	}

	medium_armor_default_2_CHN = {

		upgrade_prio = {
			factor = 2.5
			modifier = {
				factor = 0.01
				NOT = {
					has_tech = mechanised_infantry
					num_of_military_factories > 60
				}
			}
			modifier = {
				factor = 0.01
				has_tech = mechanised_infantry
				OR = {
					has_tech = main_battle_tank
					has_tech = main_battle_tank_chassis
				}
				num_of_military_factories > 60
			}
			modifier = {
				factor = 0.01
				NOT = {
					AND = {
						OR = {
							has_tech = basic_medium_tank
							has_tech = basic_medium_tank_chassis
						}
						num_of_military_factories > 29
					}
				}
			}
		}

		reinforce_prio = 1
		
		can_upgrade_in_field = {
			has_tech = mechanised_infantry
			OR = {
				has_tech = main_battle_tank
				has_tech = main_battle_tank_chassis
			}
			num_of_military_factories > 60
			has_equipment = { mechanized_equipment > 10 }
		}

		replace_at_match = 0.6
		replace_with = modern_armor_default_CHN
		target_min_match = 0.5

		target_template = {
				support = {
				engineer = 1
				light_tank_recon = 1
				logistics_company = 1
				anti_air = 1
				infiltrator_company = 1
			}

			regiments = {
				medium_armor = 8
				mechanized = 7
			}
		}
	}

	modern_armor_default_CHN = {

		upgrade_prio = {
			factor = 0.03
			modifier = {
				factor = 100
				has_tech = mechanised_infantry
				OR = {
					has_tech = main_battle_tank
					has_tech = main_battle_tank_chassis
				}
				num_of_military_factories > 60
			}
		}

		reinforce_prio = 1

		target_template = {
			
			support = {
				engineer = 1
				light_tank_recon = 1
				logistics_company = 1
				anti_air = 1
				infiltrator_company = 1
			}

			regiments = {
				modern_armor = 8
				mechanized = 7
			}
		}

	}
}

infantry_CHN = {

	available_for = {
		CHN
		CCN
	}

	role = infantry
	upgrade_prio = {
		factor = 3.5
	}

	###match_to_count = 0.401


	infantry_default_CHN = {

		upgrade_prio = {
			factor = 2
			modifier = {
				factor = 0.01
				OR = {
					num_of_military_factories > 40
					AND = {
						num_of_military_factories > 30
						manpower_per_military_factory > 4000
					}
					AND = {
						num_of_military_factories > 20
						manpower_per_military_factory > 6000
					}
				}
			}
			modifier = {
				factor = 0.01
				has_tech = mechanised_infantry
				NOT = { num_of_military_factories < 150 }
			}
		}
		
		reinforce_prio = 1

		can_upgrade_in_field = {
			OR = {
				num_of_military_factories > 40
				AND = {
					num_of_military_factories > 30
					manpower_per_military_factory > 4000
				}
				AND = {
					num_of_military_factories > 20
					manpower_per_military_factory > 6000
				}
			}
		}

		target_template = {
			
			regiments = {
				infantry = 6
				artillery_brigade = 1
			}

			support = {
				engineer = 1
				artillery = 1
				anti_air = 1
				anti_tank = 1
			}
		}
	}
	infantry_default_CHN_2 = {

		upgrade_prio = {
			factor = 2
			modifier = {
				factor = 0.01
				NOT = {
					num_of_military_factories > 40
					AND = {
						num_of_military_factories > 30
						manpower_per_military_factory > 4000
					}
					AND = {
						num_of_military_factories > 20
						manpower_per_military_factory > 6000
					}
				}
			}
			modifier = {
				factor = 0.01
				has_tech = mechanised_infantry
				NOT = { num_of_military_factories < 150 }
			}
		}
		
		
		reinforce_prio = 1

		can_upgrade_in_field = {
			has_tech = mechanised_infantry
			has_equipment = { mechanized_equipment > 500 }
			NOT = { num_of_military_factories < 150 }
		}

		target_template = {

			regiments = {
				infantry = 9
				artillery_brigade = 2
			}

			support = {
				engineer = 1
				artillery = 1
				anti_tank = 1
				anti_air = 1
				infiltrator_company = 1
			}
		}

	}
	infantry_default_CHN_mechanized = {

		upgrade_prio = {
			factor = 2
			modifier = {
				factor = 0.01
				NOT = { has_tech = mechanised_infantry }
				num_of_military_factories < 150
			}
		}
		reinforce_prio = 1

		target_template = {
			
			regiments = {
				mechanized = 9
				mot_artillery_brigade = 4
			}

			support = {
				engineer = 1
				infiltrator_company = 1
				anti_tank = 1
				anti_air = 1
				logistics_company = 1
			}
		}
	}
}

magical_infantry_CHN = {

	available_for = {
		CHN
		CCN
	}

	role = magical_infantry

	upgrade_prio = {
		factor = 3

		modifier = {
			factor = 0
			NOT = { has_tech = magical_weapons }
		}
	}

	####match_to_count = 0.5

	magical_infantry_default_CHN = {

		upgrade_prio = {
			factor = 2
			modifier = {
				factor = 0
				NOT = { has_tech = magical_weapons }
			}
			modifier = {
				factor = 0.01
				OR = {
					num_of_military_factories > 40
					AND = {
						num_of_military_factories > 30
						manpower_per_military_factory > 4000
					}
					AND = {
						num_of_military_factories > 20
						manpower_per_military_factory > 6000
					}
				}
			}
			modifier = {
				factor = 0.01
				has_tech = mechanised_infantry
				NOT = { num_of_military_factories < 150 }
			}
		}
		
		reinforce_prio = 1

		can_upgrade_in_field = {
			OR = {
				num_of_military_factories > 40
				AND = {
					num_of_military_factories > 30
					manpower_per_military_factory > 4000
				}
				AND = {
					num_of_military_factories > 20
					manpower_per_military_factory > 6000
				}
			}
		}

		target_template = {
			
			regiments = {
				magical_infantry = 6
				artillery_brigade = 1
			}

			support = {
				engineer = 1
				artillery = 1
				anti_air = 1
				infiltrator_company = 1
				anti_tank = 1
			}
		}
	}
	magical_infantry_default_CHN_2 = {

		upgrade_prio = {
			factor = 2
			modifier = {
				factor = 0
				NOT = { has_tech = magical_weapons }
			}
			modifier = {
				factor = 0.01
				NOT = {
					num_of_military_factories > 40
					AND = {
						num_of_military_factories > 30
						manpower_per_military_factory > 4000
					}
					AND = {
						num_of_military_factories > 20
						manpower_per_military_factory > 6000
					}
				}
			}
			modifier = {
				factor = 0.01
				has_tech = mechanised_infantry
				NOT = { num_of_military_factories < 150 }
			}
		}
		reinforce_prio = 1

		can_upgrade_in_field = {
			has_tech = mechanised_infantry
			has_equipment = { mechanized_equipment > 500 }
			NOT = { num_of_military_factories < 150 }
		}

		target_template = {
			
			regiments = {
				magical_infantry = 7
				artillery_brigade = 2
			}

			support = {
				engineer = 1
				logistics_company = 1
				anti_tank = 1
				anti_air = 1
				infiltrator_company = 1
			}
		}
	}
	magical_infantry_default_CHN_mechanized = {

		upgrade_prio = {
			factor = 2
			modifier = {
				factor = 0
				NOT = { has_tech = magical_weapons }
			}
			modifier = {
				factor = 0.01
				NOT = { has_tech = mechanised_infantry }
				num_of_military_factories < 150
			}
		}
		
		reinforce_prio = 1

		target_template = {
			
			regiments = {
				magical_mechanized = 9
				mot_artillery_brigade = 4
			}

			support = {
				engineer = 1
				infiltrator_company = 1
				anti_tank = 1
				anti_air = 1
				logistics_company = 1
			}
		}

	}
}

jager_CHN = {

	role = jager

	upgrade_prio = {
		factor = 3

		modifier = {
			factor = 0
			NOT = {
				has_tech = tech_jager
			}
		}
	}

	###match_to_count = 0.4

	jager_default_CHN = {

		upgrade_prio = {
			factor = 2
		}

		reinforce_prio = 1

		target_template = {
			
			support = {
				engineer = 1
				anti_air = 1
				artillery = 1
				anti_tank = 1
				infiltrator_company = 1
			}

			regiments = {
				jager = 10
			}
		}
	}
}

mountaineers_CHN = {

	available_for = {
		CHN
		CCN
	}

	role = mountaineers

	upgrade_prio = {
		factor = 3

		modifier = {
			factor = 0
			NOT = {
				has_tech = tech_mountaineers
			}
		}
	}

	###match_to_count = 0.4

	mountaineers_default_CHN = {

		upgrade_prio = {
			factor = 2

			modifier = {
				factor = 1
			}
		}

		target_template = {
			
			support = {
				engineer = 1
				artillery = 1
				anti_tank = 1
				logistics_company = 1
				recon = 1
			}

			regiments = {
				mountaineers = 10
			}
		}

	}
}

marines_CHN = {

	available_for = {
		CHN
		CCN
	}

	role = marines

	upgrade_prio = {
		factor = 3

		modifier = {
			factor = 0
			NOT = {
				has_tech = marines
			}
		}
	}

	###match_to_count = 0.4

	marine_default_CHN = {

		upgrade_prio = {
			factor = 2

			modifier = {
				factor = 0.01
				OR = { has_tech = amphibious_tank has_tech = amphibious_tank_chassis }
				has_tech = amphibious_mechanized_infantry
				num_of_military_factories > 60
			}
		}

		can_upgrade_in_field = {
			has_equipment = { amphibious_mechanized_equipment > 10 }
		}

		target_template = {
			
			support = {
				engineer = 1
				artillery = 1
				anti_tank = 1
				infiltrator_company = 1
				recon = 1
			}

			regiments = {
				marine = 10

			}
		}
	}
	marine_armored_CHN = {
	
		upgrade_prio = {
			factor = 2

			modifier = {
				factor = 0.01
				NOT = {
					OR = { has_tech = amphibious_tank has_tech = amphibious_tank_chassis }
					has_tech = amphibious_mechanized_infantry
					num_of_military_factories > 60
				}
			}
		}

		target_template = {
			
			support = {
				recon = 1
				logistics_company = 1
				engineer = 1
				artillery = 1
				anti_tank = 1
			}
			
			regiments = {
				amphibious_armor = 4
				amphibious_mechanized = 6
			}
		}

	}
}


paratroopers_CHN = {

	available_for = {
		CHN
		CCN
	}

	role = paratroopers

	upgrade_prio = {
		factor = 3

		modifier = {
			factor = 0
			NOT = {
				has_tech = paratroopers
			}
		}
	}

	####match_to_count = 0.4

	paratrooper_default_CHN = {

		upgrade_prio = {
			factor = 2

			modifier = {
				factor = 1
			}
		}

		target_template = {
	
			support = {
				engineer = 1
				artillery = 1
				anti_tank = 1
				logistics_company = 1
				infiltrator_company = 1
			}

			regiments = {
				paratrooper = 10
			}
		}
	}
}


# REGIMENTS:
#infantry
#light_armor
#super_heavy_armor
#modern_armor
#heavy_armor
#medium_armor
#light_armor
#anti_tank
#cavalry
#motorized
#mechanized
#marine
#mountaineers
#paratrooper
#rocket_artillery
#light_tank_destroyer
#anti_air
#artillery

# SUPPORT:
#engineer
#recon
#signal_company
#maintenance_company
#anti_tank_brigade
#anti_air_brigade
#artillery_brigade
#field_hospital
#logistics_company
#military_police
#light_sp_anti_air_brigade
#light_sp_artillery_brigade
