armor_EQS = {


	available_for = {
		AES
		BAK
		BAL
		BAR
		BAT
		CES
		CRY
		DEP
		ELF
		EQC
		EQS
		FBK
		FIR
		FRE
		JHP
		JRV
		JUN
		LCT
		LSP
		MDL
		MGY
		MTO
		NIM
		NLR
		NMS
		NTR
		PCB
		RCT
		SCS
		STL
		STG
		TBK
		TEM
		VAN
		WAT
		WIT
		ZES
		ZRS

		# Horses
		EMR
		HMR
		KAR
		MTA
		OSQ
		REE
		SDC
		SDF
		SDL
		SDS
		YMN
	}

	role = armor

	upgrade_prio = {
		factor = 3.1
	}

	###match_to_count = 0.5

	light_armor_default_EQS = {

		upgrade_prio = {
			factor = 2
		}
		reinforce_prio = 1

		target_template = {
			
			support = {
				engineer = 1
				mot_recon = 1
				artillery = 1
				unicorn_company = 1
				signal_company = 1
			}

			regiments = {
				light_armor = 6
				motorized = 4
			}
		}

	}

	medium_armor_default_EQS = {

		upgrade_prio = {
			factor = 3.5
			modifier = {
				factor = 0.01
				has_tech = mechanised_infantry
				num_of_military_factories > 60
			}
			modifier = {
				factor = 0.01
				has_tech = mechanised_infantry
				OR = {
					has_tech = main_battle_tank
					has_tech = main_battle_tank_chassis
				}
				num_of_military_factories > 60
			}
			modifier = {
				factor = 0.01
				NOT = {
					AND = {
						OR = {
							has_tech = basic_medium_tank
							has_tech = basic_medium_tank_chassis
						}
						num_of_military_factories > 24
					}
				}
			}
		}

		reinforce_prio = 1

		can_upgrade_in_field = {
			has_tech = mechanised_infantry
			num_of_military_factories > 60
			has_equipment = { mechanized_equipment > 10 }
		}

		replace_at_match = 0.6
		replace_with = medium_armor_default_2_EQS
		target_min_match = 0.5

		target_template = {
			support = {
				engineer = 1
				anti_air = 1
				logistics_company = 1
				light_tank_recon = 1
				unicorn_company = 1
			}

			regiments = {
				medium_armor = 8
				motorized = 7
			}
		}

	}

	medium_armor_default_2_EQS = {

		upgrade_prio = {
			factor = 2.5
			modifier = {
				factor = 0.01
				NOT = {
					has_tech = mechanised_infantry
					num_of_military_factories > 60
				}
			}
			modifier = {
				factor = 0.01
				has_tech = mechanised_infantry
				OR = {
					has_tech = main_battle_tank
					has_tech = main_battle_tank_chassis
				}
				num_of_military_factories > 60
			}
			modifier = {
				factor = 0.01
				NOT = {
					AND = {
						OR = {
							has_tech = basic_medium_tank
							has_tech = basic_medium_tank_chassis
						}
						num_of_military_factories > 29
					}
				}
			}
		}

		reinforce_prio = 1
		
		can_upgrade_in_field = {
			has_tech = mechanised_infantry
			OR = {
				has_tech = main_battle_tank
				has_tech = main_battle_tank_chassis
			}
			num_of_military_factories > 60
			has_equipment = { mechanized_equipment > 10 }
		}

		replace_at_match = 0.6
		replace_with = modern_armor_default_EQS
		target_min_match = 0.5

		target_template = {
			
			support = {
				engineer = 1
				light_tank_recon = 1
				logistics_company = 1
				anti_air = 1
				unicorn_company = 1
			}

			regiments = {
				medium_armor = 8
				mechanized = 7
			}
		}

	}

	modern_armor_default_EQS = {

		upgrade_prio = {
			factor = 0.03
			modifier = {
				factor = 100
				has_tech = mechanised_infantry
				OR = {
					has_tech = main_battle_tank
					has_tech = main_battle_tank_chassis
				}
				num_of_military_factories > 60
			}
		}
		reinforce_prio = 1

		target_template = {
		
			support = {
				engineer = 1
				light_tank_recon = 1
				logistics_company = 1
				anti_air = 1
				unicorn_company = 1
			}

			regiments = {
				modern_armor = 8
				mechanized = 7
			}
		}
	}
}

infantry_EQS = {

	available_for = {
		AES
		BAK
		BAL
		BAR
		BAT
		CES
		CRY
		DEP
		ELF
		EQC
		EQS
		FBK
		FIR
		FRE
		JHP
		JRV
		JUN
		LCT
		LSP
		MDL
		MGY
		MTO
		NIM
		NLR
		NMS
		NTR
		PCB
		RCT
		SCS
		STL
		STG
		TBK
		TEM
		VAN
		WAT
		WIT
		ZES
		ZRS

		# Horses
		EMR
		HMR
		KAR
		MTA
		OSQ
		REE
		SDC
		SDF
		SDL
		SDS
		YMN
	}

	role = infantry

	upgrade_prio = {
		factor = 3.5
	}

	###match_to_count = 0.401

	infantry_default_EQS = {

		upgrade_prio = {
			factor = 2
			modifier = {
				factor = 0.01
				OR = {
					AND = {	
						OR = {
							num_of_military_factories > 40
							AND = {
								num_of_military_factories > 30
								manpower_per_military_factory > 4000
							}
							AND = {
								num_of_military_factories > 20
								manpower_per_military_factory > 6000
							}
						}
						NOT = { original_tag = EQS }
					}
					AND = {
						original_tag = EQS
						date > 1012.1.1
						surrender_progress < 0.05
					}
				}
			}
			modifier = {
				factor = 0.01
				NOT = { num_of_military_factories < 150 }
			}
			modifier = {
				factor = 2.0
				tag = EQS
			}
			modifier = {
				factor = 3.0
				tag = STG
			}
		}
		
		reinforce_prio = 1

		can_upgrade_in_field = {
			OR = {
				num_of_military_factories > 40
				AND = {
					num_of_military_factories > 30
					manpower_per_military_factory > 4000
				}
				AND = {
					num_of_military_factories > 20
					manpower_per_military_factory > 6000
				}
			}
		}

		target_template = {

			regiments = {
				infantry = 6
				artillery_brigade = 1
			}

			support = {
				engineer = 1
				artillery = 1
				anti_air = 1
				anti_tank = 1
			}
		}

	}
	infantry_default_EQS_2 = {

		upgrade_prio = {
			factor = 2
			modifier = {
				factor = 0.01
				NOT = {
					num_of_military_factories > 40
					AND = {
						num_of_military_factories > 30
						manpower_per_military_factory > 4000
					}
					AND = {
						num_of_military_factories > 20
						manpower_per_military_factory > 6000
					}
				}
				OR = {
					AND = {	
						NOT = {
							num_of_military_factories > 40
							AND = {
								num_of_military_factories > 30
								manpower_per_military_factory > 4000
							}
							AND = {
								num_of_military_factories > 20
								manpower_per_military_factory > 6000
							}
						}
						NOT = { original_tag = EQS }
					}
					AND = {
						original_tag = EQS
						date < 1012.1.1
						surrender_progress > 0.05
					}
				}
			}
			modifier = {
				factor = 0.01
				NOT = { num_of_military_factories < 150 }
			}
			modifier = {
				factor = 2.5
				AND = {
					original_tag = EQS
					date > 1012.1.1
					surrender_progress < 0.05
				}
			}
		}
	
		reinforce_prio = 1

		can_upgrade_in_field = {
			has_tech = mechanised_infantry
			has_equipment = { mechanized_equipment > 500 }
			NOT = { num_of_military_factories < 150 }
		}

		target_template = {
			
			regiments = {
				infantry = 9
				artillery_brigade = 1
			}

			support = {
				engineer = 1
				artillery = 1
				anti_tank = 1
				anti_air = 1
				unicorn_company = 1
			}
		}

	}
	infantry_default_mechanized = {

		upgrade_prio = {
			factor = 2
			modifier = {
				factor = 0.01
				num_of_military_factories < 150
			}
		}
		
		reinforce_prio = 1

		target_template = {
			
			regiments = {
				mechanized = 9
				mot_artillery_brigade = 4
			}

			support = {
				engineer = 1
				field_hospital = 1
				anti_tank = 1
				anti_air = 1
				unicorn_company = 1
			}
		}
	}
}

magical_infantry_EQS = {

	available_for = {
		AES
		BAK
		BAL
		BAR
		BAT
		CES
		CRY
		DEP
		ELF
		EQC
		EQS
		FBK
		FIR
		FRE
		JHP
		JRV
		JUN
		LCT
		LSP
		MDL
		MGY
		MTO
		NIM
		NLR
		NMS
		NTR
		PCB
		RCT
		SCS
		STL
		STG
		TBK
		TEM
		VAN
		WAT
		WIT
		ZES
		ZRS

		# Horses
		EMR
		HMR
		KAR
		MTA
		OSQ
		REE
		SDC
		SDF
		SDL
		SDS
		YMN
	}

	role = magical_infantry

	upgrade_prio = {
		factor = 3
		modifier = {
			factor = 0
			NOT = { has_tech = magical_weapons }
		}
	}

	###match_to_count = 0.5

	magical_infantry_default_EQS = {

		upgrade_prio = {
			factor = 2
			modifier = {
				factor = 0
				NOT = { has_tech = magical_weapons }
			}
			modifier = {
				factor = 0.01
				OR = {
					num_of_military_factories > 40
					AND = {
						num_of_military_factories > 30
						manpower_per_military_factory > 4000
					}
					AND = {
						num_of_military_factories > 20
						manpower_per_military_factory > 6000
					}
				}
			}
			modifier = {
				factor = 0.01
				NOT = { num_of_military_factories < 150 }
			}
		}
		
		reinforce_prio = 1

		can_upgrade_in_field = {
			OR = {
				num_of_military_factories > 40
				AND = {
					num_of_military_factories > 30
					manpower_per_military_factory > 4000
				}
				AND = {
					num_of_military_factories > 20
					manpower_per_military_factory > 6000
				}
			}
		}

		target_template = {
			
			regiments = {
				magical_infantry = 6
				artillery_brigade = 1
			}

			support = {
				engineer = 1
				artillery = 1
				anti_air = 1
				unicorn_company = 1
				anti_tank = 1
			}
		}

	}
	magical_infantry_default_EQS_2 = {

		upgrade_prio = {
			factor = 2
			modifier = {
				factor = 0
				NOT = { has_tech = magical_weapons }
			}
			modifier = {
				factor = 0.01
				NOT = {
					num_of_military_factories > 40
					AND = {
						num_of_military_factories > 30
						manpower_per_military_factory > 4000
					}
					AND = {
						num_of_military_factories > 20
						manpower_per_military_factory > 6000
					}
				}
			}
			modifier = {
				factor = 0.01
				NOT = { num_of_military_factories < 150 }
			}
		}
	
		reinforce_prio = 1

		can_upgrade_in_field = {
			has_tech = mechanised_infantry
			has_equipment = { mechanized_equipment > 500 }
			NOT = { num_of_military_factories < 150 }
		}

		target_template = {
			
			regiments = {
				magical_infantry = 7
				artillery_brigade = 2
			}

			support = {
				engineer = 1
				field_hospital = 1
				anti_tank = 1
				anti_air = 1
				unicorn_company = 1
			}
		}

	}
	magical_infantry_default_EQS_mechanized = {

		upgrade_prio = {
			factor = 2
			modifier = {
				factor = 0
				NOT = { has_tech = magical_weapons }
			}
			modifier = {
				factor = 0.01
				num_of_military_factories < 150
			}
		}
		
		reinforce_prio = 1

		target_template = {
			
			regiments = {
				magical_mechanized = 9
				mot_artillery_brigade = 4
			}

			support = {
				engineer = 1
				field_hospital = 1
				anti_tank = 1
				anti_air = 1
				unicorn_company = 1
			}
		}

	}
}

mountaineers_EQS = {

	available_for = {
		AES
		BAK
		BAL
		BAR
		BAT
		CES
		CRY
		DEP
		ELF
		EQC
		EQS
		FBK
		FIR
		FRE
		JHP
		JRV
		JUN
		LCT
		LSP
		MDL
		MGY
		MTO
		NIM
		NLR
		NMS
		NTR
		PCB
		RCT
		SCS
		STL
		STG
		TBK
		TEM
		VAN
		WAT
		WIT
		ZES
		ZRS

		# Horses
		EMR
		HMR
		KAR
		MTA
		OSQ
		REE
		SDC
		SDF
		SDL
		SDS
		YMN
	}

	role = mountaineers

	upgrade_prio = {
		factor = 3

		modifier = {
			factor = 0
			NOT = {
				has_tech = tech_mountaineers
			}
		}
	}

	###match_to_count = 0.4

	mountaineers_default_EQS = {

		upgrade_prio = {
			factor = 2

			modifier = {
				factor = 0
				tag = NIM
				NOT = { has_completed_focus = NIM_unicorn_corps }
			}
		}

		target_template = {
			
			support = {
				engineer = 1
				artillery = 1
				anti_tank = 1
				logistics_company = 1
				unicorn_company = 1
			}

			regiments = {
				mountaineers = 10
			}
		}

	}

	mountaineers_default_NIM = {

		upgrade_prio = {
			factor = 2

			modifier = {
				factor = 0.01
				OR = {
					NOT = { tag = NIM }
					has_completed_focus = NIM_unicorn_corps
				}
			}
		}

		target_template = {
			
			support = {
				engineer = 1
				artillery = 1
				anti_tank = 1
				field_hospital = 1
				recon = 1
			}

			regiments = {
				mountaineers = 10
			}
		}

	}
}

marines_EQS = {

	available_for = {
		AES
		BAK
		BAL
		BAR
		BAT
		CES
		CRY
		DEP
		ELF
		EQC
		EQS
		FBK
		FIR
		FRE
		JHP
		JRV
		JUN
		LCT
		LSP
		MDL
		MGY
		MTO
		NIM
		NLR
		NMS
		NTR
		PCB
		RCT
		SCS
		STL
		STG
		TBK
		TEM
		VAN
		WAT
		WIT
		ZES
		ZRS

		# Horses
		EMR
		HMR
		KAR
		MTA
		OSQ
		REE
		SDC
		SDF
		SDL
		SDS
		YMN
	}

	role = marines

	upgrade_prio = {
		factor = 3

		modifier = {
			factor = 0
			NOT = {
				has_tech = marines
			}
		}
	}

	###match_to_count = 0.4

	marine_default_EQS = {

		upgrade_prio = {
			factor = 2

			modifier = {
				factor = 0.01
				OR = { has_tech = amphibious_tank has_tech = amphibious_tank_chassis }
				has_tech = amphibious_mechanized_infantry
				num_of_military_factories > 60
			}
		}

		can_upgrade_in_field = {
			num_of_military_factories > 60
			has_equipment = { amphibious_mechanized_equipment > 10 }
		}

		target_template = {
			
			support = {
				recon = 1
				logistics_company = 1
				artillery = 1
				engineer = 1
				anti_tank = 1
			}

			regiments = {
				marine = 10
			}
		}

	}
	marine_armored_EQS = {
	
		upgrade_prio = {
			factor = 2

			modifier = {
				factor = 0.01
				NOT = {
					OR = { has_tech = amphibious_tank has_tech = amphibious_tank_chassis }
					has_tech = amphibious_mechanized_infantry
					num_of_military_factories > 60
				}
			}
		}


		target_template = {
			
			support = {
				recon = 1
				logistics_company = 1
				engineer = 1
				artillery = 1
				anti_tank = 1
			}
			
			regiments = {
				amphibious_armor = 4
				amphibious_mechanized = 6
			}
		}

	}
}

paratroopers_EQS = {

	available_for = {
		AES
		BAK
		BAL
		BAR
		BAT
		CES
		CRY
		DEP
		ELF
		EQC
		EQS
		FBK
		FIR
		FRE
		JHP
		JRV
		JUN
		LCT
		LSP
		MDL
		MGY
		MTO
		NIM
		NLR
		NMS
		NTR
		PCB
		RCT
		SCS
		STL
		STG
		TBK
		TEM
		VAN
		WAT
		WIT
		ZES
		ZRS

		# Horses
		EMR
		HMR
		KAR
		MTA
		OSQ
		REE
		SDC
		SDF
		SDL
		SDS
		YMN
	}

	role = paratroopers

	upgrade_prio = {
		factor = 1.9

		modifier = {
			factor = 0
			NOT = {
				has_tech = paratroopers
			}
		}
	}

	###match_to_count = 0.4

	paratrooper_default_EQS = {

		upgrade_prio = {
			factor = 2

			modifier = {
				factor = 1
			}
		}

		target_template = {
			
			support = {
				engineer = 1
				artillery = 1
				anti_tank = 1
				unicorn_company = 1
				recon = 1
			}

			regiments = {
				paratrooper= 10
			}
		}

	}
}

pegasi_shock_EQS = {

	role = pegasi
	upgrade_prio = {
		factor = 3

		modifier = {
			factor = 0
			NOT = {
				has_tech = tech_pegasi
			}
		}

		modifier = {
			factor = 4
			OR = {
				tag = NIM
				original_tag = BAT
			}
		}
	}

	###match_to_count = 0.4

	pegasi_default_EQS = {

		upgrade_prio = {
			factor = 2

			modifier = {
				factor = 0.01
				tag = NIM
				NOT = { has_completed_focus = NIM_unicorn_corps }
			}
		}

		reinforce_prio = 1

		target_template = {
			
			support = {
				engineer = 1
				artillery = 1
				anti_tank = 1
				unicorn_company = 1
				recon = 1
			}

			regiments = {
				pegasi = 10
			}
		}

	}

	pegasi_default_NIM = {

		upgrade_prio = {
			factor = 2

			modifier = {
				factor = 0.01
				NOT = { tag = NIM }
			}

			modifier = {
				factor = 0.01
				has_completed_focus = NIM_unicorn_corps
			}
		}

		
		reinforce_prio = 1

		target_template = {

			support = {
				engineer = 1
				artillery = 1
				anti_tank = 1
				field_hospital = 1
				recon = 1
			}

			regiments = {
				pegasi = 10
			}
		}

	}
}


# REGIMENTS:
#infantry
#light_armor
#super_heavy_armor
#modern_armor
#heavy_armor
#medium_armor
#light_armor
#anti_tank
#cavalry
#motorized
#mechanized
#marine
#mountaineers
#paratrooper
#rocket_artillery
#light_tank_destroyer
#anti_air
#artillery

# SUPPORT:
#engineer
#recon
#signal_company
#maintenance_company
#anti_tank_brigade
#anti_air_brigade
#artillery_brigade
#field_hospital
#logistics_company
#military_police
#light_sp_anti_air_brigade
#light_sp_artillery_brigade