# options for map_icon_category:
# For land units: infantry,armored,other
# For sea units: ship,transport,uboat

sub_units = {
    unicorn_company = {
		sprite = infantry
		map_icon_category = infantry
		priority = 0
		ai_priority = 0
		active = no
		affects_speed = no

		type = {
			infantry
			support
		}

		group = support

		categories = {
			category_front_line
			category_support_battalions
			category_army
			category_magical
		}


		combat_width = 0

		#Size Definitions
		max_strength = 1
		max_organisation = 30
		default_morale = 0.3
		manpower = 200
		training_time = 200
		reliability = -0.04

		#Misc Abilities
		weight = 0.1
		supply_consumption = 0.04
		can_be_parachuted = yes

		# Important Ability
		breakthrough = 2

		defense = -0.5
		soft_attack = -0.5
		hard_attack = -0.5

		essential = {
			support_equipment
		}

		need = {
			support_equipment = 15
		}

	}

	troll_hound = {
		sprite = infantry
		map_icon_category = infantry
		priority = 0
		ai_priority = 0
		active = no
		affects_speed = no

		can_be_parachuted = yes

		type = {
			infantry
			support
		}

		group = support

		categories = {
			category_support_battalions
			category_army
			category_magical
		}

		combat_width = 0

		need = {
			infantry_equipment = 20
			support_equipment = 30
		}

		maximum_speed = 6

		manpower = 100
		default_morale = 0.2
		training_time = 120
		max_organisation = 10
		max_strength = 2
		weight = 0.3

		supply_consumption = 0.1

		defense = -0.5
		breakthrough = 7
		soft_attack = 3
		hard_attack = 5
		ap_attack = 24

		fort = {
			attack = 0.1
		}
		urban = {
			attack = 0.1
		}

	}
	
	ursas = {
		sprite = infantry
		map_icon_category = infantry
		priority = 0
		ai_priority = 0
		active = no
		affects_speed = no

		can_be_parachuted = yes

		type = {
			infantry
			support
		}

		group = support

		categories = {
			category_support_battalions
			category_army
			category_magical
		}

		combat_width = 0

		need = {
			infantry_equipment = 20
			support_equipment = 30
		}

		maximum_speed = 6

		manpower = 100
		default_morale = 0.2
		training_time = 140
		max_organisation = 10
		max_strength = 2
		weight = 0.3

		supply_consumption = 0.1

		defense = -0.5
		breakthrough = 8
		soft_attack = 4
		hard_attack = 4
		ap_attack = 24

		fort = {
			attack = -0.10
		}
		urban = {
			attack = -0.10
		}
		jungle = {
			attack = 0.20
		}
		forest = {
			attack = 0.20
			defence = 0.10
		}
	}
	infiltrator_company = {
		sprite = infantry
		map_icon_category = infantry
		priority = 0
		ai_priority = 0
		active = no
		affects_speed = no

		type = {
			infantry
			support
		}

		group = support

		categories = {
			category_support_battalions
			category_army
			category_magical
		}


		combat_width = 0

		#Size Definitions
		max_strength = 5
		max_organisation = 35
		default_morale = 0.5
		manpower = 400
		training_time = 160

		#Misc Abilities
		weight = 0.1
		supply_consumption = 0.02
		can_be_parachuted = yes

		# Important Ability
		breakthrough = 0.5
		recon = 1
		suppression_factor = 0.05


		defense = -0.5
		soft_attack = -0.4
		hard_attack = -0.4

		essential = {
			support_equipment
		}

		need = {
			support_equipment = 10
		}

		urban = {
			attack = 0.15
			movement = 0.1
		}

		fort = {
			attack = 0.15
		}

	}
	attack_helicopter_company = {

		sprite = infantry
		map_icon_category = infantry
		priority = 0
		ai_priority = 0
		active = no
		affects_speed = no

		type = {
			infantry
			support
		}

		group = support

		categories = {
			category_support_battalions
			category_army
			category_helicopter_support_companies
		}


		combat_width = 0

		#Size Definitions
		max_strength = 2
		max_organisation = 20
		default_morale = 0.3
		manpower = 500
		training_time = 180

		#Misc Abilities
		weight = 0.1
		supply_consumption = 0.08
		can_be_parachuted = yes


		essential = {
			attack_helicopter_equipment
		}

		need = {
			attack_helicopter_equipment = 24
		}

		plains = {
			attack = 0.2
		}
		desert = {
			attack = 0.2
		}
		hills = {
			attack = 0.05
		}
		mountain = {
			attack = 0.1
		}
		marsh = {
			attack = 0.1
		}
		forest = {
			attack = 0.1
		}
		jungle = {
			attack = 0.1
		}
		urban = {
			attack = 0.1
		}
		amphibious = {
			attack = 0.1
		}
		river = {
			attack = 0.1
		}
	}
	
	hydras = {
		
		sprite = infantry
		map_icon_category = infantry
		priority = 0
		ai_priority = 0
		active = no
		affects_speed = no

		can_be_parachuted = yes

		type = {
			infantry
			support
		}

		group = support

		categories = {
			category_support_battalions
			category_army
			category_magical
		}

		combat_width = 0

		need = {
			infantry_equipment = 50
			support_equipment = 50
		}

		maximum_speed = 6

		manpower = 100
		default_morale = 0.2
		training_time = 180
		max_organisation = 10
		max_strength = 2
		weight = 0.3

		supply_consumption = 0.1

		defense = -0.5
		breakthrough = 8
		soft_attack = 4
		hard_attack = 4
		ap_attack = 24

		urban = {
			attack = -0.10
		}
		river = {
			attack = 0.20
		}
		marsh = {
			attack = 0.20
			defence = 0.10
		}
	}
	
	magical_tank_detachment = {
		sprite = infantry
		map_icon_category = infantry
		priority = 0
		ai_priority = 0
		active = no
		affects_speed = no

		type = {
			infantry
			support
		}

		group = support

		categories = {
			category_front_line
			category_support_battalions
			category_army
			category_all_armor
			category_mechanical
			category_magical
		}
		
		essential = {
			magical_tank_equipment
		}

		need = {
			magical_tank_equipment = 40
		}

		combat_width = 0

		#Size Definitions
		max_strength = 2
		max_organisation = 10
		default_morale = 0.3
		manpower = 500
		training_time = 200

		#Misc Abilities
		weight = 1.0
		supply_consumption = 0.25
		can_be_parachuted = yes

		fort = {
			attack = 0.1
		}

	}
	
	magical_artillery = {
		sprite = artillery
		map_icon_category = infantry
		priority = 0
		ai_priority = 0
		active = yes
		affects_speed = no

		type = {
			infantry
			support
		}

		group = support

		categories = {
			category_support_battalions
			category_army
			category_magical
			category_artillery
			category_all_artillery
			category_support_artillery
		}


		combat_width = 0

		need = {
			magical_artillery_equipment = 24
		}
		manpower = 300
		training_time = 160
		max_organisation = 0
		default_morale = 0.1
		max_strength = 0.2
		weight = 0.1

		supply_consumption = 0.20

		# Support nerfs to combat abilities
		defense = -0.4
		breakthrough = -0.4
		soft_attack = -0.4
		hard_attack = -0.4
		air_attack = -0.2
		ap_attack = -0.15


		can_be_parachuted = yes
	}	
	
	anti_tank_rifles = {
        sprite = anti_tank
        map_icon_category = infantry
        priority = 0
        ai_priority = 0
        active = no
        affects_speed = no

        type = {
            infantry
            support
        }

        group = support

        categories = {
			category_front_line
			category_support_battalions
			category_army
			category_all_at
        }


        combat_width = 0
        training_time = 120

        need = {
            support_equipment = 10
            infantry_equipment = 30
        }
		battalion_mult = {
			category = category_all_infantry
			ap_attack = 0.1
		}

        can_be_parachuted = yes

        #Size Definitions
        max_strength = 0.2
        max_organisation = 0
        default_morale = 0.1
        manpower = 300
        weight = 0.1

        supply_consumption = 0.08

        # Support nerfs to combat abilities
		defense = -0.5
		breakthrough = -0.5
		soft_attack = -0.5
        hard_attack = 0.75
        ap_attack = 3
        air_attack = -0.2

        can_be_parachuted = yes
    }
	kirin_braves = {
		sprite = infantry
		map_icon_category = infantry
		priority = 0
		ai_priority = 0
		active = no
		affects_speed = no

		can_be_parachuted = yes

		type = {
			infantry
			support
		}

		group = support

		categories = {
			category_support_battalions
			category_army
			category_magical
		}

		combat_width = 0
		
		max_strength = 5
		max_organisation = 20
		default_morale = 0.3
		manpower = 400
		training_time = 160

		weight = 0.1
		supply_consumption = 0.04
		can_be_parachuted = yes

		recon = 0.5
		breakthrough = 1
		hard_attack = 1
		ap_attack = 5
		
		essential = {
			infantry_equipment
			support_equipment
		}

		need = {
			support_equipment = 20
			#infantry_equipment = 40
		}
		
		fort = {
			attack = 0.25
		}
	}
	magical_shock_company = {
		sprite = infantry
		map_icon_category = infantry
		priority = 0
		ai_priority = 0
		active = no
		affects_speed = no

		type = {
			infantry
			support
		}

		group = support

		categories = {
			category_front_line
			category_support_battalions
			category_army
			category_magical
		}


		combat_width = 0

		#Size Definitions
		max_strength = 1
		max_organisation = 30
		default_morale = 0.3
		manpower = 200
		training_time = 200
		reliability = -0.04

		#Misc Abilities
		weight = 0.1
		supply_consumption = 0.04
		armor_value = 1

		# Important Ability
		breakthrough = 2
		ap_attack = 2

		defense = -0.5

		can_be_parachuted = yes

		essential = {
			magical_equipment
			armored_support_vehicle
			support_equipment
		}

		need = {
			magical_equipment = 30
			armored_support_vehicle = 10
			support_equipment = 15
			motorized_equipment = 10
		}
		battalion_mult = {
			category = category_special_forces
			defense = 0.1
		}

	}
	spirit_grenadier_company = {
		sprite = infantry
		map_icon_category = infantry
		priority = 0
		ai_priority = 0
		active = no
		affects_speed = no

		type = {
			infantry
			support
		}

		group = support

		categories = {
			category_front_line
			category_support_battalions
			category_army
			category_magical
		}


		combat_width = 0

		#Size Definitions
		max_strength = 1
		max_organisation = 30
		default_morale = 0.3
		manpower = 200
		training_time = 200
		reliability = -0.04

		#Misc Abilities
		weight = 0.1
		supply_consumption = 0.04
		can_be_parachuted = yes

		# Important Ability
		breakthrough = 1

		defense = -0.5
		soft_attack = 0.10
		hard_attack = 0.10

		can_be_parachuted = yes

		essential = {
			spirit_grenade
			magical_equipment
			support_equipment
		}

		need = {
			magical_equipment = 30
			spirit_grenade = 15
			support_equipment = 5
		}

		battalion_mult = {
			category = category_all_infantry
			breakthrough = 0.03
		}

	}

	tunnel_drill_company = {
		sprite = infantry
		map_icon_category = infantry
		priority = 0
		ai_priority = 0
		active = no
		affects_speed = no

		type = {
			infantry
			support
		}

		group = support

		categories = {
			category_front_line
			category_support_battalions
			category_army
			category_magical
		}


		combat_width = 0

		#Size Definitions
		max_strength = 1
		max_organisation = 30
		default_morale = 0.3
		manpower = 200
		training_time = 200
		reliability = -0.04

		#Misc Abilities
		weight = 0.1
		supply_consumption = 0.04
		armor_value = 1

		# Important Ability
		breakthrough = 2
		ap_attack = 2

		defense = -0.5

		essential = {
			tunnel_drill
			support_equipment
		}

		can_be_parachuted = yes

		need = {
			tunnel_drill = 10
			support_equipment = 15
		}

		hills = {
			attack = 0.10
			defence = 0.15
			movement = 0.3
		}

		urban = {
			attack = 0.10
			defence = 0.15
			movement = 0.3
		}

		mountain = {
			attack = 0.15
			defence = 0.25
			movement = 0.3
		}

		battalion_mult = {
			category = category_army
			breakthrough = 0.03
		}

		battalion_mult = {
			category = category_racial_special_forces
			max_organisation = 1
		}
	}
}