state={
	id=1108
	name="STATE_1108"
	provinces={
		16445 16448 16451 16454 16458 16463 16464 16468 16475 16480 16481 16489 16493 16792 16799 16807 16810 16818 16824 16830 16836 16839 10322 
	}
	manpower=764871
	state_category = town

	history={
		owner = CNT
		buildings = {
			infrastructure = 2
			industrial_complex = 1
		}
		add_core_of = CNT
		victory_points={
			16830 1
		}
		victory_points={
			16463 5
		}
	}
	buildings_max_level_factor=1.000
}
