technologies = {

	early_transport_plane = {

		enable_equipments = {
			transport_plane_equipment_1
		}
	
		path = {
			leads_to_tech = improved_transport_plane
			research_cost_coeff = 1
		}
		
		research_cost = 2
		start_year = 1004
		folder = {
			name = air_techs_folder
			position = { x = 1 y = 2 } 
		}
		
		categories = {
			air_equipment
			transport_planes_cat
		}
		special_project_specialization = { specialization_air }
		ai_will_do = {
			factor = 1
			
			modifier = {
				factor = 2
				is_major = yes
			}
		}
	}

	improved_transport_plane = {

		enable_equipments = {
			transport_plane_equipment_2
		}
	
		path = {
			leads_to_tech = strategic_airlifter
			research_cost_coeff = 1
		}
		
		research_cost = 2
		start_year = 1011
		folder = {
			name = air_techs_folder
			position = { x = 1 y = 6 } 
		}
		
		categories = {
			air_equipment
			transport_planes_cat
		}
		special_project_specialization = { specialization_air }
		ai_will_do = {
			factor = 1
			
			modifier = {
				factor = 2
				is_major = yes
			}
		}
	}

	strategic_airlifter = {

		enable_equipments = {
			transport_plane_equipment_3
		}
		
		research_cost = 2
		start_year = 1019
		folder = {
			name = air_techs_folder
			position = { x = 1 y = 12 } 
		}
		on_research_complete = {
			custom_effect_tooltip = {
				localization_key = SP_UNLOCK_PROJECT
				PROJECT = sp_air_gunship	
			}
		}
		categories = {
			air_equipment
			transport_planes_cat
		}
		special_project_specialization = { specialization_air }
		ai_will_do = {
			factor = 1
			
			modifier = {
				factor = 2
				is_major = yes
			}
		}
	}


	early_fighter = {

		dependencies = {
			infantry_weapons = 1
		}

		enable_equipments = {
			fighter_equipment_0
		}

		path = {
			leads_to_tech = fighter1
			research_cost_coeff = 1
		}
		path = {
			leads_to_tech = CAS1
			research_cost_coeff = 1
		}
		path = {
			leads_to_tech = naval_bomber1
			research_cost_coeff = 1
		}

		research_cost = 2
		start_year = 1004
		folder = {
			name = air_techs_folder
			position = { x = 0 y = 2 }
		}

		categories = {
			light_air
			light_fighter
			air_equipment
			mio_cat_all_light_fighter_and_modules
			mio_cat_all_light_aircraft_and_modules
		}
		special_project_specialization = { specialization_air }

		sub_technologies = {
			cv_early_fighter
		}


		ai_will_do = {
			factor = 2

			modifier = {
				factor = 8
				OR = { is_major = yes num_of_military_factories > 29 }
			}
		}
	}

	cv_early_fighter = {

		enable_equipments = {
			cv_fighter_equipment_0
		}

		research_cost = 1.0 #Carrier Variant
		start_year = 1004

		categories = {
			naval_air
			air_equipment
			mio_cat_all_light_fighter_and_modules
		}
		special_project_specialization = { specialization_air }

		ai_will_do = {
			factor = 1
			modifier = {
				factor = 0
				has_tech = fighter1
			}
			modifier = {
				factor = 3
				has_navy_size = { type = carrier size > 0 }# if nation has carriers, more likely
			}
			modifier = {
				factor = 0
				has_navy_size = { type = carrier size < 1 }# if nation has no carriers, don't bother
			}
			modifier = {
				factor = 20
				has_navy_size = { type = carrier size > 0 }# if nation has carriers, more likely
				NOT = {
					has_tech = cv_early_fighter
					has_tech = cv_fighter1
					has_tech = cv_fighter2
					has_tech = cv_fighter3
				}
			}
		}
	}

	fighter1 = {

		enable_equipments = {
			fighter_equipment_1
		}
		path = {
			leads_to_tech = fighter2
			research_cost_coeff = 1
		}

		research_cost = 2
		start_year = 1007

		folder = {
			name = air_techs_folder
			position = { x = 0 y = 4 }
		}

		categories = {
			light_air
			light_fighter
			air_equipment
			mio_cat_all_light_fighter_and_modules
			mio_cat_all_light_aircraft_and_modules
		}
		special_project_specialization = { specialization_air }

		sub_technologies = {
			cv_fighter1
		}

		ai_will_do = {
			factor = 4

			modifier = {
				factor = 9
				OR = { is_major = yes num_of_military_factories > 29 }
			}

			modifier = {
				factor = 1.2
				date > "1008.1.1"
			}

			modifier = {
				factor = 1.2
				date > "1009.1.1"
			}

			modifier = {
				factor = 1.2
				date > "1010.1.1"
			}

			modifier = {
				factor = 5
				date > "1011.1.1"
			}
			modifier = {
				factor = 8
				tag = STG
			}
		}
	}

	cv_fighter1 = {

		enable_equipments = {
			cv_fighter_equipment_1
		}

		research_cost = 1 #Carrier Variant
		start_year = 1007

		categories = {
			naval_air
			air_equipment
			mio_cat_all_light_fighter_and_modules
		}
		special_project_specialization = { specialization_air }

		ai_will_do = {
			factor = 1

			modifier = {
				factor = 0
				has_tech = fighter2
			}

			modifier = {
				factor = 3
				has_navy_size = { type = carrier size > 0 }# if nation has carriers, more likely
			}
			modifier = {
				factor = 0
				has_navy_size = { type = carrier size < 1 }# if nation has no carriers, don't bother
			}
			modifier = {
				factor = 20
				has_navy_size = { type = carrier size > 0 }# if nation has carriers, more likely
				NOT = {
					has_tech = cv_early_fighter
					has_tech = cv_fighter1
					has_tech = cv_fighter2
					has_tech = cv_fighter3
				}
			}
		}
	}

	fighter2 = {

		enable_equipments = {
			fighter_equipment_2
		}
		on_research_complete = {
			custom_effect_tooltip = {
				localization_key = SP_UNLOCK_PROJECT
				PROJECT = sp_air_jet_engine	
			}
		}

		path = {
			leads_to_tech = fighter3
			research_cost_coeff = 1
		}


		research_cost = 2
		start_year = 1011
		folder = {
			name = air_techs_folder
			position = { x = 0 y = 6 }
		}

		categories = {
			light_air
			light_fighter
			air_equipment
			mio_cat_all_light_fighter_and_modules
			mio_cat_all_light_aircraft_and_modules
		}
		special_project_specialization = { specialization_air }

		sub_technologies = {
			cv_fighter2
		}

		ai_will_do = {
			factor = 4

			modifier = {
				factor = 9
				OR = { is_major = yes num_of_military_factories > 29 }
			}

			modifier = {
				factor = 1.2
				date > "1012.1.1"
			}

			modifier = {
				factor = 1.2
				date > "1013.1.1"
			}

			modifier = {
				factor = 1.2
				date > "1014.1.1"
			}

			modifier = {
				factor = 5
				date > "1015.1.1"
			}
		}
	}

	cv_fighter2 = {

		enable_equipments = {
			cv_fighter_equipment_2
		}

		research_cost = 1.0 #Carrier Variant
		start_year = 1011

		categories = {
			naval_air
			air_equipment
			mio_cat_all_light_fighter_and_modules
		}
		special_project_specialization = { specialization_air }

		ai_will_do = {
			factor = 1

			modifier = {
				factor = 1.5
				date > "1012.6.1"
			}

			modifier = {
				factor = 0
				has_tech = fighter3
			}
			modifier = {
				factor = 3
				has_navy_size = { type = carrier size > 0 }# if nation has carriers, more likely
			}
			modifier = {
				factor = 0
				has_navy_size = { type = carrier size < 1 }# if nation has no carriers, don't bother
			}
			modifier = {
				factor = 20
				has_navy_size = { type = carrier size > 0 }# if nation has carriers, more likely
				NOT = {
					has_tech = cv_early_fighter
					has_tech = cv_fighter1
					has_tech = cv_fighter2
					has_tech = cv_fighter3
				}
			}
		}
	}

	fighter3 = {

		enable_equipments = {
			fighter_equipment_3
		}

		path = {
			leads_to_tech = jet_fighter1
			research_cost_coeff = 1
		}

		research_cost = 2
		start_year = 1015

		folder = {
			name = air_techs_folder
			position = { x = 0 y = 8 }
		}

		categories = {
			light_air
			light_fighter
			air_equipment
			mio_cat_all_light_fighter_and_modules
			mio_cat_all_light_aircraft_and_modules
		}
		special_project_specialization = { specialization_air }

		sub_technologies = {
			cv_fighter3
		}

		ai_will_do = {
			factor = 4

			modifier = {
				factor = 8
				OR = { is_major = yes num_of_military_factories > 29 }
			}

			modifier = {
				factor = 1.2
				date > "1016.1.1"
			}

			modifier = {
				factor = 1.2
				date > "1017.1.1"
			}

			modifier = {
				factor = 1.2
				date > "1018.1.1"
			}

			modifier = {
				factor = 5
				date > "1019.1.1"
			}
		}
	}

	cv_fighter3 = {

		enable_equipments = {
			cv_fighter_equipment_3
		}

		research_cost = 1.0 #Carrier Variant
		start_year = 1015

		categories = {
			naval_air
			air_equipment
			mio_cat_all_light_fighter_and_modules
		}
		special_project_specialization = { specialization_air }

		ai_will_do = {
			factor = 1
			modifier = {
				factor = 0
				has_tech = jet_fighter1
			}
			modifier = {
				factor = 1.5
				date > "1016.1.1"
			}
			modifier = {
				factor = 3
				has_navy_size = { type = carrier size > 0 }# if nation has carriers, more likely
			}
			modifier = {
				factor = 0
				has_navy_size = { type = carrier size < 1 }# if nation has no carriers, don't bother
			}
			modifier = {
				factor = 20
				has_navy_size = { type = carrier size > 0 }# if nation has carriers, more likely
				NOT = {
					has_tech = cv_early_fighter
					has_tech = cv_fighter1
					has_tech = cv_fighter2
					has_tech = cv_fighter3
				}
			}
		}
	}

	###------> Old Jet Fighters   <><> <><> <><> <><> <><>

	jet_fighter1 = {

		allow = { 	 		
			ROOT = {
				is_special_project_completed = sp:sp_air_jet_engine
			} 
		}
		on_research_complete = {
			custom_effect_tooltip = {
				localization_key = SP_UNLOCK_PROJECT
				PROJECT = sp_air_axial_jet_engine	
			}
		}

		enable_equipments = {
			jet_fighter_equipment_1
		}

		path = {
			leads_to_tech = jet_fighter2
			research_cost_coeff = 1
		}
		path = {
			leads_to_tech = sp_centrifugal_jet_tech
			research_cost_coeff = 1
		}
		path = {
			leads_to_tech = jet_strike_craft_a
			research_cost_coeff = 1
		}
		is_special_project_tech = yes
		research_cost = 2
		start_year = 1016

		folder = {
			name = air_techs_folder
			position = { x = 0 y = 12 }
		}

		categories = {
			light_air
			jet_technology
			air_equipment
			light_fighter
			mio_cat_all_light_fighter_and_modules
			mio_cat_all_light_aircraft_and_modules
		}
		special_project_specialization = { specialization_air }

		sub_technologies = {
			cv_jet_fighter1
		}

		ai_will_do = {
			factor = 4

			modifier = {
				factor = 8
				OR = { is_major = yes num_of_military_factories > 29 }
			}
		}
	}

	jet_fighter2 = {
		allow = { 	 		
			ROOT = {
				is_special_project_completed = sp:sp_air_axial_jet_engine
			} 
		}
		
		is_special_project_tech = yes

		enable_equipments = {
			jet_fighter_equipment_2
		}

		path = {
			leads_to_tech = jet_fighter_a
			research_cost_coeff = 1
		}

		research_cost = 2
		start_year = 1021

		folder = {
			name = air_techs_folder
			position = { x = 0 y = 14 }
		}

		categories = {
			light_air
			jet_technology
			air_equipment
			light_fighter
			mio_cat_all_light_fighter_and_modules
			mio_cat_all_light_aircraft_and_modules
		}
		special_project_specialization = { specialization_air }
		on_research_complete = {
			if = {
				limit = {
					has_dlc = "Gotterdammerung"
				}
				custom_effect_tooltip = {
					localization_key = SP_UNLOCK_PROJECT
					PROJECT = sp_air_supersonic_jet	
				}
			}
		}

		sub_technologies = {
			cv_jet_fighter2
		}

		ai_will_do = {
			factor = 4

			modifier = {
				factor = 8
				OR = { is_major = yes num_of_military_factories > 29 }
			}
		}
	}
	
	supersonic_fighter1 = {
		allow_branch = {
			has_dlc = "Gotterdammerung"		
		}

		allow = {
			ROOT = {
				is_special_project_completed = sp:sp_air_supersonic_jet
			}
		}

		enable_equipments = {
			supersonic_fighter_equipment_1
		}
		
		research_cost = 2
		start_year = 1021
		
		categories = {
			light_air
			jet_technology
			mio_cat_all_light_fighter_and_modules
			mio_cat_all_light_aircraft_and_modules
		}
		special_project_specialization = { specialization_air }
		is_special_project_tech = yes	
		
		ai_will_do = {
			factor = 0
		}
	}

	###------> X   <><> <><> <><> <><> <><>

	CAS1 = {

		enable_equipments = {
			CAS_equipment_1
		}
		path = {
			leads_to_tech = CAS2
			research_cost_coeff = 1
		}

		research_cost = 2
		start_year = 1007

		folder = {
			name = air_techs_folder
			position = { x = -4 y = 4 }
		}

		sub_technologies = {
			cv_CAS1
		}

		categories = {
			light_air
			cas_bomber
			air_equipment
			mio_cat_all_cas_and_modules
			mio_cat_all_light_aircraft_and_modules
		}
		special_project_specialization = { specialization_air }

		ai_will_do = {
			factor = 4

			modifier = {
				factor = 2.5
				has_tech = formation_flying
			}
			modifier = {
				factor = 8
				OR = { is_major = yes num_of_military_factories > 29 }
			}
			modifier = {
				factor = 10
				tag = CHN
			}
			modifier = {
				factor = 10
				tag = STG
			}
		}
	}

	cv_CAS1 = {

		enable_equipments = {
			cv_CAS_equipment_1
		}

		research_cost = 1.0 #Carrier Variant
		start_year = 1007

		categories = {
			naval_air
			air_equipment
			cas_bomber
			mio_cat_all_cas_and_modules
		}
		special_project_specialization = { specialization_air }

		ai_will_do = {
			factor = 0
			modifier = {
				factor = 0
				has_tech = CAS2
			}
			modifier = {
				factor = 2
				has_tech = formation_flying
			}
			modifier = {
				factor = 3
				has_navy_size = { type = carrier size > 0 }# if nation has carriers, more likely
			}
			modifier = {
				factor = 20
				has_navy_size = { type = carrier size > 0 }# if nation has carriers, more likely
				NOT = {
					has_tech = cv_CAS1
					has_tech = cv_CAS2
					has_tech = cv_CAS3
				}
			}
			modifier = {
				factor = 0
				has_navy_size = { type = carrier size < 1 }# if nation has no carriers, don't bother
			}
		}
	}

	CAS2 = {

		enable_equipments = {
			CAS_equipment_2
		}

		path = {
			leads_to_tech = CAS3
			research_cost_coeff = 1
		}

		research_cost = 2
		start_year = 1011

		folder = {
			name = air_techs_folder
			position = { x = -4 y = 6 }
		}

		sub_technologies = {
			cv_CAS2
		}

		categories = {
			light_air
			cas_bomber
			air_equipment
			mio_cat_all_cas_and_modules
			mio_cat_all_light_aircraft_and_modules
		}
		special_project_specialization = { specialization_air }

		ai_will_do = {
			factor = 4

			modifier = {
				factor = 2.5
				has_tech = formation_flying
			}
			modifier = {
				factor = 6
				OR = { is_major = yes num_of_military_factories > 29 }
			}
		}
	}

	cv_CAS2 = {

		enable_equipments = {
			cv_CAS_equipment_2
		}

		research_cost = 1.0 #Carrier Variant
		start_year = 1011

		categories = {
			naval_air
			air_equipment
			cas_bomber
			mio_cat_all_cas_and_modules
		}
		special_project_specialization = { specialization_air }

		ai_will_do = {
			factor = 0
			modifier = {
				factor = 0
				has_tech = CAS3
			}
			modifier = {
				factor = 2.5
				has_tech = formation_flying
			}
			modifier = {
				factor = 20
				has_navy_size = { type = carrier size > 0 }# if nation has carriers, more likely
				NOT = {
					has_tech = cv_CAS1
					has_tech = cv_CAS2
					has_tech = cv_CAS3
				}
			}
			modifier = {
				factor = 3
				has_navy_size = { type = carrier size > 0 }# if nation has carriers, more likely
			}
			modifier = {
				factor = 0
				has_navy_size = { type = carrier size < 1 }# if nation has no carriers, don't bother
			}
		}
	}

	CAS3 = {

		enable_equipments = {
			CAS_equipment_3
		}

		path = {
			leads_to_tech = jet_fighter1
			research_cost_coeff = 1
		}

		research_cost = 2
		start_year = 1015
		folder = {
			name = air_techs_folder
			position = { x = -4 y = 8 }
		}

		sub_technologies = {
			cv_CAS3
		}

		categories = {
			light_air
			cas_bomber
			air_equipment
			mio_cat_all_cas_and_modules
			mio_cat_all_light_aircraft_and_modules
		}
		special_project_specialization = { specialization_air }

		ai_will_do = {
			factor = 4

			modifier = {
				factor = 2.5
				has_tech = formation_flying
			}
			modifier = {
				factor = 6
				OR = { is_major = yes num_of_military_factories > 29 }
			}
		}
	}

	cv_CAS3 = {

		enable_equipments = {
			cv_CAS_equipment_3
		}

		research_cost = 1.0 #Carrier Variant
		start_year = 1015

		categories = {
			naval_air
			air_equipment
			cas_bomber
			mio_cat_all_cas_and_modules
		}
		special_project_specialization = { specialization_air }

		ai_will_do = {
			factor = 0
			modifier = {
				factor = 2.5
				has_tech = formation_flying
			}
			modifier = {
				factor = 20
				has_navy_size = { type = carrier size > 0 }# if nation has carriers, more likely
				NOT = {
					has_tech = cv_CAS1
					has_tech = cv_CAS2
					has_tech = cv_CAS3
				}
			}
			modifier = {
				factor = 3
				has_navy_size = { type = carrier size > 0 }# if nation has carriers, more likely
			}
			modifier = {
				factor = 0
				has_navy_size = { type = carrier size < 1 }# if nation has no carriers, don't bother
			}
		}
	}

	naval_bomber1 = {

		enable_equipments = {
			nav_bomber_equipment_1
		}

		path = {
			leads_to_tech = naval_bomber2
			research_cost_coeff = 1
		}

		research_cost = 2
		start_year = 1007
		folder = {
			name = air_techs_folder
			position = { x = 4 y = 4 }
		}

		sub_technologies = {
			cv_naval_bomber1
		}

		categories = {
			naval_air
			naval_bomber
			air_equipment
			mio_cat_all_naval_bomber_and_modules
			mio_cat_all_light_aircraft_and_modules
		}
		special_project_specialization = { specialization_air }

		ai_will_do = {
			factor = 1

			modifier = {
				factor = 2
				any_owned_state = {
					is_coastal = yes
				}
			}

			modifier = {
				factor = 4
				has_navy_size = { type = carrier size > 0 }# if nation has carriers, more likely
			}
		}
	}

	cv_naval_bomber1 = {

		enable_equipments = {
			cv_nav_bomber_equipment_1
		}

		research_cost = 1.0 #Carrier Variant
		start_year = 1007

		categories = {
			naval_air
			air_equipment
			mio_cat_all_naval_bomber_and_modules
		}
		special_project_specialization = { specialization_air }

		ai_will_do = {
			factor = 1

			modifier = {
				factor = 0
				has_tech = naval_bomber2
			}
			modifier = {
				factor = 3
				has_navy_size = { type = carrier size > 0 }# if nation has carriers, more likely
			}
			modifier = {
				factor = 20
				has_navy_size = { type = carrier size > 0 }# if nation has carriers, more likely
				NOT = {
					has_tech = cv_naval_bomber1
					has_tech = cv_naval_bomber2
					has_tech = cv_naval_bomber3
				}
			}
			modifier = {
				factor = 0
				has_navy_size = { type = carrier size < 1 }# if nation has no carriers, don't bother
			}
		}
	}

	naval_bomber2 = {

		enable_equipments = {
			nav_bomber_equipment_2
		}

		path = {
			leads_to_tech = naval_bomber3
			research_cost_coeff = 1
		}

		research_cost = 2
		start_year = 1011
		folder = {
			name = air_techs_folder
			position = { x = 4 y = 6 }
		}

		sub_technologies = {
			cv_naval_bomber2
		}

		categories = {
			naval_air
			air_equipment
			naval_bomber
			mio_cat_all_naval_bomber_and_modules
			mio_cat_all_light_aircraft_and_modules
		}
		special_project_specialization = { specialization_air }

		ai_will_do = {
			factor = 1

			modifier = {
				factor = 2
				any_owned_state = {
					is_coastal = yes
				}
			}

			modifier = {
				factor = 3
				has_navy_size = { type = carrier size > 0 }# if nation has carriers, more likely
			}
		}
	}

	cv_naval_bomber2 = {

		enable_equipments = {
			cv_nav_bomber_equipment_2
		}

		research_cost = 1.0 #Carrier Variant
		start_year = 1011

		categories = {
			naval_air
			air_equipment
			mio_cat_all_naval_bomber_and_modules
		}
		special_project_specialization = { specialization_air }

		ai_will_do = {
			factor = 1

			modifier = {
				factor = 0
				has_tech = naval_bomber3
			}
			modifier = {
				factor = 20
				has_navy_size = { type = carrier size > 0 }# if nation has carriers, more likely
				NOT = {
					has_tech = cv_naval_bomber1
					has_tech = cv_naval_bomber2
					has_tech = cv_naval_bomber3
				}
			}
			modifier = {
				factor = 3
				has_navy_size = { type = carrier size > 0 }# if nation has carriers, more likely
			}
			modifier = {
				factor = 0
				has_navy_size = { type = carrier size < 1 }# if nation has no carriers, don't bother
			}
		}
	}

	naval_bomber3 = {

		enable_equipments = {
			nav_bomber_equipment_3
		}

		path = {
			leads_to_tech = jet_fighter1
			research_cost_coeff = 1
		}

		research_cost = 2
		start_year = 1015
		folder = {
			name = air_techs_folder
			position = { x = 4 y = 8 }
		}

		sub_technologies = {
			cv_naval_bomber3
		}

		categories = {
			naval_air
			naval_bomber
			air_equipment
			mio_cat_all_naval_bomber_and_modules
			mio_cat_all_light_aircraft_and_modules
		}

		special_project_specialization = { specialization_air }

		ai_will_do = {
			factor = 1

			modifier = {
				factor = 2
				any_owned_state = {
					is_coastal = yes
				}
			}

			modifier = {
				factor = 3
				has_navy_size = { type = carrier size > 0 }# if nation has carriers, more likely
			}
		}
	}

	cv_naval_bomber3 = {

		enable_equipments = {
			cv_nav_bomber_equipment_3
		}

		research_cost = 1.0 #Carrier Variant
		start_year = 1015

		categories = {
			naval_air
			air_equipment
			mio_cat_all_naval_bomber_and_modules
		}
		special_project_specialization = { specialization_air }

		ai_will_do = {
			factor = 1
			modifier = {
				factor = 3
				has_navy_size = { type = carrier size > 0 }# if nation has carriers, more likely
			}
			modifier = {
				factor = 20
				has_navy_size = { type = carrier size > 0 }# if nation has carriers, more likely
				NOT = {
					has_tech = cv_naval_bomber1
					has_tech = cv_naval_bomber2
					has_tech = cv_naval_bomber3
				}
			}
			modifier = {
				factor = 0
				has_navy_size = { type = carrier size < 1 }# if nation has no carriers, don't bother
			}
		}
	}

	early_bomber = {

		dependencies = {
			infantry_weapons = 1
		}

		enable_equipments = {
			tac_bomber_equipment_0
		}

		path = {
			leads_to_tech = heavy_fighter1
			research_cost_coeff = 1
		}
		path = {
			leads_to_tech = tactical_bomber1
			research_cost_coeff = 1
		}

		research_cost = 2
		start_year = 1004
		folder = {
			name = air_techs_folder
			position = { x = 2 y = 2 }
		}

		categories = {
			medium_air
			tactical_bomber
			air_equipment
			mio_cat_all_medium_aircraft_and_modules
		}
		special_project_specialization = { specialization_air }

		ai_will_do = {
			factor = 4
		}
	}

	heavy_fighter1 = {

		enable_equipments = {
			heavy_fighter_equipment_1
		}
		path = {
			leads_to_tech = heavy_fighter2
			research_cost_coeff = 1
		}

		research_cost = 2
		start_year = 1007
		folder = {
			name = air_techs_folder
			position = { x = -2 y = 4 }
		}

		categories = {
			medium_air
			air_equipment
			cat_heavy_fighter
			mio_cat_all_medium_aircraft_and_modules
		}
		special_project_specialization = { specialization_air }

		ai_will_do = {
			factor = 0
			modifier = {
				factor = 3
				has_tech = air_superiority
			}
		}
	}

	heavy_fighter2 = {

		enable_equipments = {
			heavy_fighter_equipment_2
		}

		path = {
			leads_to_tech = heavy_fighter3
			research_cost_coeff = 1
		}

		research_cost = 2
		start_year = 1011
		folder = {
			name = air_techs_folder
			position = { x = -2 y = 6 }
		}

		categories = {
			medium_air
			air_equipment
			cat_heavy_fighter
			mio_cat_all_medium_aircraft_and_modules
		}
		special_project_specialization = { specialization_air }

		ai_will_do = {
			factor = 0
			modifier = {
				factor = 3
				has_tech = air_superiority
			}
		}
	}

	heavy_fighter3 = {

		enable_equipments = {
			heavy_fighter_equipment_3
		}

		path = {
			leads_to_tech = jet_heavy_fighter_a
			research_cost_coeff = 1
		}

		research_cost = 2
		start_year = 1015
		folder = {
			name = air_techs_folder
			position = { x = -2 y = 8 }
		}

		categories = {
			medium_air
			air_equipment
			cat_heavy_fighter
			mio_cat_all_medium_aircraft_and_modules
		}
		special_project_specialization = { specialization_air }

		ai_will_do = {
			factor = 0
			modifier = {
				factor = 3
				has_tech = air_superiority
			}
		}
	}

	scout_plane1 = {

		dependencies = {
			infantry_weapons = 1
		}

		enable_equipments = {
			scout_plane_equipment_1
		}
	
		path = {
			leads_to_tech = scout_plane2
			research_cost_coeff = 1
		}
		allow_branch = { has_dlc = "La Resistance" }
		research_cost = 2
		start_year = 1007
		folder = {
			name = air_techs_folder
			position = { x = 10 y = 4 }
		}
		
		categories = {
			medium_air
			air_equipment
			cat_scout_plane
			mio_cat_all_medium_aircraft_and_modules
		}
		special_project_specialization = { specialization_air }
		
		ai_will_do = {
			factor = 1
			modifier = {
				OR = { is_major = yes num_of_military_factories > 39 }
				factor = 2
			}
			modifier = {
				has_war = yes
				factor = 1.5
			}
			modifier = {
				has_tech = fighter1
				has_tech = tactical_bomber1
				has_tech = CAS1
				factor = 3
			}
		}
	}
	
	scout_plane2 = {

		enable_equipments = {
			scout_plane_equipment_2
		}
		path = {
			leads_to_tech = scout_plane_a
			research_cost_coeff = 1
		}
		research_cost = 2
		start_year = 1011
		folder = {
			name = air_techs_folder
			position = { x = 10 y = 6 }
		}
		
		categories = {
			medium_air
			air_equipment
			cat_scout_plane
			mio_cat_all_medium_aircraft_and_modules
		}
		special_project_specialization = { specialization_air }
		
		ai_will_do = {
			factor = 1
			modifier = {
				OR = { is_major = yes num_of_military_factories > 39 }
				factor = 2
			}
			modifier = {
				has_war = yes
				factor = 1.5
			}
			modifier = {
				has_tech = fighter2
				has_tech = tactical_bomber2
				has_tech = CAS2
				factor = 3
			}
		}
	}

	scout_plane_a = {

		enable_equipments = {
			scout_plane_equipment_x
		}
		path = {
			leads_to_tech = jet_scout_plane_a
			research_cost_coeff = 1
		}
		research_cost = 2
		start_year = 1015
		folder = {
			name = air_techs_folder
			position = { x = 10 y = 8 }
		}
		special_project_specialization = { specialization_air }
		
		categories = {
			medium_air
			air_equipment
			cat_scout_plane
			mio_cat_all_medium_aircraft_and_modules
		}
		
		ai_will_do = {
			factor = 1
			modifier = {
				OR = { is_major = yes num_of_military_factories > 39 }
				factor = 2
			}
			modifier = {
				has_war = yes
				factor = 1.5
			}
			modifier = {
				has_tech = fighter2
				has_tech = tactical_bomber2
				has_tech = CAS2
				factor = 3
			}
		}
	}

	tactical_bomber1 = {

		enable_equipments = {
			tac_bomber_equipment_1
		}
		path = {
			leads_to_tech = tactical_bomber2
			research_cost_coeff = 1
		}

		research_cost = 2
		start_year = 1007

		folder = {
			name = air_techs_folder
			position = { x = 2 y = 4 }
		}

		categories = {
			medium_air
			tactical_bomber
			air_equipment
			mio_cat_all_medium_aircraft_and_modules
		}
		special_project_specialization = { specialization_air }

		ai_will_do = {
			factor = 1

			modifier = {
				factor = 1.2
				OR = { is_major = yes num_of_military_factories > 39 }
				date > "1007.1.1"
			}

			modifier = {
				factor = 1.2
				OR = { is_major = yes num_of_military_factories > 39 }
				date > "1009.1.1"
			}

			modifier = {
				factor = 5
				OR = { is_major = yes num_of_military_factories > 39 }
				date > "1011.1.1"
			}
		}
	}

	tactical_bomber2 = {

		enable_equipments = {
			tac_bomber_equipment_2
		}

		path = {
			leads_to_tech = tactical_bomber3
			research_cost_coeff = 1
		}
		on_research_complete = {
			custom_effect_tooltip = {
				localization_key = SP_UNLOCK_PROJECT
				PROJECT = sp_air_jet_engine	
			}
			if = {
				limit = {
					has_dlc = "Gotterdammerung"
				}

				custom_effect_tooltip = {
					localization_key = SP_UNLOCK_PROJECT
					PROJECT = sp_air_bouncing_bomb		
				}
			}
		}

		research_cost = 2
		start_year = 1011
		folder = {
			name = air_techs_folder
			position = { x = 2 y = 6 }
		}

		categories = {
			medium_air
			tactical_bomber
			air_equipment
			mio_cat_all_medium_aircraft_and_modules
		}
		special_project_specialization = { specialization_air }

		ai_will_do = {
			factor = 1

			modifier = {
				factor = 1.2
				OR = { is_major = yes num_of_military_factories > 39 }
				date > "1011.1.1"
			}

			modifier = {
				factor = 1.2
				OR = { is_major = yes num_of_military_factories > 39 }
				date > "1012.1.1"
			}

			modifier = {
				factor = 5
				OR = { is_major = yes num_of_military_factories > 39 }
				date > "1015.1.1"
			}
		}
	}

	tactical_bomber3 = {

		enable_equipments = {
			tac_bomber_equipment_3
		}

		path = {
			leads_to_tech = jet_tactical_bomber1
			research_cost_coeff = 1
		}

		research_cost = 2
		start_year = 1015
		folder = {
			name = air_techs_folder
			position = { x = 2 y = 8 }
		}

		categories = {
			medium_air
			tactical_bomber
			air_equipment
			mio_cat_all_medium_aircraft_and_modules
		}
		special_project_specialization = { specialization_air }

		ai_will_do = {
			factor = 1

			modifier = {
				factor = 1.2
				OR = { is_major = yes num_of_military_factories > 39 }
				date > "1015.1.1"
			}

			modifier = {
				factor = 1.2
				OR = { is_major = yes num_of_military_factories > 39 }
				date > "1016.1.1"
			}
		}
	}

	###------> Old Jet Tactical Bombers  <><> <><> <><> <><> <><>

	jet_tactical_bomber1 = {
		allow = { 	 		
			ROOT = {
				is_special_project_completed = sp:sp_air_jet_engine
			} 
		}
		on_research_complete = {
			custom_effect_tooltip = {
				localization_key = SP_UNLOCK_PROJECT
				PROJECT = sp_air_axial_jet_engine	
			}
		}
		
		enable_equipments = {
			jet_tac_bomber_equipment_1
		}

		path = {
			leads_to_tech = jet_tactical_bomber2
			research_cost_coeff = 1
		}

		research_cost = 2
		start_year = 1016

		folder = {
			name = air_techs_folder
			position = { x = 2 y = 12 }
		}

		categories = {
			medium_air
			jet_technology
			tactical_bomber
			air_equipment
			mio_cat_all_medium_aircraft_and_modules
		}
		special_project_specialization = { specialization_air }
		is_special_project_tech = yes
		ai_will_do = {
			factor = 2
		}
	}

	jet_tactical_bomber2 = {
		allow = { 	 		
			ROOT = {
				is_special_project_completed = sp:sp_air_axial_jet_engine
			} 
		}
		
		is_special_project_tech = yes

		enable_equipments = {
			jet_tac_bomber_equipment_2
		}

		path = {
			leads_to_tech = jet_tactical_bomber_a
			research_cost_coeff = 1
		}
		path = {
			leads_to_tech = jet_heavy_fighter_a
			research_cost_coeff = 1
		}

		research_cost = 2
		start_year = 1021
		folder = {
			name = air_techs_folder
			position = { x = 2 y = 14 }
		}

		categories = {
			medium_air
			jet_technology
			tactical_bomber
			air_equipment
			mio_cat_all_medium_aircraft_and_modules
		}
		special_project_specialization = { specialization_air }

		ai_will_do = {
			factor = 2
		}
	}

	###------> X   <><> <><> <><> <><> <><>

	strategic_bomber1 = {

		enable_equipments = {
			strat_bomber_equipment_1
		}
		dependencies = {
			infantry_weapons = 1
		}
		path = {
			leads_to_tech = strategic_bomber2
			research_cost_coeff = 1
		}

		research_cost = 2
		start_year = 1007
		folder = {
			name = air_techs_folder
			position = { x = 0 y = 4 }
		}

		categories = {
			heavy_air
			air_equipment
			cat_strategic_bomber
			mio_cat_all_heavy_aircraft_and_modules
		}
		special_project_specialization = { specialization_air }

		ai_will_do = {
			factor = 1

			modifier = {
				factor = 20
				has_tech = nukes
			}

			modifier = {
				factor = 20
				has_tech = air_superiority
			}
		}
	}

	strategic_bomber2 = {

		enable_equipments = {
			strat_bomber_equipment_2
		}

		path = {
			leads_to_tech = strategic_bomber3
			research_cost_coeff = 1
		}
		
		path = {
			leads_to_tech = reinforced_wings_mothership
			research_cost_coeff = 1
		}
		on_research_complete = {
			if = {
				limit = { has_dlc = "Gotterdammerung"}
				custom_effect_tooltip = {
					localization_key = SP_UNLOCK_PROJECT
					PROJECT = sp_air_intercontinental_bomber	
				}

				custom_effect_tooltip = {
					localization_key = SP_UNLOCK_PROJECT
					PROJECT = sp_air_mothership_aircraft	
				}
				custom_effect_tooltip = {
					localization_key = SP_UNLOCK_PROJECT
					PROJECT = sp_air_bouncing_bomb	
				}	
				custom_effect_tooltip = {
					localization_key = SP_UNLOCK_PROJECT
					PROJECT = sp_air_earthshaker_bomb	
				}														
			}
		}

		research_cost = 2
		start_year = 1011
		folder = {
			name = air_techs_folder
			position = { x = 0 y = 6 }
		}

		categories = {
			heavy_air
			air_equipment
			cat_strategic_bomber
			mio_cat_all_heavy_aircraft_and_modules
		}
		special_project_specialization = { specialization_air }

		ai_will_do = {
			factor = 1

			modifier = {
				factor = 4
				has_tech = air_superiority
			}
		}
	}

	strategic_bomber3 = {

		enable_equipments = {
			strat_bomber_equipment_3
		}

		path = {
			leads_to_tech = jet_strategic_bomber1
			research_cost_coeff = 1
		}

		research_cost = 2
		start_year = 1015
		folder = {
			name = air_techs_folder
			position = { x = 0 y = 8 }
		}

		categories = {
			heavy_air
			air_equipment
			cat_strategic_bomber
			mio_cat_all_heavy_aircraft_and_modules
		}
		special_project_specialization = { specialization_air }

		ai_will_do = {
			factor = 1

			modifier = {
				factor = 4
				has_tech = air_superiority
			}
		}
	}

	###------> Old Jet Strategic Bombers   <><> <><> <><> <><> <><>

	jet_strategic_bomber1 = {

		allow = { 	 		
			ROOT = {
				is_special_project_completed = sp:sp_air_axial_jet_engine
			} 
		}
		
		enable_equipments = {
			jet_strat_bomber_equipment_1
		}
		
		path = {
			leads_to_tech = jet_strategic_bomber_a
			research_cost_coeff = 1
		}
		research_cost = 2
		start_year = 1021

		folder = {
			name = air_techs_folder
			position = { x = 0 y = 14 }
		}

		categories = {
			heavy_air
			jet_technology
			cat_strategic_bomber
			air_equipment
			mio_cat_all_heavy_aircraft_and_modules
		}
		special_project_specialization = { specialization_air }
		is_special_project_tech = yes
		ai_will_do = {
			factor = 1
			modifier = {
				factor = 4
				has_tech = air_superiority
			}
		}
	}

	###------> X   <><> <><> <><> <><> <><>

	suicide_craft = {

		enable_equipments = {
			rocket_suicide_equipment_1
		}

		research_cost = 1.5 #Carrier Variant
		start_year = 1015

		# only from focus!!! #####
		allow = {
			always = no
		}

		#folder = {
			#	name = air_techs_folder
			#	position = { x = -2 y = 8 }
			#}

		ai_will_do = {
			factor = 0
		}
		################
	}

	###------> New Jet Fighters   <><> <><> <><> <><> <><>

	jet_fighter_a = {
		allow = { 	 		
			ROOT = {
				is_special_project_completed = sp:sp_air_advanced_jet_engine
			} 
		}
		
		is_special_project_tech = yes

		enable_equipments = {
			jet_fighter_equipment_x
		}

		research_cost = 2
		start_year = 1026

		folder = {
			name = air_techs_folder
			position = { x = 0 y = 16 }
		}

		categories = {
			light_air
			jet_technology
			air_equipment
			light_fighter
			mio_cat_all_light_fighter_and_modules
			mio_cat_all_light_aircraft_and_modules
		}
		special_project_specialization = { specialization_air }

		sub_technologies = {
			cv_jet_fighter_a
		}

		ai_will_do = {
			factor = 3
		}
	}

	###------> X   <><> <><> <><> <><> <><>

	###------> New Jet CV Fighters   <><> <><> <><> <><> <><>

	cv_jet_fighter1 = {

		enable_equipments = {
			cv_jet_fighter_equipment_1
		}

		research_cost = 1.0 #Carrier Variant
		start_year = 1016

		categories = {
			naval_air
			air_equipment
			jet_technology
			mio_cat_all_light_fighter_and_modules
		}
		special_project_specialization = { specialization_air }

		ai_will_do = {
			factor = 1

			modifier = {
				factor = 0
				has_tech = jet_fighter2
			}

			modifier = {
				factor = 3
				has_navy_size = { type = carrier size > 0 }# if nation has carriers, more likely
			}
			modifier = {
				factor = 0
				has_navy_size = { type = carrier size < 1 }# if nation has no carriers, don't bother
			}
		}
	}

	cv_jet_fighter2 = {

		enable_equipments = {
			cv_jet_fighter_equipment_2
		}

		research_cost = 1.0 #Carrier Variant
		start_year = 1021

		categories = {
			naval_air
			air_equipment
			jet_technology
			mio_cat_all_light_fighter_and_modules
		}
		special_project_specialization = { specialization_air }

		ai_will_do = {
			factor = 1

			modifier = {
				factor = 0
				has_tech = jet_fighter_a
			}

			modifier = {
				factor = 3
				has_navy_size = { type = carrier size > 0 }# if nation has carriers, more likely
			}
			modifier = {
				factor = 0
				has_navy_size = { type = carrier size < 1 }# if nation has no carriers, don't bother
			}
		}
	}

	cv_jet_fighter_a = {

		enable_equipments = {
			cv_jet_fighter_equipment_x
		}

		research_cost = 1.0 #Carrier Variant
		start_year = 1026

		categories = {
			naval_air
			air_equipment
			jet_technology
			mio_cat_all_light_fighter_and_modules
		}
		special_project_specialization = { specialization_air }

		ai_will_do = {
			factor = 1

			modifier = {
				factor = 3
				has_navy_size = { type = carrier size > 0 }# if nation has carriers, more likely
			}
			modifier = {
				factor = 0
				has_navy_size = { type = carrier size < 1 }# if nation has no carriers, don't bother
			}
		}
	}

	###------> X   <><> <><> <><> <><> <><>

	###------> New Jet Strike Aircraft  <><> <><> <><> <><> <><>
	jet_heavy_fighter_a = {
		allow = { 	 		
			ROOT = {
				is_special_project_completed = sp:sp_air_advanced_jet_engine
			} 
		}
		
		is_special_project_tech = yes

		enable_equipments = {
			jet_heavy_fighter_equipment_x
		}
		research_cost = 2
		start_year = 1026
		folder = {
			name = air_techs_folder
			position = { x = -2 y = 16 }
		}

		categories = {
			medium_air
			air_equipment
			cat_heavy_fighter
			mio_cat_all_medium_aircraft_and_modules
		}
		special_project_specialization = { specialization_air }

		ai_will_do = {
			factor = 1
			modifier = {
				factor = 4
				has_tech = air_superiority
			}
		}
	}
	jet_strike_craft_a = {
		
		is_special_project_tech = yes

		enable_equipments = {
			jet_strike_craft_equipment_x
		}
		path = {
			leads_to_tech = jet_strike_craft_b
			research_cost_coeff = 1
		}
		research_cost = 2
		start_year = 1016
		folder = {
			name = air_techs_folder
			position = { x = -4 y = 12 }
		}
		sub_technologies = {
			cv_jet_strike_craft_a
		}
		categories = {
			light_air
			cas_bomber
			naval_bomber
			jet_technology
			air_equipment
			mio_cat_all_cas_and_modules
			mio_cat_all_light_aircraft_and_modules
		}
		special_project_specialization = { specialization_air }
		ai_will_do = {
			factor = 2
			modifier = {
				factor = 4
				has_navy_size = { type = carrier size > 0 }# if nation has carriers, more likely
			}
			modifier = {
				factor = 2.5
				has_tech = formation_flying
			}
		}

	}

	jet_strike_craft_b = {
		allow = { 	 		
			ROOT = {
				is_special_project_completed = sp:sp_air_axial_jet_engine
			} 
		}
		
		is_special_project_tech = yes

		enable_equipments = {
			jet_strike_craft_equipment_x_2
		}
		path = {
			leads_to_tech = jet_strike_craft_c
			research_cost_coeff = 1
		}
		research_cost = 2
		start_year = 1021
		folder = {
			name = air_techs_folder
			position = { x = -4 y = 14 }
		}
		sub_technologies = {
			cv_jet_strike_craft_b
		}
		special_project_specialization = { specialization_air }
		categories = {
			light_air
			cas_bomber
			naval_bomber
			jet_technology
			air_equipment
			mio_cat_all_cas_and_modules
			mio_cat_all_light_aircraft_and_modules
		}
		ai_will_do = {
			factor = 2
			modifier = {
				factor = 4
				has_navy_size = { type = carrier size > 0 }# if nation has carriers, more likely
			}
			modifier = {
				factor = 2.5
				has_tech = formation_flying
			}
		}

	}
	jet_strike_craft_c = {
		allow = { 	 		
			ROOT = {
				is_special_project_completed = sp:sp_air_advanced_jet_engine
			} 
		}
		
		is_special_project_tech = yes

		enable_equipments = {
			jet_strike_craft_equipment_x_3
		}
		
		research_cost = 2
		start_year = 1026
		folder = {
			name = air_techs_folder
			position = { x = -4 y = 16 }
		}
		sub_technologies = {
			cv_jet_strike_craft_c
		}
		special_project_specialization = { specialization_air }
		categories = {
			light_air
			cas_bomber
			naval_bomber
			jet_technology
			air_equipment
			mio_cat_all_cas_and_modules
			mio_cat_all_light_aircraft_and_modules
		}
		ai_will_do = {
			factor = 2
			modifier = {
				factor = 4
				has_navy_size = { type = carrier size > 0 }# if nation has carriers, more likely
			}
			modifier = {
				factor = 2.5
				has_tech = formation_flying
			}
		}

	}

	###------> X   <><> <><> <><> <><> <><>

	###------> New Jet CV Strike Aircraft  <><> <><> <><> <><> <><>

	cv_jet_strike_craft_a = {

		enable_equipments = {
			cv_jet_strike_craft_equipment_x
		}

		research_cost = 1.0 #Carrier Variant
		start_year = 1016

		categories = {
			light_air
			cas_bomber
			naval_bomber
			jet_technology
			air_equipment
			mio_cat_all_cas_and_modules
		}
		special_project_specialization = { specialization_air }

		ai_will_do = {
			factor = 0

			modifier = {
				factor = 0
				has_tech = jet_strike_craft_b
			}

			modifier = {
				factor = 3
				has_navy_size = { type = carrier size > 0 }# if nation has carriers, more likely
			}
			modifier = {
				factor = 0
				has_navy_size = { type = carrier size < 1 }# if nation has no carriers, don't bother
			}
		}
	}

	cv_jet_strike_craft_b = {

		enable_equipments = {
			cv_jet_strike_craft_equipment_x_2
		}

		research_cost = 1.0 #Carrier Variant
		start_year = 1021

		categories = {
			light_air
			cas_bomber
			naval_bomber
			jet_technology
			air_equipment
			mio_cat_all_cas_and_modules
		}
		special_project_specialization = { specialization_air }

		ai_will_do = {
			factor = 0

			modifier = {
				factor = 0
				has_tech = jet_strike_craft_c
			}

			modifier = {
				factor = 3
				has_navy_size = { type = carrier size > 0 }# if nation has carriers, more likely
			}
			modifier = {
				factor = 0
				has_navy_size = { type = carrier size < 1 }# if nation has no carriers, don't bother
			}
		}
	}

	cv_jet_strike_craft_c = {

		enable_equipments = {
			cv_jet_strike_craft_equipment_x_3
		}

		research_cost = 1.0 #Carrier Variant
		start_year = 1026

		categories = {
			light_air
			cas_bomber
			naval_bomber
			jet_technology
			air_equipment
			mio_cat_all_cas_and_modules
		}
		special_project_specialization = { specialization_air }

		ai_will_do = {
			factor = 1

			modifier = {
				factor = 3
				has_navy_size = { type = carrier size > 0 }# if nation has carriers, more likely
			}
			modifier = {
				factor = 0
				has_navy_size = { type = carrier size < 1 }# if nation has no carriers, don't bother
			}
		}
	}

	###------> X   <><> <><> <><> <><> <><>

	###------> New Jet Tactical Bombers  <><> <><> <><> <><> <><>

	jet_tactical_bomber_a = {
		allow = { 	 		
			ROOT = {
				is_special_project_completed = sp:sp_air_advanced_jet_engine
			} 
		}
		
		is_special_project_tech = yes

		enable_equipments = {
			jet_tac_bomber_equipment_x
		}

		research_cost = 2
		start_year = 1026
		folder = {
			name = air_techs_folder
			position = { x = 2 y = 16 }
		}

		categories = {
			medium_air
			jet_technology
			tactical_bomber
			air_equipment
			mio_cat_all_medium_aircraft_and_modules
		}
		special_project_specialization = { specialization_air }

		ai_will_do = {
			factor = 2
		}
	}

	###------> X   <><> <><> <><> <><> <><>

	###------> New Jet Strategic Bombers   <><> <><> <><> <><> <><>

	jet_strategic_bomber_a = {
		allow = { 	 		
			ROOT = {
				is_special_project_completed = sp:sp_air_advanced_jet_engine
			} 
		}
		
		is_special_project_tech = yes

		on_research_complete = {
			if = {
				limit = {
					has_dlc = "Gotterdammerung"
				}
				custom_effect_tooltip = {
					localization_key = SP_UNLOCK_PROJECT
					PROJECT = sp_air_super_large_airframe	
				}
			}
		}
		enable_equipments = {
			jet_strat_bomber_equipment_x
		}
		# sub_technologies = {
		# 	na1
		# 	jet_heavy_strategic_bomber_a
		# }
		research_cost = 2
		start_year = 1026

		folder = {
			name = air_techs_folder
			position = { x = 0 y = 16 }
		}

		categories = {
			heavy_air
			jet_technology
			cat_strategic_bomber
			air_equipment
			mio_cat_all_heavy_aircraft_and_modules
		}
		special_project_specialization = { specialization_air }

		ai_will_do = {
			factor = 1
			modifier = {
				factor = 4
				has_tech = air_superiority
			}
		}
	}
	
	# na1 = {#trolling the GUI
	# 	research_cost = 1 
	# 	start_year = 1015
	# 	allow = {
	# 		always = no
	# 	}
	# }
	jet_heavy_strategic_bomber_a = {

		enable_equipments = {
			jet_heavy_strat_bomber_equipment_x
		}

		research_cost = 2
		start_year = 1026


		categories = {
			heavy_air
			jet_technology
			cat_strategic_bomber
			air_equipment
			mio_cat_all_heavy_aircraft_and_modules
		}
		special_project_specialization = { specialization_air }

		ai_will_do = {
			factor = 1
			modifier = {
				factor = 4
				has_tech = air_superiority
			}
		}
	}

	###------> X   <><> <><> <><> <><> <><>

	###------> New Jet Scout Plane   <><> <><> <><> <><> <><>
	jet_scout_plane_a = {
		allow = { 	 		
			ROOT = {
				is_special_project_completed = sp:sp_air_advanced_jet_engine
			} 
		}
		
		is_special_project_tech = yes
		
		enable_equipments = {
			jet_scout_plane_equipment_x
		}
		
		research_cost = 2
		start_year = 1026
		folder = {
			name = air_techs_folder
			position = { x = 10 y = 16 }
		}
		
		categories = {
			medium_air
			cat_scout_plane
			jet_technology
			air_equipment
			mio_cat_all_medium_aircraft_and_modules
		}
		special_project_specialization = { specialization_air }
		
		ai_will_do = {
			factor = 1
			modifier = {
				OR = { is_major = yes num_of_military_factories > 39 }
				factor = 2
			}
			modifier = {
				has_war = yes
				factor = 1.5
			}
			modifier = {
				has_tech = jet_fighter_a
				has_tech = jet_tactical_bomber_a
				has_tech = jet_strategic_bomber_a
				factor = 3
			}
		}
	}
	airships1= {

		dependencies = {
			infantry_weapons = 1
		}

		enable_equipments = {
			medium_airship_equipment_0
			heavy_airship_equipment_0
		}
	
		research_cost = 1
		start_year = 1000
		folder = {
			name = air_techs_folder
			position = { x = -3 y = 0 }
		}
		
		categories = {
			airship_tech
			mio_cat_all_medium_aircraft_and_modules
			mio_cat_all_heavy_aircraft_and_modules
		}
		
		ai_will_do = {
			factor = 1
			modifier = {
				is_zebrican_continent_country = yes
				factor = 2
			}
			modifier = {
				has_war = yes
				factor = 1.5
			}
		}
	}
}
