technologies = {

	mobile_warfare = {
		doctrine_name = "MOBILE_WARFARE_DOCTRINE"
		xp_research_type = army
		xp_unlock_cost = 100
		
		xor = { superior_firepower trench_warfare mass_assault } 

		path = {
			leads_to_tech = delay 
			research_cost_coeff = 1
		}
		dependencies = {
			infantry_weapons = 1
		}
		category_all_armor = {
			breakthrough = 0.20
		}
		
		planning_speed = 0.5
		army_speed_factor = 0.10
		enable_tactic = tactic_unexpected_thrust
		org_loss_when_moving = -0.1

		doctrine = yes	
		research_cost = 2.25

		folder = {
			name = land_doctrine_folder
			position = { x = 0 y = 0 }
		}
		
		categories = {
			land_doctrine
			cat_mobile_warfare
		}
		
		ai_will_do = {
			factor = 20
			modifier = {
				factor = 10
				has_tech_bonus = { category = cat_mobile_warfare }
			}
			modifier = {
				not = {
					has_army_experience > 120
				}
				factor = 0.8
			}
			modifier = {
				factor = 2
				original_tag = STG
			}
		}
		
		ai_research_weights = {
			armor = 4.0
		}
	}
	
	delay = {

		xp_research_type = army
		xp_unlock_cost = 100
		
		category_all_infantry = {
			max_organisation = 15
		}

		
		enable_tactic = tactic_delay
		
		path = {
			leads_to_tech = elastic_defence 
			research_cost_coeff = 1
		}

		
		doctrine = yes	
		research_cost = 4.5

		categories = {
			land_doctrine
			cat_mobile_warfare
		}
		
		folder = {
			name = land_doctrine_folder
			position = { x = 0 y = 2 }
		}
		
		ai_will_do = {
			factor = 20
			modifier = {
				not = {
					has_army_experience > 120
				}
				factor = 0.8
			}
		}
		
		ai_research_weights = {
			armor = 3.0
		}
	}

	
	elastic_defence = {

		land_reinforce_rate = 0.02
		xp_research_type = army
		xp_unlock_cost = 100

		category_tanks = {
			max_organisation = 1
		}
		armored_car = {
			max_organisation = 2
		}
		category_all_armor = {
			maximum_speed = 0.1
		}
		
	
		enable_tactic = tactic_elastic_defense
		
		path = {
			leads_to_tech = mobile_infantry 
			research_cost_coeff = 1
		}
		path = {
			leads_to_tech = armored_spearhead 
			research_cost_coeff = 1
		}

		
		doctrine = yes	
		research_cost = 4.5

		categories = {
			land_doctrine
			cat_mobile_warfare
		}	
		
		folder = {
			name = land_doctrine_folder
			position = { x = 0 y = 4 }
		}
		
		ai_will_do = {
			factor = 20
			modifier = {
				not = {
					has_army_experience > 120
				}
				factor = 0.8
			}
		}
		
		ai_research_weights = {
			armor = 2.0
		}
	}
	
	mobile_infantry = { #Branch focuses on infantry, included Motorised and Mechanised.

		xp_research_type = army
		xp_unlock_cost = 100
	
		xor={
			armored_spearhead
		}
		category_mobile_and_mobile_combat_sup = {
			maximum_speed = 0.1
			default_morale = 0.2
		}
		
		path = {
			leads_to_tech = mass_motorization 
			research_cost_coeff = 1
		}

		
		doctrine = yes	
		research_cost = 4.5

		categories = {
			land_doctrine
			cat_mobile_warfare
		}
		
		folder = {
			name = land_doctrine_folder
			position = { x = -2 y = 6 }
		}
		
		ai_will_do = {
			factor = 20
			modifier = {
				not = {
					has_army_experience > 120
				}
				factor = 0.8
			}
			modifier = {
				not = { ai_air_doctrine_tier_1_trigger = yes }
				factor = 0.5
			}
			modifier = {
				not = { ai_air_doctrine_tier_2_trigger = yes }
				factor = 0.75
			}

			modifier = {
				original_tag = CHN
				factor = 2
			}
		}
		
		ai_research_weights = {
			armor = 1.0
			defensive = -2.0
			motorized_equipment = 3.0
			cat_mechanized_equipment = 5.0
		}
	}
	
	mass_motorization = {
		xp_research_type = army
		xp_unlock_cost = 100
		category_all_infantry = {
			max_organisation = 10
		}	
		
		
		path = {
			leads_to_tech = mechanised_offensive 
			research_cost_coeff = 1
		}

		
		doctrine = yes	
		research_cost = 4.5
		
		categories = {
			land_doctrine
			cat_mobile_warfare
		}
		
		folder = {
			name = land_doctrine_folder
			position = { x = -2 y = 8 }
		}
		
		ai_will_do = {
			factor = 20
			modifier = {
				not = {
					has_army_experience > 120
				}
				factor = 0.8
			}
			modifier = {
				not = { ai_air_doctrine_tier_1_trigger = yes }
				factor = 0.5
			}
			modifier = {
				not = { ai_air_doctrine_tier_2_trigger = yes }
				factor = 0.75
			}
		}
		
		ai_research_weights = {
			armor = 2.0
			defensive = -12.0
		}
	}
	
	mechanised_offensive = {
		xp_research_type = army
		xp_unlock_cost = 100

		category_vehicle_infantry = {
			max_organisation = 15
		}
		armored_car = {
			max_organisation = 6
		}
		category_tanks = {
			max_organisation = 3
		}
		armored_car_recon = {
			battalion_mult = {
				category = category_all_armor
				breakthrough = 0.10
			}
		}
	

		enable_tactic = tactic_blitz
		
		
		path = {
			leads_to_tech = kampfgruppe 
			research_cost_coeff = 1
		}

		
		doctrine = yes	
		research_cost = 4.5
		
		categories = {
			land_doctrine
			cat_mobile_warfare
		}

		
		folder = {
			name = land_doctrine_folder
			position = { x = -2 y = 10 }
		}
		
		ai_will_do = {
			factor = 20
			modifier = {
				not = {
					has_army_experience > 120
				}
				factor = 0.8
			}
			modifier = {
				not = { ai_air_doctrine_tier_1_trigger = yes }
				factor = 0.5
			}
			modifier = {
				not = { ai_air_doctrine_tier_2_trigger = yes }
				factor = 0.75
			}
		}
		
		ai_research_weights = {
			armor = 2.0
			motorized_equipment = 2.0
			cat_mechanized_equipment = 2.0
		}
	}
	
	armored_spearhead = { #Branch focused on Tanks 
		xp_research_type = army
		xp_unlock_cost = 100
		category_tanks = {
			max_organisation = 3
			breakthrough = 0.20
		}
		
		enable_tactic = tactic_blitz
		
	
		xor = {
			mobile_infantry
		}
	
		path = {
			leads_to_tech = schwerpunk 
			research_cost_coeff = 1
		}

		
		doctrine = yes	
		research_cost = 4.5
		
		categories = {
			land_doctrine
			cat_mobile_warfare
		}


		
		folder = {
			name = land_doctrine_folder
			position = { x = 2 y = 6 }
		}
		
		ai_will_do = {
			factor = 20
			modifier = {
				not = {
					has_army_experience > 120
				}
				factor = 0.8
			}
			modifier = {
				factor = 2
				original_tag = STG
			}
			modifier = {
				not = { ai_air_doctrine_tier_1_trigger = yes }
				factor = 0.5
			}
			modifier = {
				not = { ai_air_doctrine_tier_2_trigger = yes }
				factor = 0.75
			}
		}
		
		ai_research_weights = {
			armor = 16.0
			offensive = -1.0
			cat_mechanized_equipment = 2.0
		}
	}
	
	schwerpunk = {
		xp_research_type = army
		xp_unlock_cost = 100
		category_tanks = {
			max_organisation = 2
		}

		category_all_armor = {
			default_morale = 0.1
		}
		
		
		path = {
			leads_to_tech = blitzkrieg 
			research_cost_coeff = 1
		}

		
		doctrine = yes	
		research_cost = 4.5

		categories = {
			land_doctrine
			cat_mobile_warfare
		}
		
		folder = {
			name = land_doctrine_folder
			position = { x = 2 y = 8 }
		}
		
		ai_will_do = {
			factor = 20
			modifier = {
				not = {
					has_army_experience > 120
				}
				factor = 0.8
			}
			modifier = {
				not = { ai_air_doctrine_tier_1_trigger = yes }
				factor = 0.5
			}
			modifier = {
				not = { ai_air_doctrine_tier_2_trigger = yes }
				factor = 0.75
			}
		}
		
		ai_research_weights = {
			armor = 2.5
			offensive = -2.0
			cat_mechanized_equipment = 1.5
		}
	}
	
	blitzkrieg = {
		xp_research_type = army
		xp_unlock_cost = 100
		category_tanks = {
			max_organisation = 1
		}

		category_all_armor = {
			default_morale = 0.1
		}
		armored_car = {
			default_morale = 0.1
			max_organisation = 12
		}

		enable_tactic = tactic_breakthrough
		
		category_vehicle_infantry = {
			max_organisation = 5
		}	

		
		path = {
			leads_to_tech = kampfgruppe 
			research_cost_coeff = 1
		}

		
		doctrine = yes	
		research_cost = 4.5

		categories = {
			land_doctrine
			cat_mobile_warfare
		}

		
		folder = {
			name = land_doctrine_folder
			position = { x = 2 y = 10 }
		}
		
		ai_will_do = {
			factor = 20
			modifier = {
				not = {
					has_army_experience > 120
				}
				factor = 0.8
			}
			modifier = {
				not = { ai_air_doctrine_tier_1_trigger = yes }
				factor = 0.5
			}
			modifier = {
				not = { ai_air_doctrine_tier_2_trigger = yes }
				factor = 0.75
			}
		}
		
		ai_research_weights = {
			armor = 2.5
			cat_mechanized_equipment = 1.5
		}
	}
	
	kampfgruppe = {
		xp_research_type = army
		xp_unlock_cost = 100
		category_all_infantry = {
			default_morale = 0.2
			max_organisation = 10
		}
		# faster planning
		planning_speed = 0.2
		additional_brigade_column_size = 1
		
		enable_tactic = tactic_overwhelming_fire
		
		path = {
			leads_to_tech = firebrigades 
			research_cost_coeff = 1
		}
		path = {
			leads_to_tech = volkssturm 
			research_cost_coeff = 1
		}

		
		doctrine = yes	
		research_cost = 4.5
		
		categories = {
			land_doctrine
			cat_mobile_warfare
		}

		
		folder = {
			name = land_doctrine_folder
			position = { x = 0 y = 12 }
		}
		
		ai_will_do = {
			factor = 20
			modifier = {
				not = {
					has_army_experience > 120
				}
				factor = 0.8
			}
			modifier = {
				not = { ai_air_doctrine_tier_1_trigger = yes }
				factor = 0.15
			}
			modifier = {
				not = { ai_air_doctrine_tier_2_trigger = yes }
				factor = 0.5
			}
		}
		
		ai_research_weights = {
			armor = 3.0
		}
	}
	
	firebrigades = { #Branch focused on mobile warfares
		xp_research_type = army
		xp_unlock_cost = 100
		xor={
			volkssturm
		}
		
		category_all_infantry = {
			max_organisation = 10
		}
		category_tanks = {
			max_organisation = 2
		}
		armored_car = {
			max_organisation = 4
		}
		
		path = {
			leads_to_tech = backhand_blow 
			research_cost_coeff = 1
		}

		
		doctrine = yes	
		research_cost = 4.5
		
		categories = {
			land_doctrine
			cat_mobile_warfare
		}

		
		folder = {
			name = land_doctrine_folder
			position = { x = 2 y = 14 }
		}
		
		ai_will_do = {
			factor = 20
			modifier = {
				not = {
					has_army_experience > 120
				}
				factor = 0.8
			}
			modifier = {
				not = { ai_air_doctrine_tier_1_trigger = yes }
				factor = 0.15
			}
			modifier = {
				not = { ai_air_doctrine_tier_2_trigger = yes }
				factor = 0.5
			}
		}
		
		ai_research_weights = {
			armor = 2.0
		}
	}
	
	backhand_blow = {

		xp_research_type = army
		xp_unlock_cost = 100
		enable_tactic = tactic_backhand_blow
		
		path = {
			leads_to_tech = modern_blitzkrieg 
			research_cost_coeff = 1
		}

		
		doctrine = yes	
		research_cost = 4.5
		
		categories = {
			land_doctrine
			cat_mobile_warfare
		}

		
		folder = {
			name = land_doctrine_folder
			position = { x = 2 y = 16 }
		}
		
		ai_will_do = {
			factor = 20
			modifier = {
				not = { ai_air_doctrine_tier_1_trigger = yes }
				factor = 0.15
			}
			modifier = {
				not = { ai_air_doctrine_tier_2_trigger = yes }
				factor = 0.5
			}
		}
		
		ai_research_weights = {
			armor = 2.0
		}
	}
	
	modern_blitzkrieg = {
		xp_research_type = army
		xp_unlock_cost = 100
		category_tanks = {
			max_organisation = 3
			breakthrough = 0.20
		}

		category_all_armor = {
			default_morale = 0.2
		}
		armored_car = {
			max_organisation = 6
			default_morale = 0.2
			breakthrough = 0.20
		}
		doctrine = yes	
		research_cost = 4.5
		
		categories = {
			land_doctrine
			cat_mobile_warfare
		}

		
		folder = {
			name = land_doctrine_folder
			position = { x = 2 y = 18 }
		}

		on_research_complete = {
			hidden_effect = {
				set_technology = {
					finished_land_doctrine = 1
					popup = no
				}
			}
		}
		
		ai_will_do = {
			factor = 20
			modifier = {
				not = {
					has_army_experience > 120
				}
				factor = 0.8
			}
			modifier = {
				not = { ai_air_doctrine_tier_1_trigger = yes }
				factor = 0.15
			}
			modifier = {
				not = { ai_air_doctrine_tier_2_trigger = yes }
				factor = 0.5
			}
		}
		
		ai_research_weights = {
			armor = 2.0
		}
	}
	
	volkssturm = {
		xp_research_type = army
		xp_unlock_cost = 100
		xor={
			firebrigades
		}

		
		conscription = 0.02
		
		path = {
			leads_to_tech = nd_conscription 
			research_cost_coeff = 1
		}

		
		doctrine = yes	
		research_cost = 4.5
		
		categories = {
			land_doctrine
			cat_mobile_warfare
		}

		
		folder = {
			name = land_doctrine_folder
			position = { x = -2 y = 14 }
		}
		
		ai_will_do = {
			factor = 5
			modifier = {
				add = 15
				has_war = yes
				has_manpower < 10000
			}
			modifier = {
				add = 15
				has_war = yes
				OR = {
					has_idea = all_adults_serve
					has_idea = scraping_the_barrel
				}
			}
			modifier = {
				add = 10
				has_war = yes
				enemies_strength_ratio > 0.6
			}
			modifier = {
				not = {
					has_army_experience > 120
				}
				factor = 0.8
			}
			modifier = {
				not = { ai_air_doctrine_tier_1_trigger = yes }
				factor = 0.15
			}
			modifier = {
				not = { ai_air_doctrine_tier_2_trigger = yes }
				factor = 0.5
			}
			modifier = {
				original_tag = CHN
				factor = 3
			}
			modifier = {
				factor = 2
				original_tag = STG
			}
		}
		
		ai_research_weights = {
			armor = 2.0
		}
	}
	
	nd_conscription = {
		xp_research_type = army
		xp_unlock_cost = 100
		conscription = 0.03

		path = {
			leads_to_tech = werwolf_guerillas 
			research_cost_coeff = 1
		}

		
		doctrine = yes	
		research_cost = 4.5
		
		categories = {
			land_doctrine
			cat_mobile_warfare
		}

		
		folder = {
			name = land_doctrine_folder
			position = { x = -2 y = 16 }
		}
		
		ai_will_do = {
			factor = 20
			modifier = {
				not = { ai_air_doctrine_tier_1_trigger = yes }
				factor = 0.15
			}
			modifier = {
				not = { ai_air_doctrine_tier_2_trigger = yes }
				factor = 0.5
			}
		}
		
		ai_research_weights = {
			armor = 2.0
		}
	}
	
	werwolf_guerillas = {

		xp_research_type = army
		xp_unlock_cost = 100
		#Increased Partisan effect on your land occupied by others
		resistance_damage_to_garrison_on_our_occupied_states = 0.1 #10% more partisan effects
		
		enable_tactic = tactic_guerrilla_tactics
		
		doctrine = yes	
		research_cost = 4.5
		
		categories = {
			land_doctrine
			cat_mobile_warfare
		}

		
		folder = {
			name = land_doctrine_folder
			position = { x = -2 y = 18 }
		}
		
		on_research_complete = {
			hidden_effect = {
				set_technology = {
					finished_land_doctrine = 1
					popup = no
				}
			}
		}

		ai_will_do = {
			factor = 20
			modifier = {
				not = { ai_air_doctrine_tier_1_trigger = yes }
				factor = 0.15
			}
			modifier = {
				not = { ai_air_doctrine_tier_2_trigger = yes }
				factor = 0.5
			}
		}
		
		ai_research_weights = {
			armor = 2.0
		}
	}
	
	superior_firepower = {
		doctrine_name = "SUPERIOR_FIREPOWER_DOCTRINE"
		xp_research_type = army
		xp_unlock_cost = 100
		
		xor = { mobile_warfare trench_warfare mass_assault } 

		path = {
			leads_to_tech = sup_delay 
			research_cost_coeff = 1
		}
		
		dependencies = {
			infantry_weapons = 1
		}
		category_front_line = {
			 soft_attack = 0.1
		}
		
		enable_tactic = tactic_barrage
			
		doctrine = yes	
		research_cost = 2.25
		
		categories = {
			land_doctrine
			cat_superior_firepower
		}

		
		folder = {
			name = land_doctrine_folder
			position = { x = 0 y = 0 }
		}
		
		ai_will_do = {
			factor = 20
			modifier = {
				factor = 10
				has_tech_bonus = { category = cat_superior_firepower }
			}
			modifier = {
				factor = 0
				original_tag = VED
			}
			modifier = {
				not = {
					has_army_experience > 120
				}
				factor = 0.8
			}
		}
		
		ai_research_weights = {
			artillery = 4.0
		}
	}
	
	sup_delay = {
		xp_research_type = army
		xp_unlock_cost = 100
		category_light_infantry = {
			max_organisation = 10
		}
		
		enable_tactic = tactic_delay

		path = {
			leads_to_tech = mobile_defence 
			research_cost_coeff = 1
		}
		
		doctrine = yes	
		research_cost = 4.5

		categories = {
			land_doctrine
			cat_superior_firepower
		}
		
		folder = {
			name = land_doctrine_folder
			position = { x = 0 y = 2 }
		}
		
		ai_will_do = {
			modifier = {
				not = {
					has_army_experience > 120
				}
				factor = 0.8
			}
			factor = 20
		}
		
		ai_research_weights = {
			artillery = 3.0
		}
	}
	
	mobile_defence = {
		xp_research_type = army
		xp_unlock_cost = 100
		category_all_infantry = {
			defense = 0.10
		}
		
		enable_tactic = tactic_elastic_defense
		
		
		path = {
			leads_to_tech = intergrated_support 
			research_cost_coeff = 1
		}
		path = {
			leads_to_tech = dispersed_support 
			research_cost_coeff = 1
		}

		
		doctrine = yes	
		research_cost = 4.5
		
		categories = {
			land_doctrine
			cat_superior_firepower
		}

		
		folder = {
			name = land_doctrine_folder
			position = { x = 0 y = 4 }
		}
		
		ai_will_do = {
			modifier = {
				not = {
					has_army_experience > 120
				}
				factor = 0.8
			}
			factor = 20
		}
		
		ai_research_weights = {
			artillery = 2.0
		}
	}
	
	intergrated_support = { #This Branch is focused on boosting stuff in the support column 
		xp_research_type = army
		xp_unlock_cost = 100
		xor={
			dispersed_support
		}

	
		category_support_battalions = {
			max_organisation = 10
			soft_attack = 0.25
		}
		
		path = {
			leads_to_tech = regimental_combat_teams 
			research_cost_coeff = 1
		}

		
		doctrine = yes	
		research_cost = 4.5
		
		categories = {
			land_doctrine
			cat_superior_firepower
		}

		
		folder = {
			name = land_doctrine_folder
			position = { x = 2 y = 6 }
		}
		
		ai_will_do = {
			modifier = {
				not = {
					has_army_experience > 120
				}
				factor = 0.8
			}
			modifier = {
				not = { ai_air_doctrine_tier_1_trigger = yes }
				factor = 0.5
			}
			modifier = {
				not = { ai_air_doctrine_tier_2_trigger = yes }
				factor = 0.75
			}
			factor = 20
		}
		
		ai_research_weights = {
			artillery = 1.0
		}
	}
	
	regimental_combat_teams = {
		xp_research_type = army
		xp_unlock_cost = 100
		category_support_battalions = {
			max_organisation = 10
			soft_attack = 0.25
		}
		
		enable_tactic = tactic_overwhelming_fire
		
		path = {
			leads_to_tech = sup_mechanized_offensive 
			research_cost_coeff = 1
		}

		doctrine = yes	
		research_cost = 4.5
		
		categories = {
			land_doctrine
			cat_superior_firepower
		}

		
		folder = {
			name = land_doctrine_folder
			position = { x = 2 y = 8 }
		}
		
		ai_will_do = {
			modifier = {
				not = {
					has_army_experience > 120
				}
				factor = 0.8
			}
			factor = 20
			modifier = {
				not = { ai_air_doctrine_tier_1_trigger = yes }
				factor = 0.5
			}
			modifier = {
				not = { ai_air_doctrine_tier_2_trigger = yes }
				factor = 0.75
			}
		}
		
		ai_research_weights = {
			artillery = 1.0
		}
	}
	
	dispersed_support = { # Branch is focused on support units as part of the regular brigades
		xp_research_type = army
		xp_unlock_cost = 100
		xor = {
			intergrated_support
		}
		
		category_line_artillery = {
			default_morale = 0.2
		}
		signal_company = {
			battalion_mult = {
				category = category_artillery
				defense = 0.10
			}
		}
		armored_signal = {
			battalion_mult = {
				category = category_artillery
				defense = 0.10
			}
		}
		
		path = {
			leads_to_tech = overwhelming_firepower 
			research_cost_coeff = 1
		}

		
		doctrine = yes	
		research_cost = 4.5
		
		categories = {
			land_doctrine
			cat_superior_firepower
		}

		
		folder = {
			name = land_doctrine_folder
			position = { x = -2 y = 6 }
		}
		
		ai_will_do = {
			factor = 0
		}
		
		ai_research_weights = {
			artillery = 1.0
		}
	}
	
	overwhelming_firepower = {
		xp_research_type = army
		xp_unlock_cost = 100
		category_line_artillery = {
			soft_attack = 0.10
		}
		coordination_bonus = 0.05
		enable_tactic = tactic_overwhelming_fire
		
		path = {
			leads_to_tech = sup_mechanized_offensive 
			research_cost_coeff = 1
		}

		
		doctrine = yes	
		research_cost = 4.5
		
		categories = {
			land_doctrine
			cat_superior_firepower
		}

		
		folder = {
			name = land_doctrine_folder
			position = { x = -2 y = 8 }
		}
		
		ai_will_do = {
			modifier = {
				not = {
					has_army_experience > 120
				}
				factor = 0.8
			}
			factor = 20
			modifier = {
				not = { ai_air_doctrine_tier_1_trigger = yes }
				factor = 0.5
			}
			modifier = {
				not = { ai_air_doctrine_tier_2_trigger = yes }
				factor = 0.75
			}
		}
		
		ai_research_weights = {
			artillery = 1.0
		}
	}
	
	sup_mechanized_offensive = {
		xp_research_type = army
		xp_unlock_cost = 100
		category_all_armor = {
			breakthrough = 0.10
		}
		
		
		enable_tactic = tactic_blitz
		
		
		path = {
			leads_to_tech = concentrated_fire_plans 
			research_cost_coeff = 1
		}
		path = {
			leads_to_tech = centralized_fire_control 
			research_cost_coeff = 1
		}

		
		doctrine = yes	
		research_cost = 4.5
		
		categories = {
			land_doctrine
			cat_superior_firepower
		}

		
		folder = {
			name = land_doctrine_folder
			position = { x = 0 y = 10 }
		}
		
		ai_will_do = {
			factor = 20
			modifier = {
				not = {
					has_army_experience > 120
				}
				factor = 0.8
			}
			modifier = {
				not = { ai_air_doctrine_tier_1_trigger = yes }
				factor = 0.25
			}
			modifier = {
				not = { ai_air_doctrine_tier_2_trigger = yes }
				factor = 0.5
			}
		}
		
		ai_research_weights = {
			artillery = 1.0
		}
	}
	
	concentrated_fire_plans = {
		xp_research_type = army
		xp_unlock_cost = 100
		xor = {
			centralized_fire_control
		}

		category_army = {
			hard_attack = 0.10
		}
		
		path = {
			leads_to_tech = combined_arms 
			research_cost_coeff = 1
		}

		
		doctrine = yes	
		research_cost = 4.5
		
		categories = {
			land_doctrine
			cat_superior_firepower
		}

		
		folder = {
			name = land_doctrine_folder
			position = { x = -2 y = 12 }
		}
		
		ai_will_do = {
			factor = 20
			modifier = {
				not = {
					has_army_experience > 120
				}
				factor = 0.8
			}
			modifier = {
				not = { ai_air_doctrine_tier_1_trigger = yes }
				factor = 0.25
			}
			modifier = {
				not = { ai_air_doctrine_tier_2_trigger = yes }
				factor = 0.5
			}
		}
		
		ai_research_weights = {
			artillery = 1.0
		}
	}
	
	combined_arms = {
		xp_research_type = army
		xp_unlock_cost = 100
		
		category_all_armor = {
			hard_attack = 0.10
			soft_attack = 0.10
		}
		
		enable_tactic = tactic_breakthrough
		
		path = {
			leads_to_tech = tactical_control 
			research_cost_coeff = 1
		}

		
		doctrine = yes	
		research_cost = 4.5
		
		categories = {
			land_doctrine
			cat_superior_firepower
		}

		
		folder = {
			name = land_doctrine_folder
			position = { x = -2 y = 14 }
		}
		
		ai_will_do = {
			factor = 20
			modifier = {
				not = {
					has_army_experience > 120
				}
				factor = 0.8
			}
			modifier = {
				not = { ai_air_doctrine_tier_1_trigger = yes }
				factor = 0.15
			}
			modifier = {
				not = { ai_air_doctrine_tier_2_trigger = yes }
				factor = 0.5
			}
		}
		
		ai_research_weights = {
			artillery = 1.0
		}
	}
	
	tactical_control = {
		xp_research_type = army
		xp_unlock_cost = 100
		land_reinforce_rate = 0.02
		additional_brigade_column_size = 1
	
		enable_tactic = tactic_tactical_withdrawal
		
		path = {
			leads_to_tech = air_land_battle 
			research_cost_coeff = 1
		}

		
		doctrine = yes	
		research_cost = 4.5
		
		categories = {
			land_doctrine
			cat_superior_firepower
		}

		
		folder = {
			name = land_doctrine_folder
			position = { x = -2 y = 16 }
		}
		
		ai_will_do = {
			factor = 20
			modifier = {
				not = {
					has_army_experience > 120
				}
				factor = 0.8
			}
			modifier = {
				not = { ai_air_doctrine_tier_1_trigger = yes }
				factor = 0.15
			}
			modifier = {
				not = { ai_air_doctrine_tier_2_trigger = yes }
				factor = 0.5
			}
		}
		
		ai_research_weights = {
			artillery = 1.0
		}
	}
	
	air_land_battle = {
		xp_research_type = army
		xp_unlock_cost = 100
		category_front_line = {
			max_organisation = 5
		}
			
		#combat advantage when air superior
		army_bonus_air_superiority_factor = 0.15
		
		recon = {
			battalion_mult = {
				category = category_anti_air
				air_attack = 0.10
			}
		}
		
		mot_recon = {
			battalion_mult = {
				category = category_anti_air
				air_attack = 0.10
			}
		}
		
		
		doctrine = yes	
		research_cost = 4.5
		
		categories = {
			land_doctrine
			cat_superior_firepower
		}

		
		folder = {
			name = land_doctrine_folder
			position = { x = -2 y = 18 }
		}

		on_research_complete = {
			hidden_effect = {
				set_technology = {
					finished_land_doctrine = 1
					popup = no
				}
			}
		}

		ai_will_do = {
			factor = 20
			modifier = {
				not = {
					has_army_experience > 120
				}
				factor = 0.8
			}
			modifier = {
				not = { ai_air_doctrine_tier_1_trigger = yes }
				factor = 0.15
			}
			modifier = {
				not = { ai_air_doctrine_tier_2_trigger = yes }
				factor = 0.5
			}
		}
		
		ai_research_weights = {
			artillery = 1.0
		}
	}
	
	centralized_fire_control = {
		xp_research_type = army
		xp_unlock_cost = 100
		xor = {
			concentrated_fire_plans
		}

		category_all_infantry = { 
			soft_attack = 0.05 
		}
		category_artillery = { 
			soft_attack = 0.05
		}
		path = {
			leads_to_tech = forward_observers 
			research_cost_coeff = 1
		}

		
		doctrine = yes	
		research_cost = 4.5
		
		categories = {
			land_doctrine
			cat_superior_firepower
		}

		
		folder = {
			name = land_doctrine_folder
			position = { x = 2 y = 12 }
		}
		
		ai_will_do = {
			factor = 20
			modifier = {
				not = {
					has_army_experience > 120
				}
				factor = 0.8
			}
			modifier = {
				not = { ai_air_doctrine_tier_1_trigger = yes }
				factor = 0.25
			}
			modifier = {
				not = { ai_air_doctrine_tier_2_trigger = yes }
				factor = 0.5
			}
		}
		
		ai_research_weights = {
			artillery = 1.0
		}
	}
	
	forward_observers = {

		land_reinforce_rate = 0.02
		xp_research_type = army
		xp_unlock_cost = 100
		category_recon = {
			recon = 1
		}
		
		path = {
			leads_to_tech = advanced_firebases 
			research_cost_coeff = 1
		}

		
		doctrine = yes	
		research_cost = 4.5
		
		categories = {
			land_doctrine
			cat_superior_firepower
		}

		
		folder = {
			name = land_doctrine_folder
			position = { x = 2 y = 14 }
		}
		
		ai_will_do = {
			factor = 20
			modifier = {
				not = {
					has_army_experience > 120
				}
				factor = 0.8
			}
			modifier = {
				not = { ai_air_doctrine_tier_1_trigger = yes }
				factor = 0.15
			}
			modifier = {
				not = { ai_air_doctrine_tier_2_trigger = yes }
				factor = 0.5
			}
		}
		
		ai_research_weights = {
			artillery = 1.0
		}
	}
	
	advanced_firebases = {
		xp_research_type = army
		xp_unlock_cost = 100
		category_all_infantry = {
			max_organisation = 10
			default_morale = 0.05
		}
		category_tanks = {
			max_organisation = 2
		}
		armored_car = {
			max_organisation = 4
			default_morale = 0.05
		}
		category_all_armor = {
			default_morale = 0.05
		}
		additional_brigade_column_size = 1
		
		enable_tactic = tactic_tactical_withdrawal
		
		path = {
			leads_to_tech = shock_and_awe 
			research_cost_coeff = 1
		}

		
		doctrine = yes	
		research_cost = 4.5
		
		categories = {
			land_doctrine
			cat_superior_firepower
		}

		
		folder = {
			name = land_doctrine_folder
			position = { x = 2 y = 16 }
		}
		
		ai_will_do = {
			factor = 20
			modifier = {
				not = {
					has_army_experience > 120
				}
				factor = 0.8
			}
			modifier = {
				not = { ai_air_doctrine_tier_1_trigger = yes }
				factor = 0.15
			}
			modifier = {
				not = { ai_air_doctrine_tier_2_trigger = yes }
				factor = 0.5
			}
		}
		
		ai_research_weights = {
			artillery = 1.0
		}
	}
	
	shock_and_awe = {
		xp_research_type = army
		xp_unlock_cost = 100
		category_front_line = {
			 soft_attack = 0.05
		}
		
		category_all_infantry = { 
			soft_attack = 0.05 
			hard_attack = 0.05
		}
		category_artillery = { 
			soft_attack = 0.05
			hard_attack = 0.05
		}
		enable_tactic = tactic_breakthrough
				
		doctrine = yes	
		research_cost = 4.5
		
		categories = {
			land_doctrine
			cat_superior_firepower
		}

		
		folder = {
			name = land_doctrine_folder
			position = { x = 2 y = 18 }
		}

		on_research_complete = {
			hidden_effect = {
				set_technology = {
					finished_land_doctrine = 1
					popup = no
				}
			}
		}
		
		ai_will_do = {
			factor = 20
			modifier = {
				not = {
					has_army_experience > 120
				}
				factor = 0.8
			}
			modifier = {
				not = { ai_air_doctrine_tier_1_trigger = yes }
				factor = 0.15
			}
			modifier = {
				not = { ai_air_doctrine_tier_2_trigger = yes }
				factor = 0.5
			}
		}
		
		ai_research_weights = {
			artillery = 1.0
		}
	}
	
	
	trench_warfare = {
		doctrine_name = "GRAND_BATTLEPLAN_DOCTRINE"
		xp_research_type = army
		xp_unlock_cost = 100
		
		xor = { mobile_warfare superior_firepower mass_assault } 
	
		max_dig_in = 10
		dig_in_speed_factor = 0.25 #25% bonus

		
		dependencies = {
			infantry_weapons = 1
		}
		path = {
			leads_to_tech = grand_battle_plan 
			research_cost_coeff = 1
		}

		doctrine = yes	
		research_cost = 2.25
		
		categories = {
			land_doctrine
			cat_grand_battle_plan
		}

		
		folder = {
			name = land_doctrine_folder
			position = { x = 0 y = 0 }
		}
		
		ai_will_do = {
			modifier = {
				not = {
					has_army_experience > 120
				}
				factor = 0.8
			}
			factor = 20
			modifier = {
				factor = 10
				has_tech_bonus = { category = cat_grand_battle_plan }
			}
			modifier = {
				factor = 0
				OR = {
					original_tag = NLR
					original_tag = OLE
				}
			}
		}
		
		ai_research_weights = {
			infantry_weapons = 1.5
			motorized_equipment = 1.0
		}
	}
	
	grand_battle_plan = {
	
		xp_research_type = army
		xp_unlock_cost = 100
		path = {
			leads_to_tech = prepared_defense 
			research_cost_coeff = 1
		}
		
		#planning max bonus increase
		max_planning = 0.1
		command_power_gain = 0.25

		doctrine = yes	
		research_cost = 4.5
		
		categories = {
			land_doctrine
			cat_grand_battle_plan
		}

		
		folder = {
			name = land_doctrine_folder
			position = { x = 0 y = 2 }
		}
		
		ai_will_do = {
			factor = 20
			modifier = {
				not = {
					has_army_experience > 120
				}
				factor = 0.8
			}
			
		}
		
		ai_research_weights = {
			infantry_weapons = 2.5
			motorized_equipment = 2.0
		}
	}
	

	
	prepared_defense = {
		xp_research_type = army
		xp_unlock_cost = 100
		category_all_infantry = {
			defense = 0.10
			max_organisation = 10
		}

		path = {
			leads_to_tech = grand_assault 
			research_cost_coeff = 1
		}

		doctrine = yes	
		research_cost = 4.5
		
		categories = {
			land_doctrine
			cat_grand_battle_plan
		}

		
		folder = {
			name = land_doctrine_folder
			position = { x = 0 y = 4 }
		}
		
		ai_will_do = {
			factor = 20
			modifier = {
				not = {
					has_army_experience > 120
				}
				factor = 0.8
			}
		}
		
		ai_research_weights = {
			infantry_weapons = 1.5
			motorized_equipment = 1.0
		}
	}
	
	grand_assault = {
		xp_research_type = army
		xp_unlock_cost = 100
		category_army = {
			breakthrough = 0.10
			soft_attack = 0.05
		}
		
		enable_tactic = tactic_planned_attack
		
		path = {
			leads_to_tech = grand_mechanized_offensive 
			research_cost_coeff = 1
		}
		path = {
			leads_to_tech = infantry_offensive 
			research_cost_coeff = 1
		}

		doctrine = yes	
		research_cost = 4.5
		
		categories = {
			land_doctrine
			cat_grand_battle_plan
		}

		
		folder = {
			name = land_doctrine_folder
			position = { x = 0 y = 6 }
		}
		
		ai_will_do = {
			factor = 20
			modifier = {
				not = {
					has_army_experience > 120
				}
				factor = 0.8
			}
			modifier = {
				not = { ai_air_doctrine_tier_1_trigger = yes }
				factor = 0.5
			}
			modifier = {
				not = { ai_air_doctrine_tier_2_trigger = yes }
				factor = 0.75
			}
		}
		
		ai_research_weights = {
			infantry_weapons = 1.5
			motorized_equipment = 1.0
		}
	}
	
	grand_mechanized_offensive = {
		xp_research_type = army
		xp_unlock_cost = 100
		xor = {
			infantry_offensive
		}
	
		category_vehicle_infantry = {
			max_organisation = 5
		}
		armored_car = {
			max_organisation = 5
		}
		additional_brigade_column_size = 1
		
		enable_tactic = tactic_blitz
		enable_tactic = tactic_elastic_defense
		
		
		path = {
			leads_to_tech = assault_concentration 
			research_cost_coeff = 1
		}

		doctrine = yes	
		research_cost = 4.5
		
		categories = {
			land_doctrine
			cat_grand_battle_plan
		}

		
		folder = {
			name = land_doctrine_folder
			position = { x = -2 y = 8 }
		}
		
		ai_will_do = {
			factor = 20
			modifier = {
				not = {
					has_army_experience > 120
				}
				factor = 0.8
			}
			modifier = {
				not = { ai_air_doctrine_tier_1_trigger = yes }
				factor = 0.35
			}
			modifier = {
				not = { ai_air_doctrine_tier_2_trigger = yes }
				factor = 0.65
			}
		}
		
		ai_research_weights = {
			infantry_weapons = 1.5
			motorized_equipment = 1.0
			cat_mechanized_equipment = 1.0
		}
	}
	
	assault_concentration = {
		xp_research_type = army
		xp_unlock_cost = 100
		max_planning = 0.1

		enable_tactic = tactic_overwhelming_fire
		
		path = {
			leads_to_tech = branch_interoperation 
			research_cost_coeff = 1
		}

		doctrine = yes	
		research_cost = 4.5
		
		categories = {
			land_doctrine
			cat_grand_battle_plan
		}

		
		folder = {
			name = land_doctrine_folder
			position = { x = -2 y = 10 }
		}
		
		ai_will_do = {
			factor = 20
			modifier = {
				not = {
					has_army_experience > 120
				}
				factor = 0.8
			}
			modifier = {
				not = { ai_air_doctrine_tier_1_trigger = yes }
				factor = 0.3
			}
			modifier = {
				not = { ai_air_doctrine_tier_2_trigger = yes }
				factor = 0.6
			}
		}
		
		ai_research_weights = {
			infantry_weapons = 1.5
			motorized_equipment = 1.0
			cat_mechanized_equipment = 1.0
		}
	}
	
	branch_interoperation = {
		xp_research_type = army
		xp_unlock_cost = 100
		category_all_infantry = {
			max_organisation = 5
		}
		category_tanks = {
			max_organisation = 1
		}
		armored_car = {
			max_organisation = 2
		}
		coordination_bonus = 0.1
		
		path = {
			leads_to_tech = assault_breakthrough 
			research_cost_coeff = 1
		}

		doctrine = yes	
		research_cost = 4.5
		
		categories = {
			land_doctrine
			cat_grand_battle_plan
		}

		
		folder = {
			name = land_doctrine_folder
			position = { x = -2 y = 12 }
		}
		
		ai_will_do = {
			factor = 20
			modifier = {
				not = {
					has_army_experience > 120
				}
				factor = 0.8
			}
			modifier = {
				not = { ai_air_doctrine_tier_1_trigger = yes }
				factor = 0.25
			}
			modifier = {
				not = { ai_air_doctrine_tier_2_trigger = yes }
				factor = 0.55
			}
		}
		
		ai_research_weights = {
			infantry_weapons = 1.5
			motorized_equipment = 1.0
		}
	}
	
	assault_breakthrough = {
		xp_research_type = army
		xp_unlock_cost = 100
		category_army = {
			breakthrough = 0.10
		}
		
		enable_tactic = tactic_breakthrough
	

		path = {
			leads_to_tech = central_planning 
			research_cost_coeff = 1
		}

		doctrine = yes	
		research_cost = 4.5
		
		categories = {
			land_doctrine
			cat_grand_battle_plan
		}

		
		folder = {
			name = land_doctrine_folder
			position = { x = -2 y = 14 }
		}
		
		ai_will_do = {
			factor = 20
			modifier = {
				not = {
					has_army_experience > 120
				}
				factor = 0.8
			}
			modifier = {
				not = { ai_air_doctrine_tier_1_trigger = yes }
				factor = 0.2
			}
			modifier = {
				not = { ai_air_doctrine_tier_2_trigger = yes }
				factor = 0.5
			}
		}
		
		ai_research_weights = {
			infantry_weapons = 1.5
			motorized_equipment = 1.0
			cat_mechanized_equipment = 1.0
		}
	}
	
	central_planning = {
		xp_research_type = army
		xp_unlock_cost = 100
		max_planning = 0.1
		max_command_power = 30
		logistics_company = {
			battalion_mult = {
				category = category_all_infantry
				defense = 0.05
			}
		}
		
		path = {
			leads_to_tech = c3i_theory 
			research_cost_coeff = 1
		}

		doctrine = yes	
		research_cost = 4.5
		
		categories = {
			land_doctrine
			cat_grand_battle_plan
		}

		
		folder = {
			name = land_doctrine_folder
			position = { x = -2 y = 16 }
		}
		
		ai_will_do = {
			factor = 20
			modifier = {
				not = {
					has_army_experience > 120
				}
				factor = 0.8
			}
			modifier = {
				not = { ai_air_doctrine_tier_1_trigger = yes }
				factor = 0.15
			}
			modifier = {
				not = { ai_air_doctrine_tier_2_trigger = yes }
				factor = 0.45
			}
		}
		
		ai_research_weights = {
			infantry_weapons = 1.5
			motorized_equipment = 1.0
		}
	}
	
	c3i_theory = {
		xp_research_type = army
		xp_unlock_cost = 100
		land_reinforce_rate = 0.02
		category_all_infantry = {
			max_organisation = 5
		}
		category_tanks = {
			max_organisation = 1
		}
		armored_car = {
			max_organisation = 2
		}
		doctrine = yes	
		research_cost = 4.5
		
		categories = {
			land_doctrine
			cat_grand_battle_plan
		}

		
		folder = {
			name = land_doctrine_folder
			position = { x = -2 y = 18 }
		}

		on_research_complete = {
			hidden_effect = {
				set_technology = {
					finished_land_doctrine = 1
					popup = no
				}
			}
		}
		
		ai_will_do = {
			factor = 20
			modifier = {
				not = {
					has_army_experience > 120
				}
				factor = 0.8
			}
			modifier = {
				not = { ai_air_doctrine_tier_1_trigger = yes }
				factor = 0.1
			}
			modifier = {
				not = { ai_air_doctrine_tier_2_trigger = yes }
				factor = 0.4
			}
		}
		
		ai_research_weights = {
			infantry_weapons = 1.5
			motorized_equipment = 1.0
		}
	}
	
	infantry_offensive = {
		xp_research_type = army
		xp_unlock_cost = 100
		xor = {
			grand_mechanized_offensive
		}
		category_light_infantry = {
			max_organisation = 5
			breakthrough = 0.25
		}
		additional_brigade_column_size = 1
		
		
		enable_tactic = tactic_infantry_charge
		
		path = {
			leads_to_tech = armored_operations 
			research_cost_coeff = 1
		}

		doctrine = yes	
		research_cost = 4.5
		
		categories = {
			land_doctrine
			cat_grand_battle_plan
			land_doctrine_gbp_infiltration_branch
		}

		
		folder = {
			name = land_doctrine_folder
			position = { x = 2 y = 8 }
		}
		
		ai_will_do = {
			factor = 20
			modifier = {
				not = {
					has_army_experience > 120
				}
				factor = 0.8
			}
			modifier = {
				not = { ai_air_doctrine_tier_1_trigger = yes }
				factor = 0.35
			}
			modifier = {
				not = { ai_air_doctrine_tier_2_trigger = yes }
				factor = 0.65
			}
		}
		
		ai_research_weights = {
			infantry_weapons = 1.5
			motorized_equipment = 1.0
		}
	}
	
	armored_operations = {
		xp_research_type = army
		xp_unlock_cost = 100
		light_tank_recon = {
			battalion_mult = {
				category = category_light_infantry
				defense = 0.10
			}
		}
		light_tank_recon = {
			max_organisation = 5
			soft_attack = 0.10
		}
		armored_car = {
			max_organisation = 4
			default_morale = 0.1
		}
		enable_tactic = tactic_blitz
		enable_tactic = tactic_elastic_defense
		
		
		path = {
			leads_to_tech = infiltration_assault 
			research_cost_coeff = 1
		}

		doctrine = yes	
		research_cost = 4.5
		
		categories = {
			land_doctrine
			cat_grand_battle_plan
			land_doctrine_gbp_infiltration_branch
		}

		
		folder = {
			name = land_doctrine_folder
			position = { x = 2 y = 10 }
		}
		
		ai_will_do = {
			factor = 20
			modifier = {
				not = {
					has_army_experience > 120
				}
				factor = 0.8
			}
			modifier = {
				not = { ai_air_doctrine_tier_1_trigger = yes }
				factor = 0.3
			}
			modifier = {
				not = { ai_air_doctrine_tier_2_trigger = yes }
				factor = 0.6
			}
		}
		
		ai_research_weights = {
			infantry_weapons = 1.5
			motorized_equipment = 1.0
		}
	}
	
	infiltration_assault = {

		xp_research_type = army
		xp_unlock_cost = 100
		supply_consumption_factor = -0.10
		command_power_gain_mult = 0.15
		light_tank_recon = {
			battalion_mult = {
				category = category_line_artillery
				soft_attack = 0.15
			}
		}

		path = {
			leads_to_tech = night_assault_tactics 
			research_cost_coeff = 1
		}

		doctrine = yes	
		research_cost = 4.5
		
		categories = {
			land_doctrine
			cat_grand_battle_plan
			land_doctrine_gbp_infiltration_branch
		}

		
		folder = {
			name = land_doctrine_folder
			position = { x = 2 y = 12 }
		}
		
		ai_will_do = {
			factor = 20
			modifier = {
				not = {
					has_army_experience > 120
				}
				factor = 0.8
			}
			modifier = {
				not = { ai_air_doctrine_tier_1_trigger = yes }
				factor = 0.25
			}
			modifier = {
				not = { ai_air_doctrine_tier_2_trigger = yes }
				factor = 0.55
			}
		}
		
		ai_research_weights = {
			infantry_weapons = 1.5
			motorized_equipment = 1.0
		}
	}
	
	night_assault_tactics = {
		xp_research_type = army
		xp_unlock_cost = 100
		#reduce land night combat penalty
		land_night_attack = 0.25 # negates half of base penalty
		special_forces_attack_factor = 0.15
	
	
		path = {
			leads_to_tech = attritional_containment 
			research_cost_coeff = 1
		}
		
		

		doctrine = yes	
		research_cost = 4.5
		
		categories = {
			land_doctrine
			cat_grand_battle_plan
			land_doctrine_gbp_infiltration_branch
		}

		
		folder = {
			name = land_doctrine_folder
			position = { x = 2 y = 14 }
		}
		
		ai_will_do = {
			factor = 20
			modifier = {
				not = {
					has_army_experience > 120
				}
				factor = 0.8
			}
			modifier = {
				not = { ai_air_doctrine_tier_1_trigger = yes }
				factor = 0.2
			}
			modifier = {
				not = { ai_air_doctrine_tier_2_trigger = yes }
				factor = 0.5
			}
		}
		
		ai_research_weights = {
			infantry_weapons = 1.5
			motorized_equipment = 1.0
		}
	}
	
	attritional_containment = {
		xp_research_type = army
		xp_unlock_cost = 100
		category_all_infantry = {
			max_organisation = 5
		}
		light_tank_recon = {
			max_organisation = 5
			soft_attack = 0.10
		}
		armored_car = {
			max_organisation = 2
		}
		equipment_capture = 0.05
		no_supply_grace = 12
		special_forces_attack_factor = 0.15
		path = {
			leads_to_tech = infiltration_in_depth 
			research_cost_coeff = 1
		}

		doctrine = yes	
		research_cost = 4.5
		
		categories = {
			land_doctrine
			cat_grand_battle_plan
			land_doctrine_gbp_infiltration_branch
		}

		
		folder = {
			name = land_doctrine_folder
			position = { x = 2 y = 16 }
		}
		
		ai_will_do = {
			factor = 20
			modifier = {
				not = {
					has_army_experience > 120
				}
				factor = 0.8
			}
			modifier = {
				not = { ai_air_doctrine_tier_1_trigger = yes }
				factor = 0.15
			}
			modifier = {
				not = { ai_air_doctrine_tier_2_trigger = yes }
				factor = 0.45
			}
		}
		
		ai_research_weights = {
			infantry_weapons = 1.5
			motorized_equipment = 1.0
		}
	}
	
	infiltration_in_depth = {
		xp_research_type = army
		xp_unlock_cost = 100
		no_supply_grace = 12
		initiative_factor = 0.24
		
		category_recon = { 
			recon = 1 
		} 

		doctrine = yes	
		research_cost = 4.5
		
		categories = {
			land_doctrine
			cat_grand_battle_plan
			land_doctrine_gbp_infiltration_branch
		}

		
		folder = {
			name = land_doctrine_folder
			position = { x = 2 y = 18 }
		}

		on_research_complete = {
			hidden_effect = {
				set_technology = {
					finished_land_doctrine = 1
					popup = no
				}
			}
		}
		
		ai_will_do = {
			factor = 20
			modifier = {
				not = {
					has_army_experience > 120
				}
				factor = 0.8
			}
			modifier = {
				not = { ai_air_doctrine_tier_1_trigger = yes }
				factor = 0.1
			}
			modifier = {
				not = { ai_air_doctrine_tier_2_trigger = yes }
				factor = 0.4
			}
		}
		
		ai_research_weights = {
			infantry_weapons = 1.5
			motorized_equipment = 1.0
		}
	}
	
	mass_assault = {
		doctrine_name = "MASS_ASSAULT_DOCTRINE"
		xp_research_type = army
		xp_unlock_cost = 100
		xor = { mobile_warfare superior_firepower trench_warfare } 

		path = {
			leads_to_tech = pocket_defence 
			research_cost_coeff = 1
		}
		
		dependencies = {
			infantry_weapons = 1
		}
		land_reinforce_rate = 0.02
		minimum_training_level = -0.1
		weekly_casualties_war_support = 0.001	

		doctrine = yes	
		research_cost = 2.25
		
		categories = {
			land_doctrine
			cat_mass_assault
		}

		
		folder = {
			name = land_doctrine_folder
			position = { x = 0 y = 0 }
		}
		
		ai_will_do = {
			factor = 20
			modifier = {
				not = {
					has_army_experience > 120
				}
				factor = 0.8
			}
			modifier = {
				factor = 10
				has_tech_bonus = { category = cat_mass_assault }
			}
			modifier = {
				factor = 3
				original_tag = DED
			}
			modifier = {
				factor = 0.25
				original_tag = JER
			}
			modifier = {
				factor = 0
				OR = {
					original_tag = NLR
					original_tag = OLE
					original_tag = GRI
					original_tag = LAK
				}
			}
		}
		
		ai_research_weights = {
			industry = 2.0
		}
	}
	
	pocket_defence = {

		xp_research_type = army
		xp_unlock_cost = 100
		#reduced pocketed combat penalty and/or reduces the out of supply penalty or increases time before moving to worse penalty
		no_supply_grace = 48 # more hours before supply penalty changes
		out_of_supply_factor = -0.10
		path = {
			leads_to_tech = defence_in_depth
			research_cost_coeff = 1
		}

		doctrine = yes	
		research_cost = 4.5
		
		categories = {
			land_doctrine
			cat_mass_assault
		}

		
		folder = {
			name = land_doctrine_folder
			position = { x = 0 y = 2 }
		}
		
		ai_will_do = {
			factor = 20
			modifier = {
				not = {
					has_army_experience > 120
				}
				factor = 0.8
			}
		}
		
		ai_research_weights = {
			industry = 2.0
		}
	}
	
	defence_in_depth = {
		xp_research_type = army
		xp_unlock_cost = 100
		max_dig_in = 5

		category_all_infantry = {
			max_organisation = 5
		}
		
		
		path = {
			leads_to_tech = large_front_operations
			research_cost_coeff = 1
		}
		path = {
			leads_to_tech = peoples_army
			research_cost_coeff = 1
		}

		doctrine = yes	
		research_cost = 4.5
		
		categories = {
			land_doctrine
			cat_mass_assault
		}

		
		folder = {
			name = land_doctrine_folder
			position = { x = 0 y = 4 }
		}
		
		ai_will_do = {
			factor = 20
			modifier = {
				not = {
					has_army_experience > 120
				}
				factor = 0.8
			}
		}
		
		ai_research_weights = {
			industry = 2.0
		}
	}
	
	large_front_operations = {
		xp_research_type = army
		xp_unlock_cost = 100
		xor = {
			peoples_army
		}


		conscription = 0.025
		supply_consumption_factor = -0.10
		additional_brigade_column_size = 1

		enable_tactic = tactic_relentless_assault
		
		path = {
			leads_to_tech = deep_operations
			research_cost_coeff = 1
		}

		doctrine = yes	
		research_cost = 4.5
		
		categories = {
			land_doctrine
			cat_mass_assault
		}

		
		folder = {
			name = land_doctrine_folder
			position = { x = -2 y = 6 }
		}
		
		ai_will_do = {
			factor = 20
			modifier = {
				not = {
					has_army_experience > 120
				}
				factor = 0.8
			}

			modifier = {
				not = { ai_air_doctrine_tier_1_trigger = yes }
				factor = 0.5
			}
			modifier = {
				not = { ai_air_doctrine_tier_2_trigger = yes }
				factor = 0.75
			}
		}
		
		ai_research_weights = {
			industry = 2.0
		}
	}
	
	deep_operations = {
		category_tanks = {
			max_organisation = 2
		}
		light_armor = {
			combat_width = -0.4
		}
		medium_armor = {
			combat_width = -0.4
		}
		heavy_armor = {
			combat_width = -0.4
		}
		modern_armor = {
			combat_width = -0.4
		}
		amphibious_light_armor = {
			combat_width = -0.4
		}
		amphibious_medium_armor = {
			combat_width = -0.4
		}
		amphibious_heavy_armor = {
			combat_width = -0.4
		}
		amphibious_modern_armor = {
			combat_width = -0.4
		}
		light_sp_anti_air_brigade = {
			combat_width = -0.4
		}
		medium_sp_anti_air_brigade = {
			combat_width = -0.4
		}
		heavy_sp_anti_air_brigade = {
			combat_width = -0.4
		}
		modern_sp_anti_air_brigade = {
			combat_width = -0.4
		}
		light_sp_artillery_brigade = {
			combat_width = -0.4
		}
		medium_sp_artillery_brigade = {
			combat_width = -0.4
		}
		heavy_sp_artillery_brigade = {
			combat_width = -0.4
		}
		modern_sp_artillery_brigade = {
			combat_width = -0.4
		}
		light_tank_destroyer_brigade = {
			combat_width = -0.4
		}
		medium_tank_destroyer_brigade = {
			combat_width = -0.4
		}
		heavy_tank_destroyer_brigade = {
			combat_width = -0.4
		}
		modern_tank_destroyer_brigade = {
			combat_width = -0.4
		}
		#category_battalion_tanks = { ### In the future we'll try and use these categories for front and backend cleanliness but we need to know how to make a 'hidden modifier' in a tech first
		#	combat_width = -0.4
		#}
		#category_sp_battalion_tanks = {
		#	combat_width = -1
		#}
		armored_car = {
			max_organisation = 4
			combat_width = -0.4
		}
		xp_research_type = army
		xp_unlock_cost = 100
		enable_tactic = tactic_blitz
		
		
		path = {
			leads_to_tech = operational_concentration
			research_cost_coeff = 1
		}

		doctrine = yes	
		research_cost = 4.5
		
		categories = {
			land_doctrine
			cat_mass_assault
		}

		
		folder = {
			name = land_doctrine_folder
			position = { x = -2 y = 8 }
		}
		
		ai_will_do = {
			factor = 20
			modifier = {
				not = {
					has_army_experience > 120
				}
				factor = 0.8
			}
			modifier = {
				not = { ai_air_doctrine_tier_1_trigger = yes }
				factor = 0.5
			}
			modifier = {
				not = { ai_air_doctrine_tier_2_trigger = yes }
				factor = 0.75
			}
		}
		
		ai_research_weights = {
			industry = 2.0
		}
	}
	
	operational_concentration = {
		xp_research_type = army
		xp_unlock_cost = 100
		max_planning = 0.10
		land_reinforce_rate = 0.05

		enable_tactic = tactic_elastic_defense
		
		path = {
			leads_to_tech = vast_offensives
			research_cost_coeff = 1
		}

		doctrine = yes	
		research_cost = 4.5
		
		categories = {
			land_doctrine
			cat_mass_assault
		}

		
		folder = {
			name = land_doctrine_folder
			position = { x = -2 y = 10 }
		}
		
		ai_will_do = {
			factor = 20
			modifier = {
				not = {
					has_army_experience > 120
				}
				factor = 0.8
			}
			modifier = {
				not = { ai_air_doctrine_tier_1_trigger = yes }
				factor = 0.35
			}
			modifier = {
				not = { ai_air_doctrine_tier_2_trigger = yes }
				factor = 0.65
			}
		}
		
		ai_research_weights = {
			industry = 2.0
		}
	}
	
	vast_offensives = {
		xp_research_type = army
		xp_unlock_cost = 100
		supply_consumption_factor = -0.10
		
		infantry = {
			combat_width = -0.3
		}
		magical_infantry = {
			combat_width = -0.3
		}
		
		enable_tactic = tactic_overwhelming_fire
		
		path = {
			leads_to_tech = breakthrough_priority
			research_cost_coeff = 1
		}

		doctrine = yes	
		research_cost = 4.5
		
		categories = {
			land_doctrine
			cat_mass_assault
		}

		
		folder = {
			name = land_doctrine_folder
			position = { x = -2 y = 12 }
		}
		
		ai_will_do = {
			factor = 20
			modifier = {
				not = {
					has_army_experience > 120
				}
				factor = 0.8
			}
			modifier = {
				not = { ai_air_doctrine_tier_1_trigger = yes }
				factor = 0.35
			}
			modifier = {
				not = { ai_air_doctrine_tier_2_trigger = yes }
				factor = 0.65
			}
		}
		
		ai_research_weights = {
			industry = 2.0
		}
	}
	
	breakthrough_priority = {
		xp_research_type = army
		xp_unlock_cost = 100
		category_tanks = {
			max_organisation = 2
			breakthrough = 0.25
		}
		category_all_infantry = {
			max_organisation = 5
			breakthrough = 0.25
		}
		armored_car = {
			max_organisation = 2
			breakthrough = 0.25
		}
		enable_tactic = tactic_breakthrough
		
		path = {
			leads_to_tech = mechanized_wave
			research_cost_coeff = 1
		}

		doctrine = yes	
		research_cost = 4.5
		
		categories = {
			land_doctrine
			cat_mass_assault
		}

		
		folder = {
			name = land_doctrine_folder
			position = { x = -2 y = 14 }
		}
		
		ai_will_do = {
			factor = 20
			modifier = {
				not = {
					has_army_experience > 120
				}
				factor = 0.8
			}
			modifier = {
				not = { ai_air_doctrine_tier_1_trigger = yes }
				factor = 0.25
			}
			modifier = {
				not = { ai_air_doctrine_tier_2_trigger = yes }
				factor = 0.5
			}
		}
		
		ai_research_weights = {
			industry = 2.0
		}
	}
	
	mechanized_wave = {
		category_tanks = {
			max_organisation = 2
		}
		xp_research_type = army
		xp_unlock_cost = 100
		category_all_armor = {
			default_morale = 0.1
		}
		armored_car = {
			max_organisation = 4
			default_morale = 0.1
		}	
		category_vehicle_infantry = {
			max_organisation = 10
			default_morale = 0.1
		}	
		armored_car_recon = {
			battalion_mult = {
				category = category_light_infantry
				max_organisation = 1
				add = yes
			}
		}
		
		path = {
			leads_to_tech = continuous_offensive
			research_cost_coeff = 1
		}

		doctrine = yes	
		research_cost = 4.5
		
		categories = {
			land_doctrine
			cat_mass_assault
		}

		
		folder = {
			name = land_doctrine_folder
			position = { x = -2 y = 16 }
		}
		
		ai_will_do = {
			factor = 20
			modifier = {
				not = {
					has_army_experience > 120
				}
				factor = 0.8
			}
			modifier = {
				not = { ai_air_doctrine_tier_1_trigger = yes }
				factor = 0.15
			}
			modifier = {
				not = { ai_air_doctrine_tier_2_trigger = yes }
				factor = 0.5
			}
		}
		
		ai_research_weights = {
			industry = 2.0
			cat_mechanized_equipment = 3.0
		}
	}
	
	continuous_offensive = {
		xp_research_type = army
		xp_unlock_cost = 100
		org_loss_when_moving = -0.25
		land_reinforce_rate = 0.05
		
		enable_tactic = tactic_backhand_blow

		doctrine = yes	
		research_cost = 4.5
		
		categories = {
			land_doctrine
			cat_mass_assault
		}

		
		folder = {
			name = land_doctrine_folder
			position = { x = -2 y = 18 }
		}

		on_research_complete = {
			hidden_effect = {
				set_technology = {
					finished_land_doctrine = 1
					popup = no
				}
			}
		}
		
		ai_will_do = {
			factor = 20
			modifier = {
				not = {
					has_army_experience > 120
				}
				factor = 0.8
			}
			modifier = {
				not = { ai_air_doctrine_tier_1_trigger = yes }
				factor = 0.1
			}
			modifier = {
				not = { ai_air_doctrine_tier_2_trigger = yes }
				factor = 0.35
			}
		}
		
		ai_research_weights = {
			industry = 2.0
		}
	}
	
	peoples_army = {
	
		xor = {
			large_front_operations
		}

		xp_research_type = army
		xp_unlock_cost = 100
		
		#Increased Partisan effect on your land occupied by others
		resistance_damage_to_garrison_on_our_occupied_states = 0.1 #10% more partisan effects
		#Land Units take less attrition
		attrition = -0.1 #take 10% less attrition losses
		
		additional_brigade_column_size = 1

		enable_tactic = tactic_human_wave_tactics
		
		
		path = {
			leads_to_tech = human_infantry_offensive
			research_cost_coeff = 1
		}

		doctrine = yes	
		research_cost = 4.5
		
		categories = {
			land_doctrine
			cat_mass_assault
		}

		military_police = {
			battalion_mult = {
				category = category_heavy_infantry
				suppression = 0.50
				add = yes
			}
		}
		motorized_military_police = {
			battalion_mult = {
				category = category_heavy_infantry
				suppression = 0.50
				add = yes
			}
		}
		
		folder = {
			name = land_doctrine_folder
			position = { x = 2 y = 6 }
		}
		
		ai_will_do = {
			factor = 20
			modifier = {
				not = {
					has_army_experience > 120
				}
				factor = 0.8
			}
			modifier = {
				not = { ai_air_doctrine_tier_1_trigger = yes }
				factor = 0.5
			}
			modifier = {
				not = { ai_air_doctrine_tier_2_trigger = yes }
				factor = 0.75
			}
			modifier = {
				num_of_factories > 35
				factor = 0.5
			}
			modifier = {
				num_of_factories > 70
				factor = 0.5
			}
			modifier = {
				original_tag = PLB
				factor = 2
			}

		}
		
		ai_research_weights = {
			industry = 2.0
		}
	}
	
	human_infantry_offensive = {
		xp_research_type = army
		xp_unlock_cost = 100
		infantry = {
			default_morale = 0.30
		}
		magical_infantry = {
			default_morale = 0.30
		}
		land_reinforce_rate = 0.05		
		
		path = {
			leads_to_tech = large_front_offensive
			research_cost_coeff = 1
		}

		doctrine = yes	
		research_cost = 4.5
		
		categories = {
			land_doctrine
			cat_mass_assault
		}

		
		folder = {
			name = land_doctrine_folder
			position = { x = 2 y = 8 }
		}
		
		ai_will_do = {
			factor = 20
			modifier = {
				not = {
					has_army_experience > 120
				}
				factor = 0.8
			}
		}
		
		ai_research_weights = {
			industry = 2.0
		}
	}
	
	large_front_offensive = {
		xp_research_type = army
		xp_unlock_cost = 100
		category_all_infantry = {
			max_organisation = 10
		}
		category_tanks = {
			max_organisation = 2
		}
		armored_car = {
			max_organisation = 4
		}
		
		path = {
			leads_to_tech = human_wave_offensive
			research_cost_coeff = 1
		}

		doctrine = yes	
		research_cost = 4.5
		
		categories = {
			land_doctrine
			cat_mass_assault
		}

		
		folder = {
			name = land_doctrine_folder
			position = { x = 2 y = 10 }
		}
		
		ai_will_do = {
			factor = 20
			modifier = {
				not = {
					has_army_experience > 120
				}
				factor = 0.8
			}
		}
		
		ai_research_weights = {
			industry = 2.0
		}
	}
	
	human_wave_offensive = {

		conscription = 0.05
		xp_research_type = army
		xp_unlock_cost = 100
		infantry = {
			combat_width = -0.4
		}
		magical_infantry = {
			combat_width = -0.4
		}
		land_reinforce_rate = 0.15		
		
		path = {
			leads_to_tech = guerilla_warfare
			research_cost_coeff = 1
		}

		doctrine = yes	
		research_cost = 4.5
		
		categories = {
			land_doctrine
			cat_mass_assault
		}

		
		folder = {
			name = land_doctrine_folder
			position = { x = 2 y = 12 }
		}
		
		ai_will_do = {
			factor = 20
			modifier = {
				not = {
					has_army_experience > 120
				}
				factor = 0.8
			}
		}
		
		ai_research_weights = {
			infantry_weapons = 1.0
			industry = 2.0
		}
	}
	
	guerilla_warfare = {
		xp_research_type = army
		xp_unlock_cost = 100
		out_of_supply_factor = -0.30
		category_army = {
			default_morale = 0.2
		}
		
		resistance_growth_on_our_occupied_states = 0.25
		
		enable_tactic = tactic_guerrilla_tactics
		
		doctrine = yes	
		research_cost = 4.5
		
		categories = {
			land_doctrine
			cat_mass_assault
		}
		
		folder = {
			name = land_doctrine_folder
			position = { x = 2 y = 14 }
		}

		on_research_complete = {
			hidden_effect = {
				set_technology = {
					finished_land_doctrine = 1
					popup = no
				}
			}
		}
		
		ai_will_do = {
			modifier = {
				not = {
					has_army_experience > 120
				}
				factor = 0.8
			}
			factor = 20
		}
		
		ai_research_weights = {
			industry = 2.0
		}
	}

	masterful_blitz = {
		enable_tactic = tactic_masterful_blitz

		doctrine = yes
		research_cost = 1

		#set at gamestart
		allow = {
			always = no
		}

		categories = {
			land_doctrine
			cat_mass_assault
			cat_superior_firepower
			cat_grand_battle_plan
			cat_mobile_warfare
		}
	}
	
	berlin_path = {
		doctrine_name = "TITLE_BERLIN_PATH"

		xor = { brussels_path global_path warsaw_path }
		
		xp_research_type = army
		xp_unlock_cost = 100
		
		category_all_infantry = {
			max_organisation = 10
		}
		army_speed_factor = 0.10
		
		path = {
			leads_to_tech = fluid_battlespace 
			research_cost_coeff = 1
		}
		
		dependencies = { 
			finished_land_doctrine = 1
			advanced_infantry_weapons_b = 1
			mechanised_infantry_a = 1
		} 
		
		doctrine = yes	
		research_cost = 4.5
		
		categories = {
			land_doctrine
			cat_mobile_warfare
		}

		
		folder = {
			name = land_doctrine_folder
			position = { x = 0 y = 0 }
		}		
		
		ai_will_do = {
			factor = 20
			
			modifier = {
				factor = 20
				OR = {
					original_tag = CHN
					original_tag = GRI
				}
			}

			modifier = {
				factor = 8
				has_tech = mobile_warfare
			}

			modifier = {
				factor = 2
				has_government = fascism
			}

			modifier = {
				factor = 2
				OR = { is_faction_leader = yes is_major = yes }
				has_government = fascism
			}

			modifier = {
				factor = 4
				OR = {
					AND = {
						is_faction_leader = no
						var:faction_leader = {
							OR = {
								has_tech = berlin_path
								is_researching_technology = berlin_path
							}
						}
					}
					AND = {
						is_subject = yes
						overlord = {
							OR = {
								has_tech = berlin_path
								is_researching_technology = berlin_path
							}
						}
					}
				}
			}
		}
	}
		
	fluid_battlespace = {

		xp_research_type = army
		xp_unlock_cost = 100
		
		path = {
			leads_to_tech = scenario_analysis 
			research_cost_coeff = 1
		}
		path = {
			leads_to_tech = absolute_motorization
			research_cost_coeff = 1
		}
		
		category_all_armor = {
			breakthrough = 0.2
		}
		category_tanks = {
			max_organisation = 2
		}	
		armored_car = {
			max_organisation = 4
			breakthrough = 0.2
		}
		
		doctrine = yes	
		research_cost = 4.5
		
		categories = {
			land_doctrine
			cat_mobile_warfare
		}
		
		folder = {
			name = land_doctrine_folder
			position = { x = 0 y = 2 }
		}	
		
		ai_will_do = {
			factor = 20
			
		}
	}
		
	scenario_analysis = {

		xp_research_type = army
		xp_unlock_cost = 100

		xor = { absolute_motorization }
		
		path = {
			leads_to_tech = axis_concert 
			research_cost_coeff = 1
		}
		
		category_tanks = {
			max_organisation = 3
			breakthrough = 0.2
		}
		armored_car = {
			max_organisation = 6
			breakthrough = 0.2
		}
		
		doctrine = yes	
		research_cost = 4.5

		
		categories = {
			land_doctrine
			cat_mobile_warfare
		}

		
		folder = {
			name = land_doctrine_folder
			position = { x = -2 y = 4 }
		}			
		
		ai_will_do = {
			factor = 20
			modifier = {
				factor = 8
				has_tech = armored_spearhead
			}
		}
	}
		
	axis_concert = {

		xp_research_type = army
		xp_unlock_cost = 100
		
		path = {
			leads_to_tech = modern_panzerwaffe
			research_cost_coeff = 1
		}

		category_tanks = {
			max_organisation = 3
		}
		category_all_armor = {
			armor_value = 0.2
		}
		armored_car = {
			max_organisation = 6
			armor_value = 0.2
		}
		
		doctrine = yes	
		research_cost = 4.5
		
		categories = {
			land_doctrine
			cat_mobile_warfare
		}

		
		folder = {
			name = land_doctrine_folder
			position = { x = -2 y = 6 }
		}	
		
		ai_will_do = {
			factor = 20
			
		}
	}

	absolute_motorization = {
		xor = { scenario_analysis }


		xp_research_type = army
		xp_unlock_cost = 100
		
		path = {
			leads_to_tech = mechanized_shockwave
			research_cost_coeff = 1
		}
			
		category_all_infantry = {
			max_organisation = 10
			default_morale = 0.1
		}
		
					
		doctrine = yes	
		research_cost = 4.5
		
		categories = {
			land_doctrine
			cat_mobile_warfare
		}

		
		folder = {
			name = land_doctrine_folder
			position = { x = 2 y = 4 }
		}	
		
		ai_will_do = {
			factor = 20
			modifier = {
				factor = 8
				has_tech = mobile_infantry
			}
		}
	}
	mechanized_shockwave = {
		

		xp_research_type = army
		xp_unlock_cost = 100
		
		path = {
			leads_to_tech = modern_panzerwaffe
			research_cost_coeff = 1
		}
			
		category_vehicle_infantry = {
			max_organisation = 15
		}
		
					
		doctrine = yes	
		research_cost = 4.5
		
		categories = {
			land_doctrine
			cat_mobile_warfare
		}

		
		folder = {
			name = land_doctrine_folder
			position = { x = 2 y = 6 }
		}	
		
		ai_will_do = {
			factor = 20

		}
	}
		
	modern_panzerwaffe = {

		xp_research_type = army
		xp_unlock_cost = 100
		
		path = {
			leads_to_tech = modern_combined_arms
			research_cost_coeff = 1
		}
			
		category_vehicle_infantry = {
			maximum_speed = 0.1
			default_morale = 0.1
		}
		category_all_armor = {
			maximum_speed = 0.1
			default_morale = 0.1
		}
		armored_car = {
			maximum_speed = 0.1
			default_morale = 0.1
		}
		
					
		doctrine = yes	
		research_cost = 4.5
		
		categories = {
			land_doctrine
			cat_mobile_warfare
		}

		
		folder = {
			name = land_doctrine_folder
			position = { x = 0 y = 8 }
		}	
		
		ai_will_do = {
			factor = 20

		}
	}
		
	modern_combined_arms = {

		xp_research_type = army
		xp_unlock_cost = 100
		
		path = {
			leads_to_tech = helicopter_operational_support
			research_cost_coeff = 1
		}

		category_army = {
			max_organisation = 5
		}
		org_loss_when_moving = -0.15
		
		doctrine = yes	
		research_cost = 4.5
		
		categories = {
			land_doctrine
			cat_mobile_warfare
		}

		
		folder = {
			name = land_doctrine_folder
			position = { x = 0 y = 10 }
		}	
		
		ai_will_do = {
			factor = 20
			
		}
	}
		
	helicopter_operational_support = {

		xp_research_type = army
		xp_unlock_cost = 100
		
		category_all_infantry = {
			max_organisation = 10
		}
		category_all_armor = {
			max_organisation = 1
		}
		armored_car = {
			max_organisation = 2
		}
		logistics_company = {
			battalion_mult = {
				category = category_all_infantry
				defense = 0.05
			}
		}
		
		
		doctrine = yes	
		research_cost = 4.5
		
		categories = {
			land_doctrine
			cat_mobile_warfare
		}

		
		folder = {
			name = land_doctrine_folder
			position = { x = 0 y = 12 }
		}	
		
		ai_will_do = {
			factor = 20
			
		}
	}
		
	brussels_path = {
		doctrine_name = "TITLE_BRUSSELS_PATH"

		xp_research_type = army
		xp_unlock_cost = 100
		
		category_support_battalions = {
			soft_attack = 0.25
			hard_attack = 0.25
			max_organisation = 10
		}
		shore_bombardment_bonus = 0.2
		
		xor = { global_path berlin_path warsaw_path }
		
		dependencies = {
			finished_land_doctrine = 1
			advanced_infantry_weapons_b = 1
			mechanised_infantry_a = 1
		}
		
		path = {
			leads_to_tech = battlespace_organization 
			research_cost_coeff = 1
		}
				
		doctrine = yes	
		research_cost = 4.5
		
		categories = {
			land_doctrine
			cat_superior_firepower
		}

		
		folder = {
			name = land_doctrine_folder
			position = { x = 0 y = 0 }
		}	
		
		ai_will_do = {
			factor = 20			
			modifier = {
				factor = 20
				OR = {
					original_tag = EQS
					original_tag = NLR
				}
			}

			modifier = {
				factor = 8
				has_tech = superior_firepower
			}

			modifier = {
				factor = 2
				has_government = democratic
			}

			modifier = {
				factor = 2
				OR = { is_faction_leader = yes is_major = yes }
				has_government = democratic
			}

			modifier = {
				factor = 4
				OR = {
					AND = {
						is_faction_leader = no
						var:faction_leader = {
							OR = {
								has_tech = brussels_path
								is_researching_technology = brussels_path
							}
						}
					}
					AND = {
						is_subject = yes
						overlord = {
							OR = {
								has_tech = brussels_path
								is_researching_technology = brussels_path
							}
						}
					}
				}
			}
		}
	}
		
	battlespace_organization = {

		xp_research_type = army
		xp_unlock_cost = 100
		
		
		category_all_infantry = {
			max_organisation = 10
		}
		
		
		path = {
			leads_to_tech = war_game_sophistication 
			research_cost_coeff = 1
		}
		path = {
			leads_to_tech = advanced_artillery_techniques
			research_cost_coeff = 1
		}
				
		doctrine = yes	
		research_cost = 4.5
		
		categories = {
			land_doctrine
			cat_superior_firepower
		}

		
		folder = {
			name = land_doctrine_folder
			position = { x = 0 y = 2 }
		}
		
		ai_will_do = {
			factor = 20			
		}
	}
		
	war_game_sophistication = {

		xor = { advanced_artillery_techniques }

		xp_research_type = army
		xp_unlock_cost = 100
		
		category_army = {
			hard_attack = 0.1
			ap_attack = 0.1
		}		

		path = {
			leads_to_tech = interoperability 
			research_cost_coeff = 1
		}
				
		doctrine = yes	
		research_cost = 4.5
		
		categories = {
			land_doctrine
			cat_superior_firepower
		}

		
		folder = {
			name = land_doctrine_folder
			position = { x = -2 y = 4 }
		}
		
		ai_will_do = {
			factor = 20
			modifier = {
				factor = 8
				has_tech = concentrated_fire_plans
			}
		}
	}
		
	interoperability = {

		xp_research_type = army
		xp_unlock_cost = 100

		category_all_armor = {
			soft_attack = 0.1
			hard_attack = 0.1
			air_attack = 0.1
			ap_attack = 0.1
		}
		category_tanks = {
			max_organisation = 3
		}
		armored_car = {
			max_organisation = 6
			soft_attack = 0.1
			hard_attack = 0.1
			air_attack = 0.1
			ap_attack = 0.1
		}
				
		path = {
			leads_to_tech = combined_forces_hq 
			research_cost_coeff = 1
		}
				
		doctrine = yes	
		research_cost = 4.5
		
		categories = {
			land_doctrine
			cat_superior_firepower
		}

		
		folder = {
			name = land_doctrine_folder
			position = { x = -2 y = 6 }
		}
		
		ai_will_do = {
			factor = 20			
		}
	}

	advanced_artillery_techniques = {
		xor = { war_game_sophistication }

		xp_research_type = army
		xp_unlock_cost = 100
		
		
		category_all_infantry = {
			soft_attack = 0.1
			max_organisation = 5
		}
		category_all_artillery = {
			soft_attack = 0.1
		}

		path = {
			leads_to_tech = artillery_regrouping 
			research_cost_coeff = 1
		}
				
		doctrine = yes	
		research_cost = 4.5
		
		categories = {
			land_doctrine
			cat_superior_firepower
		}

		
		folder = {
			name = land_doctrine_folder
			position = { x = 2 y = 4 }
		}
		
		ai_will_do = {
			factor = 20
			modifier = {
				factor = 8
				has_tech = centralized_fire_control
			}
		}
	}
	
	artillery_regrouping = {

		xp_research_type = army
		xp_unlock_cost = 100
		
		category_all_artillery = {
			default_morale = 0.15
		}
		category_all_aa = {
			default_morale = 0.15
		}
		category_all_at = {
			default_morale = 0.15
		}

		path = {
			leads_to_tech = combined_forces_hq 
			research_cost_coeff = 1
		}
				
		doctrine = yes	
		research_cost = 4.5
		
		categories = {
			land_doctrine
			cat_superior_firepower
		}

		
		folder = {
			name = land_doctrine_folder
			position = { x = 2 y = 6 }
		}
		
		ai_will_do = {
			factor = 20			
		}
	}

		
	combined_forces_hq = {

		xp_research_type = army
		xp_unlock_cost = 100
		
		path = {
			leads_to_tech = deep_recon 
			research_cost_coeff = 1
		}
		category_army = {
			soft_attack = 0.1
			hard_attack = 0.1
		}
				
		doctrine = yes	
		research_cost = 4.5
		
		categories = {
			land_doctrine
			cat_superior_firepower
		}

		
		folder = {
			name = land_doctrine_folder
			position = { x = 0 y = 8 }
		}
		
		ai_will_do = {
			factor = 20			
		}
	}
		
	deep_recon = {

		xp_research_type = army
		xp_unlock_cost = 100
		
		path = {
			leads_to_tech = airmobile_infantry_ops 
			research_cost_coeff = 1
		}		

		category_army = {
			air_attack = 0.1
		}
		army_bonus_air_superiority_factor = 0.1
		shore_bombardment_bonus = 0.1
		signal_company = {
			battalion_mult = {
				category = category_all_at
				hard_attack = 0.05
			}
		}
		armored_signal = {
			battalion_mult = {
				category = category_all_at
				hard_attack = 0.05
			}
		}
				
		doctrine = yes	
		research_cost = 4.5
		
		categories = {
			land_doctrine
			cat_superior_firepower
		}

		
		folder = {
			name = land_doctrine_folder
			position = { x = 0 y = 10 }
		}
		
		ai_will_do = {
			factor = 20			
		}
		
	}
		
	airmobile_infantry_ops = {

		xp_research_type = army
		xp_unlock_cost = 100
		
		category_support_battalions = {
			soft_attack = 0.25
			hard_attack = 0.25
			max_organisation = 10
		}
			
		doctrine = yes	
		research_cost = 4.5
		
		categories = {
			land_doctrine
			cat_superior_firepower
		}

		
		folder = {
			name = land_doctrine_folder
			position = { x = 0 y = 12 }
		}
		
		ai_will_do = {
			factor = 20			
		}
	}
		
	global_path = {
		doctrine_name = "TITLE_GLOBAL_PATH"

		xp_research_type = army
		xp_unlock_cost = 100
				
		max_planning = 0.10
		naval_invasion_planning_bonus_speed = 0.2
		
		dependencies = {
			finished_land_doctrine = 1
			advanced_infantry_weapons_b = 1
			mechanised_infantry_a = 1
		}
		
		xor = { brussels_path warsaw_path berlin_path }
		
		path = {
			leads_to_tech = military_schools 
			research_cost_coeff = 1
		}
		path = {
			leads_to_tech = mechanized_surge
			research_cost_coeff = 1
		}
				
		doctrine = yes	
		research_cost = 4.5
		
		categories = {
			land_doctrine
			cat_grand_battle_plan
		}

		
		folder = {
			name = land_doctrine_folder
			position = { x = 0 y = 0 }
		}
		
		ai_will_do = {
			factor = 20
			# put in stormlands here
			# modifier = {
			# 	factor = 20
			# 	OR = {
			# 		original_tag = WNG
			# 		original_tag = RCT
			# 	}
			# }

			modifier = {
				factor = 8
				has_tech = grand_battle_plan
			}

			modifier = {
				factor = 2
				has_government = neutrality
			}

			modifier = {
				factor = 2
				OR = { is_faction_leader = yes is_major = yes }
				has_government = neutrality
			}

			modifier = {
				factor = 4
				OR = {
					AND = {
						is_faction_leader = no
						var:faction_leader = {
							OR = {
								has_tech = global_path
								is_researching_technology = global_path
							}
						}
					}
					AND = {
						is_subject = yes
						overlord = {
							OR = {
								has_tech = global_path
								is_researching_technology = global_path
							}
						}
					}
				}
			}
		}
	}
		
	military_schools = {

		xor = { mechanized_surge }

		xp_research_type = army
		xp_unlock_cost = 100
		category_light_infantry = {
			max_organisation = 5
			defense = 0.1
		}
		
		path = {
			leads_to_tech = non_mainstream_studies 
			research_cost_coeff = 1
		}
				
		doctrine = yes	
		research_cost = 4.5
		
		categories = {
			land_doctrine
			cat_grand_battle_plan
		}

		
		folder = {
			name = land_doctrine_folder
			position = { x = -2 y = 2 }
		}
		
		ai_will_do = {
			factor = 20
			modifier = {
				factor = 8
				has_tech = infantry_offensive
			}
		}
	}
		
	non_mainstream_studies = {

		xp_research_type = army
		xp_unlock_cost = 100
		
		category_light_infantry = {
			max_organisation = 5
			default_morale = 0.1
		}
		path = {
			leads_to_tech = emerging_power 
			research_cost_coeff = 1
		}				
		
		doctrine = yes	
		research_cost = 4.5
		
		categories = {
			land_doctrine
			cat_grand_battle_plan
		}

		
		folder = {
			name = land_doctrine_folder
			position = { x = -2 y = 4 }
		}
		
		ai_will_do = {
			factor = 20			
		}
		
	}

	mechanized_surge = {

		xor = { military_schools }
		xp_research_type = army
		xp_unlock_cost = 100
		category_vehicle_infantry = {
			max_organisation = 5
			breakthrough = 0.1
		}
		
		path = {
			leads_to_tech = full_spectrum_arms 
			research_cost_coeff = 1
		}
				
		doctrine = yes	
		research_cost = 4.5
		
		categories = {
			land_doctrine
			cat_grand_battle_plan
		}

		
		folder = {
			name = land_doctrine_folder
			position = { x = 2 y = 2 }
		}
		
		ai_will_do = {
			factor = 20
			modifier = {
				factor = 8
				has_tech = mechanised_offensive
			}
		}
	}
	full_spectrum_arms = {

		xp_research_type = army
		xp_unlock_cost = 100
		category_all_infantry = {
			max_organisation = 5
		}
		category_tanks = {
			max_organisation = 1
		}
		armored_car = {
			max_organisation = 2
		}
		
		path = {
			leads_to_tech = emerging_power 
			research_cost_coeff = 1
		}
				
		doctrine = yes	
		research_cost = 4.5
		
		categories = {
			land_doctrine
			cat_grand_battle_plan
		}

		
		folder = {
			name = land_doctrine_folder
			position = { x = 2 y = 4 }
		}
		
		ai_will_do = {
			factor = 20			
		}
	}
		
	emerging_power = {

		xp_research_type = army
		xp_unlock_cost = 100
		
		dig_in_speed_factor = 0.5
		max_planning = 0.05
		
		path = {
			leads_to_tech = expanded_entrenchments
			research_cost_coeff = 1
		}

		doctrine = yes	
		research_cost = 4.5
		
		categories = {
			land_doctrine
			cat_grand_battle_plan
		}

		
		folder = {
			name = land_doctrine_folder
			position = { x = 0 y = 6 }
		}
		
		ai_will_do = {
			factor = 20			
		}
		
	}
		
	expanded_entrenchments = {

		xp_research_type = army
		xp_unlock_cost = 100
					
		max_dig_in = 10
		path = {
			leads_to_tech = rapid_response 
			research_cost_coeff = 1
		}			
		path = {
			leads_to_tech = assymetric_warfare 
			research_cost_coeff = 1
		}
		
		doctrine = yes	
		research_cost = 4.5
		
		categories = {
			land_doctrine
			cat_grand_battle_plan
		}

		
		folder = {
			name = land_doctrine_folder
			position = { x = 0 y = 8 }
		}
		
		ai_will_do = {
			factor = 20			
		}
	}
		
		
	rapid_response = {

		xp_research_type = army
		xp_unlock_cost = 100
		
		planning_speed = 1
		land_reinforce_rate = 0.05
		
		xor = { assymetric_warfare } 

		path = {
			leads_to_tech = defensive_professional_army 
			research_cost_coeff = 1
		}
		maintenance_company = {
			battalion_mult = {
				category = category_all_infantry
				breakthrough = 0.05
			}
		}
		armored_maintenance = {
			battalion_mult = {
				category = category_all_infantry
				breakthrough = 0.05
			}
		}
		
		
		doctrine = yes	
		research_cost = 4.5
		
		categories = {
			land_doctrine
			cat_grand_battle_plan
		}

		
		folder = {
			name = land_doctrine_folder
			position = { x = -2 y = 10 }
		}
		
		ai_will_do = {
			factor = 20
			modifier = {
				factor = 8
				has_tech = mechanised_offensive
			}
		}
		
	}
		
	defensive_professional_army = {

		xp_research_type = army
		xp_unlock_cost = 100
		enable_tactic = tactic_tactical_withdrawal
		
		category_army = {
			breakthrough = 0.1
		}
		
		doctrine = yes	
		research_cost = 4.5
		
		categories = {
			land_doctrine
			cat_grand_battle_plan
		}

		
		folder = {
			name = land_doctrine_folder
			position = { x = -2 y = 12 }
		}
		
		ai_will_do = {
			factor = 20			
		}
	}

	
	assymetric_warfare = {

		xp_research_type = army
		xp_unlock_cost = 100
		enable_tactic = tactic_guerrilla_tactics
		
		supply_consumption_factor = -0.05
		no_supply_grace = 24	
		
		xor = { rapid_response } 
		
		path = {
			leads_to_tech = concealment_tactics 
			research_cost_coeff = 1
		}
		maintenance_company = {
			battalion_mult = {
				category = category_all_infantry
				defense = 0.05
			}
		}
		armored_maintenance = {
			battalion_mult = {
				category = category_all_infantry
				defense = 0.05
			}
		}
		
		doctrine = yes	
		research_cost = 4.5
		
		categories = {
			land_doctrine
			cat_grand_battle_plan
		}

		
		folder = {
			name = land_doctrine_folder
			position = { x = 2 y = 10 }
		}
		
		ai_will_do = {
			factor = 20
			modifier = {
				factor = 8
				has_tech = infantry_offensive
			}
		}
	}
		
	concealment_tactics = {

		xp_research_type = army
		xp_unlock_cost = 100
		
		category_army = {
			defense = 0.1
		}		

		doctrine = yes	
		research_cost = 4.5
		
		categories = {
			land_doctrine
			cat_grand_battle_plan
		}

		
		folder = {
			name = land_doctrine_folder
			position = { x = 2 y = 12 }
		}
		
		ai_will_do = {
			factor = 20			
		}
	}
		
	warsaw_path = {
		doctrine_name = "TITLE_WARSAW_PATH"

		xp_research_type = army
		xp_unlock_cost = 100
		
		xor = { berlin_path brussels_path global_path  }
		
		path = {
			leads_to_tech = armored_army 
			research_cost_coeff = 1
		}
		path = {
			leads_to_tech = modern_partisans
			research_cost_coeff = 1
		}
			
		pocket_penalty = -0.05
		land_reinforce_rate = 0.05

		dependencies = {
			finished_land_doctrine = 1
			advanced_infantry_weapons_b = 1
			mechanised_infantry_a = 1
		}
		
		doctrine = yes	
		research_cost = 4.5
		
		categories = {
			land_doctrine
			cat_mass_assault
		}

		
		folder = {
			name = land_doctrine_folder
			position = { x = 0 y = 0 }
		}
		
		ai_will_do = {
			factor = 20		
			modifier = {
				factor = 20
				original_tag = STG
			}
			modifier = {
				factor = 8
				has_tech = mass_assault
			}
			modifier = {
				factor = 2
				has_government = communism
			}
			modifier = {
				factor = 2
				OR = { is_faction_leader = yes is_major = yes }
				has_government = communism
			}
			modifier = {
				factor = 4
				OR = {
					AND = {
						is_faction_leader = no
						var:faction_leader = {
							OR = {
								has_tech = warsaw_path
								is_researching_technology = warsaw_path
							}
						}
					}
					AND = {
						is_subject = yes
						overlord = {
							OR = {
								has_tech = warsaw_path
								is_researching_technology = warsaw_path
							}
						}
					}
				}
			}
		}
	}	
		
	armored_army = {
		xor = { modern_partisans }
				
		xp_research_type = army
		xp_unlock_cost = 100
		
		path = {
			leads_to_tech = mechanized_manoeuvres 
			research_cost_coeff = 1
		}
		
		category_vehicle_infantry = {
			max_organisation = 5
			default_morale = 0.1
		}
			
			
		# category_all_armor = {
			# breakthrough = 0.1
			# soft_attack = 0.1
			# hard_attack = 0.1
		# }
				
		doctrine = yes	
		research_cost = 4.5
		
		categories = {
			land_doctrine
			cat_mass_assault
		}

		
		folder = {
			name = land_doctrine_folder
			position = { x = -2 y = 2 }
		}
		
		ai_will_do = {
			factor = 20
			modifier = {
				factor = 8
				has_tech = large_front_operations
			}
		}
	}	
		
	mechanized_manoeuvres = {
		
		xp_research_type = army
		xp_unlock_cost = 100
		
		org_loss_when_moving = -0.1
		category_tanks = {
			max_organisation = 2
		}
		category_all_armor = {
			default_morale = 0.1
		}
		armored_car = {
			max_organisation = 4
			default_morale = 0.1
		}
		
		path = {
			leads_to_tech = red_orchestra 
			research_cost_coeff = 1
		}
				
		doctrine = yes	
		research_cost = 4.5
		
		categories = {
			land_doctrine
			cat_mass_assault
		}

		
		folder = {
			name = land_doctrine_folder
			position = { x = -2 y = 4 }
		}
		
		ai_will_do = {
			factor = 20			
		}
	}	
	modern_partisans = {

		xor = { armored_army }
		
		xp_research_type = army
		xp_unlock_cost = 100
		
		resistance_growth_on_our_occupied_states = 0.25
		compliance_growth_on_our_occupied_states = -0.25
		category_light_infantry = {
			max_organisation = 5
		}
		
		path = {
			leads_to_tech = backup_supply_caches 
			research_cost_coeff = 1
		}
				
		doctrine = yes	
		research_cost = 4.5
		
		categories = {
			land_doctrine
			cat_mass_assault
		}

		
		folder = {
			name = land_doctrine_folder
			position = { x = 2 y = 2 }
		}
		
		ai_will_do = {
			factor = 20
			modifier = {
				factor = 8
				has_tech = peoples_army
			}
		}
	}	
	backup_supply_caches = {
		
		xp_research_type = army
		xp_unlock_cost = 100
		
		no_supply_grace = 72
		supply_combat_penalties_on_core_factor = -0.1		
		path = {
			leads_to_tech = red_orchestra 
			research_cost_coeff = 1
		}
				
		doctrine = yes	
		research_cost = 4.5
		
		categories = {
			land_doctrine
			cat_mass_assault
		}

		
		folder = {
			name = land_doctrine_folder
			position = { x = 2 y = 4 }
		}
		
		ai_will_do = {
			factor = 20			
		}
	}
		
	red_orchestra = {
		
		xp_research_type = army
		xp_unlock_cost = 100
		
		motorized = {
			combat_width = -0.4
		}
		mechanized = {
			combat_width = -0.4
		}
		magical_motorized = {
			combat_width = -0.4
		}
		magical_mechanized = {
			combat_width = -0.4
		}
		land_reinforce_rate = 0.05
		
		path = {
			leads_to_tech = theater_operational_organisation 
			research_cost_coeff = 1
		}
				
		doctrine = yes	
		research_cost = 4.5
		
		categories = {
			land_doctrine
			cat_mass_assault
		}

		
		folder = {
			name = land_doctrine_folder
			position = { x = 0 y = 6 }
		}
		
		ai_will_do = {
			factor = 20			
		}
	}		
		
	theater_operational_organisation = {
		
		xp_research_type = army
		xp_unlock_cost = 100
		
		supply_consumption_factor = -0.10
		category_all_infantry = {
			default_morale = 0.1
		}
		
		path = {
			leads_to_tech = modern_mechanized_formations 
			research_cost_coeff = 1
		}
				
		doctrine = yes	
		research_cost = 4.5
		
		categories = {
			land_doctrine
			cat_mass_assault
		}

		
		folder = {
			name = land_doctrine_folder
			position = { x = 0 y = 8 }
		}
		
		ai_will_do = {
			factor = 20			
		}
	}		
		
	modern_mechanized_formations = {
		
		xp_research_type = army
		xp_unlock_cost = 100
		
		path = {
			leads_to_tech = armor_heli_combined_ops 
			research_cost_coeff = 1
		}
			
		category_army = {
			default_morale = 0.2
		}
		field_hospital = {
			battalion_mult = {
				category = category_all_armor
				max_organisation = 1
				add = yes
			}
		}
		
		doctrine = yes	
		research_cost = 4.5
		
		categories = {
			land_doctrine
			cat_mass_assault
		}

		
		folder = {
			name = land_doctrine_folder
			position = { x = 0 y = 10 }
		}
		
		ai_will_do = {
			factor = 20			
		}
	}	
		
	armor_heli_combined_ops = {
				
		xp_research_type = army
		xp_unlock_cost = 100
		
		doctrine = yes	
		research_cost = 4.5
		

		category_all_infantry = {
			max_organisation = 10
		}
		land_reinforce_rate = 0.15

		categories = {
			land_doctrine
			cat_mass_assault
		}
		
		folder = {
			name = land_doctrine_folder
			position = { x = 0 y = 12 }
		}
		
		ai_will_do = {
			factor = 20			
		}
	}

}
