#####-----------------------------------------------------------> Mod by Sig "Greatexperiment" Altre

technologies = {

	@993 = 1
	@1007 = 7
	@1011 = 13
	@1015 = 19
	@1019 = 25
	@1023 = 31
	@1027 = 37

	early_destroyer = {

		dependencies = {
			infantry_weapons = 1
		}

		enable_equipments = {
			destroyer_1
		}

		path = {
			leads_to_tech = basic_destroyer
			research_cost_coeff = 1
		}

		research_cost = 1.5

		start_year = 993

		folder = {
			name = naval_folder
			position = { x = 0 y = @993 }
		}

		ai_will_do = {
			factor = 1

		}

		categories = {
			naval_equipment
			dd_tech
			mio_cat_tech_all_screen_ship_and_modules
			mio_cat_tech_all_destroyer_and_modules
		}
		special_project_specialization = { specialization_naval }
	}

	basic_destroyer = {

		enable_equipments = {
			destroyer_2
		}
		
		enable_equipment_modules = {
			tank_naval_cannon
		}

		path = {
			leads_to_tech = improved_destroyer
			research_cost_coeff = 1
		}

		research_cost = 2

		start_year = 1007

		folder = {
			name = naval_folder
			position = { x = 0 y = @1007 }
		}

		ai_will_do = {
			factor = 1

		}

		categories = {
			naval_equipment
			dd_tech
			mio_cat_tech_all_screen_ship_and_modules
			mio_cat_tech_all_destroyer_and_modules
		}
		special_project_specialization = { specialization_naval }
	}

	improved_destroyer = {

		enable_equipments = {
			destroyer_3
		}

		path = {
			leads_to_tech = advanced_destroyer
			research_cost_coeff = 1
		}

		research_cost = 2

		start_year = 1011

		folder = {
			name = naval_folder
			position = { x = 0 y = @1011 }
		}

		ai_will_do = {
			factor = 1

		}

		categories = {
			naval_equipment
			dd_tech
			mio_cat_tech_all_screen_ship_and_modules
			mio_cat_tech_all_destroyer_and_modules
		}
		special_project_specialization = { specialization_naval }
	}

	###------> Old Destroyer (1015) <><> <><> <><> <><> <><>

	advanced_destroyer = {

		enable_equipments = {
			destroyer_4
		}

		path = {
			leads_to_tech = semi_modern_destroyer
			research_cost_coeff = 1
		}

		research_cost = 2

		start_year = 1015

		folder = {
			name = naval_folder
			position = { x = 0 y = @1015 }
		}

		ai_will_do = {
			factor = 1

		}

		categories = {
			naval_equipment
			dd_tech
			mio_cat_tech_all_screen_ship_and_modules
			mio_cat_tech_all_destroyer_and_modules
		}
		special_project_specialization = { specialization_naval }
	}

	###------> X <><> <><> <><> <><> <><>

	early_light_cruiser = {

		dependencies = {
			infantry_weapons = 1
		}

		enable_equipments = {
			light_cruiser_1
		}
		on_research_complete = {
			custom_effect_tooltip = {
				localization_key = SP_UNLOCK_PROJECT
				PROJECT = sp_naval_torpedo_cruiser
			}
		}
		path = {
			leads_to_tech = basic_light_cruiser
			research_cost_coeff = 1
			ignore_for_layout = yes
		}

		research_cost = 1.5

		start_year = 993

		folder = {
			name = naval_folder
			position = { x = -1 y = @993 }
		}

		ai_will_do = {
			factor = 1

		}
		categories = {
			naval_artillery
			naval_equipment
			cl_tech
			mio_cat_tech_all_screen_ship_and_modules
			mio_cat_tech_all_cruiser_and_modules
		}
		special_project_specialization = { specialization_naval }
	}

	basic_light_cruiser = {

		enable_equipments = {
			light_cruiser_2
		}

		path = {
			leads_to_tech = improved_light_cruiser
			research_cost_coeff = 1
		}

		path = {
			leads_to_tech = basic_heavy_cruiser
			research_cost_coeff = 0.75
		}

		research_cost = 2

		start_year = 1007

		folder = {
			name = naval_folder
			position = { x = -1 y = @1007 }
		}

		ai_will_do = {
			factor = 1

		}

		categories = {
			naval_artillery
			naval_equipment
			cl_tech
			mio_cat_tech_all_screen_ship_and_modules
			mio_cat_tech_all_cruiser_and_modules
		}
		special_project_specialization = { specialization_naval }
	}

	improved_light_cruiser = {

		enable_equipments = {
			light_cruiser_3
		}

		path = {
			leads_to_tech = advanced_light_cruiser
			research_cost_coeff = 1
		}

		path = {
			leads_to_tech = improved_heavy_cruiser
			research_cost_coeff = 0.75
		}

		research_cost = 2

		start_year = 1011

		folder = {
			name = naval_folder
			position = { x = -1 y = @1011 }
		}

		ai_will_do = {
			factor = 1

		}

		categories = {
			naval_artillery
			naval_equipment
			cl_tech
			mio_cat_tech_all_screen_ship_and_modules
			mio_cat_tech_all_cruiser_and_modules
		}
		special_project_specialization = { specialization_naval }
	}

	###------> Old Light Cruiser (1015) <><> <><> <><> <><> <><>

	advanced_light_cruiser = {

		enable_equipments = {
			light_cruiser_4
		}

		path = {
			leads_to_tech = advanced_heavy_cruiser
			research_cost_coeff = 0.75
		}
		path = {
			leads_to_tech = semi_modern_light_cruiser
			research_cost_coeff = 1
		}

		research_cost = 2

		start_year = 1015

		folder = {
			name = naval_folder
			position = { x = -1 y = @1015 }
		}

		ai_will_do = {
			factor = 1

		}

		categories = {
			naval_artillery
			naval_equipment
			cl_tech
			mio_cat_tech_all_screen_ship_and_modules
			mio_cat_tech_all_cruiser_and_modules
		}
		special_project_specialization = { specialization_naval }
	}

	###------> X <><> <><> <><> <><> <><>

	early_heavy_cruiser = {

		dependencies = {
			infantry_weapons = 1
		}

		enable_equipments = {
			heavy_cruiser_1
		}

		path = {
			leads_to_tech = basic_heavy_cruiser
			research_cost_coeff = 1
		}

		research_cost = 1.5

		start_year = 993

		folder = {
			name = naval_folder
			position = { x = 1 y = @993 }
		}

		ai_will_do = {
			factor = 1
		}

		categories = {
			naval_artillery
			naval_equipment
			ca_tech
			mio_cat_tech_all_capital_ship_and_modules
			mio_cat_tech_all_cruiser_and_modules
		}
		special_project_specialization = { specialization_naval }
	}

	basic_heavy_cruiser = {

		enable_equipments = {
			heavy_cruiser_2
		}

		path = {
			leads_to_tech = improved_heavy_cruiser
			research_cost_coeff = 1
		}

		path = {
			leads_to_tech = basic_light_cruiser
			research_cost_coeff = 0.75
		}

		research_cost = 2

		start_year = 1007

		folder = {
			name = naval_folder
			position = { x = 1 y = @1007 }
		}

		ai_will_do = {
			factor = 1
		}

		categories = {
			naval_artillery
			naval_equipment
			ca_tech
			mio_cat_tech_all_capital_ship_and_modules
			mio_cat_tech_all_cruiser_and_modules
		}
		special_project_specialization = { specialization_naval }
	}

	improved_heavy_cruiser = {

		enable_equipments = {
			heavy_cruiser_3
		}

		path = {
			leads_to_tech = advanced_heavy_cruiser
			research_cost_coeff = 1
		}

		path = {
			leads_to_tech = improved_light_cruiser
			research_cost_coeff = 0.75
		}

		research_cost = 2

		start_year = 1011

		folder = {
			name = naval_folder
			position = { x = 1 y = @1011 }
		}

		ai_will_do = {
			factor = 1
		}

		categories = {
			naval_artillery
			naval_equipment
			ca_tech
			mio_cat_tech_all_capital_ship_and_modules
			mio_cat_tech_all_cruiser_and_modules
		}
		special_project_specialization = { specialization_naval }
	}

	###------> Old Heavy Cruiser (1015) <><> <><> <><> <><> <><>

	advanced_heavy_cruiser = {

		enable_equipments = {
			heavy_cruiser_4
		}

		path = {
			leads_to_tech = advanced_light_cruiser
			research_cost_coeff = 0.75
		}
		path = {
			leads_to_tech = semi_modern_heavy_cruiser
			research_cost_coeff = 1
		}

		research_cost = 2

		start_year = 1015

		folder = {
			name = naval_folder
			position = { x = 1 y = @1015 }
		}

		ai_will_do = {
			factor = 1
		}

		categories = {
			naval_artillery
			naval_equipment
			ca_tech
			mio_cat_tech_all_capital_ship_and_modules
			mio_cat_tech_all_cruiser_and_modules
		}
		special_project_specialization = { specialization_naval }
	}

	###------> X <><> <><> <><> <><> <><>

	early_battlecruiser = {

		dependencies = {
			infantry_weapons = 1
		}

		enable_equipments = {
			battle_cruiser_1
		}

		path = {
			leads_to_tech = basic_battlecruiser
			research_cost_coeff = 1
			ignore_for_layout = yes
		}

		research_cost = 1.5

		start_year = 993

		folder = {
			name = naval_folder
			position = { x = -1 y = @993 }
		}

		ai_will_do = {
			factor = 1
		}

		categories = {
			naval_artillery
			naval_equipment
			bc_tech
			mio_cat_tech_all_capital_ship_and_modules
		}
		special_project_specialization = { specialization_naval }
	}

	###------> Old Battlecruiser (1015) <><> <><> <><> <><> <><>

	basic_battlecruiser = {

		enable_equipments = {
			battle_cruiser_2
		}

		path = {
			leads_to_tech = improved_battleship
			research_cost_coeff = 0.75
		}
		path = {
			leads_to_tech = improved_battlecruiser
			research_cost_coeff = 1
		}

		research_cost = 2

		start_year = 1011

		folder = {
			name = naval_folder
			position = { x = -1 y = @1011 }
		}

		ai_will_do = {
			factor = 1
		}

		categories = {
			naval_artillery
			naval_equipment
			bc_tech
			mio_cat_tech_all_capital_ship_and_modules
		}
		special_project_specialization = { specialization_naval }
	}

	###------> X <><> <><> <><> <><> <><>

	early_battleship = {

		dependencies = {
			infantry_weapons = 1
		}

		enable_equipments = {
			battleship_1
		}
		on_research_complete = {
			custom_effect_tooltip = {
				localization_key = SP_UNLOCK_PROJECT
				PROJECT = sp_naval_super_heavy_battleship
			}
		}
		path = {
			leads_to_tech = basic_battleship
			research_cost_coeff = 1
		}


		research_cost = 1.5
		start_year = 993

		folder = {
			name = naval_folder
			position = { x = 1 y = @993 }
		}

		ai_will_do = {
			factor = 1
		}

		categories = {
			naval_artillery
			naval_equipment
			bb_tech
			mio_cat_tech_all_capital_ship_and_modules
		}
		special_project_specialization = { specialization_naval }
	}

	basic_battleship = {

		enable_equipments = {
			battleship_2
		}

		path = {
			leads_to_tech = improved_battleship
			research_cost_coeff = 1
		}

		path = {
			leads_to_tech = heavy_battleship2
			research_cost_coeff = 1
		}

		research_cost = 2
		start_year = 1007

		folder = {
			name = naval_folder
			position = { x = 1 y = @1007 }
		}

		ai_will_do = {
			factor = 1
		}

		categories = {
			naval_artillery
			naval_equipment
			bb_tech
			mio_cat_tech_all_capital_ship_and_modules
		}
		special_project_specialization = { specialization_naval }
	}

	improved_battleship = {

		enable_equipments = {
			battleship_3
		}

		path = {
			leads_to_tech = advanced_battleship
			research_cost_coeff = 1
		}
		path = {
			leads_to_tech = basic_battlecruiser
			research_cost_coeff = 0.75
		}

		research_cost = 2
		start_year = 1011

		folder = {
			name = naval_folder
			position = { x = 1 y = @1011 }
		}

		ai_will_do = {
			factor = 1
		}

		categories = {
			naval_artillery
			naval_equipment
			bb_tech
			mio_cat_tech_all_capital_ship_and_modules
		}
		special_project_specialization = { specialization_naval }
	}

	###------> Old Battleship (1015) <><> <><> <><> <><> <><>

	advanced_battleship = {

		enable_equipments = {
			battleship_4
		}

		# path = {
		# 	leads_to_tech = heavy_battleship2
		# 	research_cost_coeff = 0.75
		# }
		path = {
			leads_to_tech = semi_modern_battleship
			research_cost_coeff = 1
		}
		# on_research_complete = {
		# 	if = {
		# 		limit = { has_dlc = "Gotterdammerung"}
		# 		custom_effect_tooltip = {
		# 			localization_key = SP_UNLOCK_PROJECT
		# 			PROJECT = sp_naval_modern_battleship
		# 		}
		# 	}
		# }
		research_cost = 2
		start_year = 1015

		folder = {
			name = naval_folder
			position = { x = 1 y = @1015 }
		}

		ai_will_do = {
			factor = 1
		}

		categories = {
			naval_artillery
			naval_equipment
			bb_tech
			mio_cat_tech_all_capital_ship_and_modules
		}
		special_project_specialization = { specialization_naval }
	}

	###------> X <><> <><> <><> <><> <><>

	heavy_battleship = {

		enable_equipments = {
			SH_battleship_1
		}

		# path = {
		# 	leads_to_tech = heavy_battleship2
		# 	research_cost_coeff = 1
		# }

		research_cost = 2
		start_year = 1007

		# folder = {
		# 	name = naval_folder
		# 	position = { x = 3 y = @1007 }
		# }

		ai_will_do = {
			factor = 1
		}
		allow = {
			always = no
		}
		categories = {
			naval_equipment
			shbb_tech
			mio_cat_tech_all_capital_ship_and_modules
		}
		special_project_specialization = { specialization_naval }
	}

	###------> Old Heavy Battleship (1015) <><> <><> <><> <><> <><>

	heavy_battleship2 = {

		enable_equipments = {
			SH_battleship_2
		}
		allow = {
			ROOT = {
			   is_special_project_completed = sp:sp_naval_super_heavy_battleship
		   }
	   }
		research_cost = 2

		is_special_project_tech = yes
		start_year = 1015

		path = {
			leads_to_tech = heavy_battleship3
			research_cost_coeff = 1
		}
		folder = {
			name = naval_folder
			position = { x = 3 y = @1015 }
		}

		ai_will_do = {
			factor = 1
		}

		categories = {
			naval_equipment
			shbb_tech
			mio_cat_tech_all_capital_ship_and_modules
		}
		special_project_specialization = { specialization_naval }
	}

	###------> X <><> <><> <><> <><> <><>

	transport = {

		transport_capacity = -0.33
		naval_invasion_capacity = 10

		path = {
			leads_to_tech = landing_craft
			research_cost_coeff = 1
		}
		path = {
			leads_to_tech = sp_multi_product_supply_ships
			research_cost_coeff = 1
		}
		research_cost = 1.5
		start_year = 993

		folder = {
			name = naval_folder
			position = { x = 0 y = @993 }
		}

		ai_will_do = {
			factor = 1
			
			modifier = {
				factor = 0.5
				has_war = no
			}
			
			modifier = {
				is_major = yes
				NOT = {
					any_enemy_country = {
						is_neighbor_of = ROOT
					}
				}
				factor = 2.5
			}
		}

		categories = {
			naval_equipment
			tp_tech
		}
		special_project_specialization = { specialization_naval }

	}

	landing_craft = {

		invasion_preparation = -0.25
		amphibious_invasion_defence = 0.15
		naval_invasion_capacity = 20

		dependencies = {
			infantry_weapons = 1
		}

		path = {
			leads_to_tech = tank_landing_craft
			research_cost_coeff = 1
		}

		enable_equipments = {
			floating_harbor_equipment_1
		}

		force_use_small_tech_layout = yes
		show_equipment_icon = yes		

		research_cost = 2
		start_year = 1011

		folder = {
			name = naval_folder
			position = { x = 0 y = @1011 }
		}

		ai_will_do = {
			factor = 2
			
			modifier = {
				factor = 0.5
				has_war = no
			}
			
		}

		categories = {
			naval_equipment
			tp_tech
		}
		special_project_specialization = { specialization_naval }
	}

	###------> Old Landing Craft (1015)<><> <><> <><> <><> <><>

	tank_landing_craft = {

		amphibious_invasion = 0.25
		amphibious_invasion_defence = 0.5
		naval_invasion_capacity = 100

		path = {
			leads_to_tech = semi_modern_landing_craft
			research_cost_coeff = 1
		}

		research_cost = 2
		start_year = 1015

		folder = {
			name = naval_folder
			position = { x = 0 y = @1015 }
		}

		ai_will_do = {
			factor = 2
			
			modifier = {
				factor = 0.5
				has_war = no
			}

		}

		categories = {
			naval_equipment
			tp_tech
		}
		special_project_specialization = { specialization_naval }
	}

	###------> X <><> <><> <><> <><> <><>

	early_carrier = {

		dependencies = {
			infantry_weapons = 1
		}
		on_research_complete = {
			if = {
				limit = {
					is_pony_race = yes
				}
				custom_effect_tooltip = {
					localization_key = SP_UNLOCK_PROJECT
					PROJECT = sp_cloud_carrier	
				}
			}
		}

		enable_equipments = {
			carrier_1
		}

		path = {
			leads_to_tech = basic_carrier
			research_cost_coeff = 1
		}
		path = {
			leads_to_tech = early_light_carrier
			research_cost_coeff = 0.75
		}

		research_cost = 1.5

		start_year = 993

		folder = {
			name = naval_folder
			position = { x = 2 y = @993 }
		}

		ai_will_do = {
			factor = 1

		}

		categories = {
			naval_equipment
			cv_tech
			mio_cat_tech_all_carrier_and_modules
		}
		special_project_specialization = { specialization_naval }
	}

	basic_carrier = {

		enable_equipments = {
			carrier_2
		}

		path = {
			leads_to_tech = improved_carrier
			research_cost_coeff = 1
		}

		path = {
			research_cost_coeff = 0.75
		}

		research_cost = 2
		start_year = 1007

		folder = {
			name = naval_folder
			position = { x = 2 y = @1007 }
		}

		ai_will_do = {
			factor = 1

		}

		categories = {
			naval_equipment
			cv_tech
			mio_cat_tech_all_carrier_and_modules
		}
		special_project_specialization = { specialization_naval }
	}

	improved_carrier = {

		enable_equipments = {
			carrier_3
		}

		path = {
			leads_to_tech = advanced_carrier
			research_cost_coeff = 1
		}
		on_research_complete = {
			if = { 
				limit = { has_dlc = "Gotterdammerung"}
				custom_effect_tooltip = {
					localization_key = SP_UNLOCK_PROJECT
					PROJECT = sp_naval_ice_carrier	
				}
			}
		}
		research_cost = 2

		start_year = 1011

		folder = {
			name = naval_folder
			position = { x = 2 y = @1011 }
		}

		ai_will_do = {
			factor = 1

		}

		categories = {
			naval_equipment
			cv_tech
			mio_cat_tech_all_carrier_and_modules
		}
		special_project_specialization = { specialization_naval }
	}

	###------> Old Carrier (1015) <><> <><> <><> <><> <><>

	advanced_carrier = {

		enable_equipments = {
			carrier_4
		}

		research_cost = 2

		start_year = 1015
		path = {
			leads_to_tech = semi_modern_carrier
			research_cost_coeff = 1
		}
		# on_research_complete = {
		# 	if = {
		# 		limit = {has_dlc = "Gotterdammerung"}
		# 		custom_effect_tooltip = {
		# 			localization_key = SP_UNLOCK_PROJECT
		# 			PROJECT = sp_naval_modern_carrier	
		# 		}
		# 	}
		# }

		folder = {
			name = naval_folder
			position = { x = 2 y = @1015 }
		}

		ai_will_do = {
			factor = 1

		}

		categories = {
			naval_equipment
			cv_tech
			mio_cat_tech_all_carrier_and_modules
		}
		special_project_specialization = { specialization_naval }
	}

	###------> Light Carriers <><> <><> <><> <><> <><>
	
	early_light_carrier = {

		dependencies = {
			infantry_weapons = 1
		}

		enable_equipments = {
			light_carrier_1
		}

		research_cost = 1.5

		start_year = 993

		folder = {
			name = naval_folder
			position = { x = 0 y = @993 }
		}

		ai_will_do = {
			factor = 1

		}

		categories = {
			naval_equipment
			cv_tech
			mio_cat_tech_all_carrier_and_modules
		}
		special_project_specialization = { specialization_naval }
	}
	###------> X <><> <><> <><> <><> <><>

	early_submarine = {

		dependencies = {
			infantry_weapons = 1
		}

		enable_equipments = {
			submarine_1
		}
		on_research_complete = {
			custom_effect_tooltip = {
				localization_key = SP_UNLOCK_PROJECT
				PROJECT = sp_naval_cruiser_submarine
			}
			custom_effect_tooltip = {
				localization_key = SP_UNLOCK_PROJECT
				PROJECT = sp_naval_midget_submarine
			}		
			hidden_effect = {
				if = {
					limit = {
						original_tag = KIS
						has_country_flag = KIS_event_48_no_mtg_flag
					}
					create_equipment_variant = {
						name = "Modernised Coastal Submarine"
						type = submarine_1 #in ship_hull_submarine.txt
						parent_version = 0
						modules = { #necessary(otherwise this copys O Type), should be same with default_modules
							fixed_ship_torpedo_slot = ship_torpedo_sub_1
							fixed_ship_engine_slot = sub_ship_engine_1
							rear_1_custom_slot = ship_torpedo_sub_1
							fixed_ship_fire_control_system_slot = ship_torpedo_data_computer_0
						}
						upgrades = {
							ship_reliability_upgrade = 0
							sub_torpedo_upgrade = 0
							sub_stealth_upgrade = 0
							sub_engine_upgrade = 0
						}
					}
					clr_country_flag = KIS_event_48_no_mtg_flag
				}
			}	
		}

		path = {
			leads_to_tech = basic_submarine
			research_cost_coeff = 1
		}

		research_cost = 1.5

		start_year = 993

		folder = {
			name = naval_folder
			position = { x = 0 y = @993 }
		}
		

		ai_will_do = {
			factor = 1

		}

		categories = {
			naval_equipment
			ss_tech
			mio_cat_tech_all_submarine_and_modules
		}
		special_project_specialization = { specialization_naval }
	}

	basic_submarine = {

		enable_equipments = {
			submarine_2
		}

		path = {
			leads_to_tech = improved_submarine
			research_cost_coeff = 1
		}
		on_research_complete = {
			if = {
				limit = { has_dlc = "Gotterdammerung"}
				custom_effect_tooltip = {
					localization_key = SP_UNLOCK_PROJECT
					PROJECT = sp_naval_anechoic_tiles
				}
				custom_effect_tooltip = {
					localization_key = SP_UNLOCK_PROJECT
					PROJECT = sp_naval_aip_engine
				}				
			}
			custom_effect_tooltip = {
				localization_key = SP_UNLOCK_PROJECT
				PROJECT = sp_naval_fleet_submarine
			}	
		}
		research_cost = 2
		start_year = 1007

		folder = {
			name = naval_folder
			position = { x = 0 y = 7 }
		}

		ai_will_do = {
			factor = 1

		}

		categories = {
			naval_equipment
			ss_tech
			mio_cat_tech_all_submarine_and_modules
		}
		special_project_specialization = { specialization_naval }
	}

	improved_submarine = {

		enable_equipments = {
			submarine_3
		}

		path = {
			leads_to_tech = advanced_submarine
			research_cost_coeff = 1
		}

		research_cost = 2

		start_year = 1011

		folder = {
			name = naval_folder
			position = { x = 0 y = @1011 }
		}

		ai_will_do = {
			factor = 1

		}

		categories = {
			naval_equipment
			ss_tech
			mio_cat_tech_all_submarine_and_modules
		}
		special_project_specialization = { specialization_naval }
	}

	###------> Old Submarine (1015) <><> <><> <><> <><> <><>

	advanced_submarine = {

		enable_equipments = {
			submarine_4
		}

		research_cost = 2

		start_year = 1015

		
		path = {
			leads_to_tech = semi_modern_submarine
			research_cost_coeff = 1
		}
		folder = {
			name = naval_folder
			position = { x = 0 y = @1015 }
		}

		ai_will_do = {
			factor = 1
		}

		categories = {
			naval_equipment
			ss_tech
			mio_cat_tech_all_submarine_and_modules
		}
		special_project_specialization = { specialization_naval }
	}
	###------> X <><> <><> <><> <><> <><>

	###------> New Destroyer (1019) (1023) <><> <><> <><> <><> <><>

	semi_modern_destroyer = {

		enable_equipments = {
			destroyer_5
		}

		research_cost = 2

		start_year = 1019
		path = {
			leads_to_tech = modern_destroyer
			research_cost_coeff = 1
		}

		folder = {
			name = naval_folder
			position = { x = 0 y = @1019 }
		}

		ai_will_do = {
			factor = 1

		}

		categories = {
			naval_equipment
			dd_tech
			mio_cat_tech_all_screen_ship_and_modules
			mio_cat_tech_all_destroyer_and_modules
		}
		special_project_specialization = { specialization_naval }
	}

	modern_destroyer = {

		enable_equipments = {
			destroyer_6
		}

		research_cost = 2.5

		start_year = 1023

		folder = {
			name = naval_folder
			position = { x = 0 y = @1023 }
		}

		ai_will_do = {
			factor = 1

		}

		categories = {
			naval_equipment
			dd_tech
			mio_cat_tech_all_screen_ship_and_modules
			mio_cat_tech_all_destroyer_and_modules
		}
		special_project_specialization = { specialization_naval }
	}

	###------> X <><> <><> <><> <><> <><>

	###------> New Cruisers (1019) (1023) <><> <><> <><> <><> <><>

	semi_modern_light_cruiser = {

		enable_equipments = {
			light_cruiser_5
		}

		path = {
			leads_to_tech = semi_modern_heavy_cruiser
			research_cost_coeff = 0.75
		}
		path = {
			leads_to_tech = modern_light_cruiser
			research_cost_coeff = 1
		}

		research_cost = 2

		start_year = 1019

		folder = {
			name = naval_folder
			position = { x = -1 y = @1019 }
		}

		ai_will_do = {
			factor = 1

		}

		categories = {
			naval_artillery
			naval_equipment
			cl_tech
			mio_cat_tech_all_screen_ship_and_modules
			mio_cat_tech_all_cruiser_and_modules
		}
		special_project_specialization = { specialization_naval }
	}

	modern_light_cruiser = {

		enable_equipments = {
			light_cruiser_6
		}

		path = {
			leads_to_tech = modern_heavy_cruiser
			research_cost_coeff = 0.75
		}

		research_cost = 2

		start_year = 1023

		folder = {
			name = naval_folder
			position = { x = -1 y = @1023 }
		}

		ai_will_do = {
			factor = 1

		}

		categories = {
			naval_artillery
			naval_equipment
			cl_tech
			mio_cat_tech_all_screen_ship_and_modules
			mio_cat_tech_all_cruiser_and_modules
		}
		special_project_specialization = { specialization_naval }
	}
	
	semi_modern_heavy_cruiser = {

		enable_equipments = {
			heavy_cruiser_5
		}

		path = {
			leads_to_tech = semi_modern_light_cruiser
			research_cost_coeff = 0.75
		}
		path = {
			leads_to_tech = modern_heavy_cruiser
			research_cost_coeff = 1
		}

		research_cost = 2

		start_year = 1019

		folder = {
			name = naval_folder
			position = { x = 1 y = @1019 }
		}

		ai_will_do = {
			factor = 1
		}

		categories = {
			naval_artillery
			naval_equipment
			ca_tech
			mio_cat_tech_all_capital_ship_and_modules
			mio_cat_tech_all_cruiser_and_modules
		}
		special_project_specialization = { specialization_naval }
	}
	
	modern_heavy_cruiser = {

		enable_equipments = {
			heavy_cruiser_6
		}

		path = {
			leads_to_tech = modern_light_cruiser
			research_cost_coeff = 0.75
		}

		research_cost = 2

		start_year = 1023

		folder = {
			name = naval_folder
			position = { x = 1 y = @1023 }
		}

		ai_will_do = {
			factor = 1
		}

		categories = {
			naval_artillery
			naval_equipment
			ca_tech
			mio_cat_tech_all_capital_ship_and_modules
			mio_cat_tech_all_cruiser_and_modules
		}
		special_project_specialization = { specialization_naval }
	}

	###------> X <><> <><> <><> <><> <><>

	
	improved_battlecruiser = {

		enable_equipments = {
			battle_cruiser_3
		}

		path = {
			leads_to_tech = semi_modern_battleship
			research_cost_coeff = 0.75
		}

		research_cost = 2

		start_year = 1019

		folder = {
			name = naval_folder
			position = { x = -1 y = @1019 }
		}

		ai_will_do = {
			factor = 1
		}

		categories = {
			naval_artillery
			naval_equipment
			bc_tech
			mio_cat_tech_all_capital_ship_and_modules
		}
		special_project_specialization = { specialization_naval }
	}


	semi_modern_battleship = {

		enable_equipments = {
			battleship_5
		}

		path = {
			leads_to_tech = modern_battleship
			research_cost_coeff = 1
		}
		path = {
			leads_to_tech = improved_battlecruiser
			research_cost_coeff = 0.75
		}

		research_cost = 2
		start_year = 1019

		folder = {
			name = naval_folder
			position = { x = 1 y = @1019 }
		}

		ai_will_do = {
			factor = 1
		}

		categories = {
			naval_artillery
			naval_equipment
			bb_tech
			mio_cat_tech_all_capital_ship_and_modules
		}
		special_project_specialization = { specialization_naval }
	}
	modern_battleship = {

		enable_equipments = {
			battleship_6
		}

		research_cost = 2
		start_year = 1023
		path = {
			leads_to_tech = heavy_battleship3
			research_cost_coeff = 0.75
		}

		folder = {
			name = naval_folder
			position = { x = 1 y = @1023 }
		}

		ai_will_do = {
			factor = 1
		}

		categories = {
			naval_artillery
			naval_equipment
			bb_tech
			mio_cat_tech_all_capital_ship_and_modules
		}
		special_project_specialization = { specialization_naval }
	}
	heavy_battleship3 = {
		
		enable_equipments = {
			SH_battleship_3
		}

		research_cost = 2

		start_year = 1023

		folder = {
			name = naval_folder
			position = { x = 3 y = @1023 }
		}

		ai_will_do = {
			factor = 1
		}

		categories = {
			naval_equipment
			shbb_tech
			mio_cat_tech_all_capital_ship_and_modules
		}
		special_project_specialization = { specialization_naval }
	}


	semi_modern_carrier = {

		enable_equipments = {
			carrier_5
		}

		research_cost = 2

		start_year = 1019
		path = {
			leads_to_tech = modern_carrier
			research_cost_coeff = 1
		}

		folder = {
			name = naval_folder
			position = { x = 2 y = @1019 }
		}

		ai_will_do = {
			factor = 1

		}

		categories = {
			naval_equipment
			cv_tech
			mio_cat_tech_all_carrier_and_modules
		}
		special_project_specialization = { specialization_naval }
	}

	modern_carrier = {

		enable_equipments = {
			carrier_6
		}

		research_cost = 2

		start_year = 1023

		folder = {
			name = naval_folder
			position = { x = 2 y = @1023 }
		}

		on_research_complete = {
			custom_effect_tooltip = {
				localization_key = SP_UNLOCK_PROJECT
				PROJECT = sp_naval_supercarrier
			}
		}	
		ai_will_do = {
			factor = 1

		}

		categories = {
			naval_equipment
			cv_tech
			mio_cat_tech_all_carrier_and_modules
		}
		special_project_specialization = { specialization_naval }
	}
	
	semi_modern_submarine = {

		enable_equipments = {
			submarine_5
		}

		research_cost = 2

		start_year = 1019
		path = {
			leads_to_tech = modern_submarine
			research_cost_coeff = 1
		}

		folder = {
			name = naval_folder
			position = { x = 0 y = @1019 }
		}

		ai_will_do = {
			factor = 1
		}

		categories = {
			naval_equipment
			ss_tech
			mio_cat_tech_all_submarine_and_modules
		}
		special_project_specialization = { specialization_naval }
	}
	modern_submarine = {

		enable_equipments = {
			submarine_6
		}

		research_cost = 2

		start_year = 1023

		folder = {
			name = naval_folder
			position = { x = 0 y = @1023 }
		}

		ai_will_do = {
			factor = 1
		}

		categories = {
			naval_equipment
			ss_tech
			mio_cat_tech_all_submarine_and_modules
		}
		special_project_specialization = { specialization_naval }
	}
	###------> New Landing Craft (1019) (1023) <><> <><> <><> <><> <><>

	semi_modern_landing_craft = {

		invasion_preparation = -0.25
		amphibious_invasion = 0.3
		naval_invasion_capacity = 125
		on_research_complete = {
			custom_effect_tooltip = {
				localization_key = SP_UNLOCK_PROJECT
				PROJECT = sp_naval_hovercraft	
			}
		}

		path = {
			leads_to_tech = modern_landing_craft
			research_cost_coeff = 1
		}

		research_cost = 2
		start_year = 1019

		folder = {
			name = naval_folder
			position = { x = 0 y = @1019 }
		}
		ai_will_do = {
			factor = 2
			
			modifier = {
				factor = 0.5
				has_war = no
			}

		}

		categories = {
			naval_equipment
			tp_tech
		}
		special_project_specialization = { specialization_naval }
	}

	modern_landing_craft = {

		amphibious_invasion = 0.4
		amphibious_invasion_defence = 0.6
		naval_invasion_capacity = 150

		research_cost = 2
		start_year = 1023

		folder = {
			name = naval_folder
			position = { x = 0 y = @1023 }
		}

		ai_will_do = {
			factor = 2
			
			modifier = {
				factor = 0.5
				has_war = no
			}

		}

		categories = {
			naval_equipment
			tp_tech
		}
		special_project_specialization = { specialization_naval }
	}

	###------> Light Carriers <><> <><> <><> <><> <><>

	torpedo_cruiser = {

		enable_equipments = {
			torpedo_cruiser
		}

		research_cost = 1
		start_year = 1007

		# only from focus!!! #####
		allow = {
			always = no
		}
	}
	panzerschiffe_nomtg = {

		enable_equipments = { 
			panzerschiff_nomtg
		}

		research_cost = 1
		start_year = 1007

		#set at gamestart
		allow = {
			always = no
		}
	}
	destroyer_escorts_nomtg = {

		enable_equipments = {
			destroyer_escort
		}
		research_cost = 1
		start_year = 950

		allow = {
			always = no
		}
	}
	monitors_nomtg = {

		enable_equipments = {
			heavy_monitor
			light_monitor
		}
		research_cost = 1
		start_year = 950

		allow = {
			always = no
		}
	}
	carrier_cloud_tech = {
		# only from focus!!! #####
		allow = {
			always = no
		}

		research_cost = 1
		start_year = 950

		enable_equipments = {
			carrier_cloud
		}
	}
	cruiser_submarines_nomtg = {
		enable_equipments = {
			cruiser_submarine_nomtg
		}
		research_cost = 1
		start_year = 1007
		allow = {
			always = no
		}
	}
	coastal_defense_ships_nomtg = {
		enable_equipments = {
			coastal_defense_ship_nomtg
		}
		research_cost = 1
		start_year = 1007
		allow = {
			always = no
		}
	}
	panzerschiffe_nomtg = {

		enable_equipments = { 
			panzerschiff_nomtg
		}

		research_cost = 1
		start_year = 1007

		#set at gamestart
		allow = {
			always = no
		}
	}
	pre_dreadnoughts_nomtg = {

		enable_equipments = { 
			pre_dreadnought_nomtg
		}

		research_cost = 1
		start_year = 1007

		#set at gamestart
		allow = {
			always = no
		}
	}
	fleet_submarines = {
	
	}
}

#####-----------------------------------------------------------> End