﻿add_namespace = angriver
add_namespace = angriver_news

country_event = { #People Moving In
	id = angriver.1
	immediate = {log = "[GetDateText]: [Root.GetName]: event angriver.1"}
	title = angriver.1.t
	desc = angriver.1.d

	picture = GFX_farm_event
	is_triggered_only = yes

	option = {
		name = angriver.1.a
		add_political_power = 25
		add_stability = 0.02
		411 = {
			add_manpower = 15000
			}
		547 = {
			add_manpower = 15000
		}
	}
}

country_event = { #Radiation Poisoning in Mines
	id = angriver.2
	immediate = {log = "[GetDateText]: [Root.GetName]: event angriver.2"}
	title = angriver.2.t
	desc = angriver.2.d

	picture = GFX_event_old_mine
	is_triggered_only = yes

	option = {
		name = angriver.2.a
		add_political_power = -30
		add_stability = -0.01
		save_current_manpower = yes
		411 = {
			add_manpower = -500
			}
		547 = {
			add_manpower = -250
		}
		restore_previous_manpower = yes
	}
}

country_event = { #Urbanisation
	id = angriver.3
	immediate = {log = "[GetDateText]: [Root.GetName]: event angriver.3"}
	title = angriver.3.t
	desc = angriver.3.d

	picture = GFX_event_medieval_city
	is_triggered_only = yes

	option = {
		name = angriver.3.a
		add_political_power = 40
		add_stability = -0.03
		411 = {
			add_manpower = 50000
			}
		save_current_manpower = yes
		422 = {
			add_manpower = -25000
		}
		547 = {
			add_manpower = -25000
		}
		restore_previous_manpower = yes
	}
}

country_event = { #Education Reform
	id = angriver.4
	immediate = {log = "[GetDateText]: [Root.GetName]: event angriver.4"}
	title = angriver.4.t
	desc = angriver.4.d

	picture = GFX_event_school
	is_triggered_only = yes

	option = {
		name = angriver.4.a
		add_political_power = 25
		decrease_illiteracy = yes
		hidden_effect = {
		country_event = { days = 120 id = angriver.5 }
		}
	}
}

country_event = { #Education Reform Finished
	id = angriver.5
	immediate = {log = "[GetDateText]: [Root.GetName]: event angriver.5"}
	title = angriver.5.t
	desc = angriver.5.d

	picture = GFX_event_school
	is_triggered_only = yes

	option = {
		name = angriver.5.a
		add_political_power = 25
		decrease_illiteracy = yes
	}
}

country_event = { #Ackerland Project Succeeding
	id = angriver.6
	immediate = {log = "[GetDateText]: [Root.GetName]: event angriver.6"}
	title = angriver.6.t
	desc = angriver.6.d

	picture = GFX_farm_event
	is_triggered_only = yes

	option = {
		name = angriver.6.a
		add_political_power = 25
		add_stability = 0.01
		411 = {
			add_manpower = 10000
			}
		547 = {
			add_manpower = 10000
		}
		422 = {
			add_manpower = 10000
		}
	}
}

country_event = { #Truck Hits a fucking Lychen
	id = angriver.7
	immediate = {log = "[GetDateText]: [Root.GetName]: event angriver.7"}
	title = angriver.7.t
	desc = angriver.7.d

	picture = GFX_event_medieval_village
	is_triggered_only = yes

	option = {
		name = angriver.7.a
		add_political_power = 10
		add_stability = 0.01
	}
}

country_event = { #Dorflehrer-Programm Paying Off
	id = angriver.8
	immediate = {log = "[GetDateText]: [Root.GetName]: event angriver.8"}
	title = angriver.8.t
	desc = angriver.8.d

	picture = GFX_event_school
	is_triggered_only = yes

	option = {
		name = angriver.8.a
		add_stability = 0.02
		if = {
		limit = { has_government = neutrality }
		add_popularity = { ideology = neutrality popularity = 0.02 }
		}
		else_if = {
		limit = { has_government = fascism }
		add_popularity = { ideology = fascism popularity = 0.02 }
		}
		else_if = {
		limit = { has_government = communism }
		add_popularity = { ideology = communism popularity = 0.02 }
		}
		else_if = {
		limit = { has_government = democratic }
		add_popularity = { ideology = democratic popularity = 0.02 }
		}
	}
}

country_event = { #Looting the Zentralbank
	id = angriver.9
	immediate = {log = "[GetDateText]: [Root.GetName]: event angriver.9"}
	title = angriver.9.t
	desc = angriver.9.d

	picture = GFX_event_bank_vault
	trigger = {
		original_tag = ANG
		has_government = communism
	    has_idea = ANG_national_bank_idea
	}
	mean_time_to_happen = { days = 3 }
	fire_only_once = yes

	option = {
		name = angriver.9.a
		add_manpower = -500
		add_political_power = 75
		add_popularity = { ideology = communism popularity = 0.03 }
		remove_ideas = ANG_national_bank_idea
	}
}

country_event = { #GRI informed its shit got stolen
	id = angriver.10
	immediate = {log = "[GetDateText]: [Root.GetName]: event angriver.10"}
	title = angriver.10.t
	desc = angriver.10.d

	picture = GFX_event_griffon_royal_guard
	is_triggered_only = yes

	option = {
		name = angriver.10.a
		effect_tooltip = {
			if = {
				limit = {
					has_government = neutrality
				}
				transfer_units_fraction = {
					target = FROM          # the recipient
					target_organization = 1
					source_organization = 1
					size = 0.1             # [0,1] Default value for the ratio below if they are not specified
					stockpile_ratio = 0  # [0,1] Overrides size modifier for the stockpiled equipment and fuel
					army_ratio = 0.1       # [0,1] Overrides size modifier for army
					navy_ratio = 0       # [0,1] Overrides size modifier for navy
					air_ratio = 0.1        # [0,1] Overrides size modifier for air
					keep_unit_leaders_trigger = {
						always = yes
					}
				}
			}
			else = {
				transfer_units_fraction = {
					target = FROM          # the recipient
					target_organization = 1
					source_organization = 1
					size = 0.15             # [0,1] Default value for the ratio below if they are not specified
					stockpile_ratio = 0.15  # [0,1] Overrides size modifier for the stockpiled equipment and fuel
					army_ratio = 0.15       # [0,1] Overrides size modifier for army
					navy_ratio = 0       # [0,1] Overrides size modifier for navy
					air_ratio = 0.15        # [0,1] Overrides size modifier for air
					keep_unit_leaders_trigger = {
						always = yes
					}
				}
			}
		}
	}
}
country_event = { #Yeeting the yeeter
	id = angriver.11
	immediate = {log = "[GetDateText]: [Root.GetName]: event angriver.11"}
	title = angriver.11.t
	desc = angriver.11.d

	picture = GFX_event_gothic_interior
	is_triggered_only = yes

	option = {
		name = angriver.11.a
		add_political_power = 50
		add_stability = 0.03
		add_popularity = { ideology = fascism popularity = 0.03 }
		GRI = {
			GRI_ferdinand_dawnclaw = {
				retire = yes
			}
		}
		hidden_effect = {
			country_event = {
				id = angriver.12
				days = 1
			}
		}
	}
}
country_event = { #A replacement Grover
	id = angriver.12
	immediate = {log = "[GetDateText]: [Root.GetName]: event angriver.12"}
	title = angriver.12.t
	desc = angriver.12.d

	picture = GFX_event_griffenheim
	is_triggered_only = yes

	option = {
		name = angriver.12.a
		add_ideas = ANG_fake_grover
	}
}
country_event = { #Grover event
	id = angriver.13
	immediate = {log = "[GetDateText]: [Root.GetName]: event angriver.13"}
	title = angriver.13.t
	desc = angriver.13.d

	picture = GFX_event_griffenheim
	is_triggered_only = yes

	option = {
		name = angriver.13.a

	}
}
country_event = { #Grover event 2 electric boogaloo
	id = angriver.14
	immediate = {log = "[GetDateText]: [Root.GetName]: event angriver.14"}
	title = angriver.14.t
	desc = angriver.14.d

	picture = GFX_event_griffenheim
	is_triggered_only = yes

	option = {
		name = angriver.14.a

	}
}
country_event = { #Grover event 3 Revenge of the Shit
	id = angriver.15
	immediate = {log = "[GetDateText]: [Root.GetName]: event angriver.15"}
	title = angriver.15.t
	desc = angriver.15.d

	picture = GFX_event_griffenheim
	is_triggered_only = yes

	option = {
		name = angriver.15.a

	}
}
country_event = { #Grover event 4 A new pope
	id = angriver.16
	immediate = {log = "[GetDateText]: [Root.GetName]: event angriver.16"}
	title = angriver.16.t
	desc = angriver.16.d

	picture = GFX_event_griffenheim
	is_triggered_only = yes

	option = {
		name = angriver.16.a

	}
}
country_event = { #Anarchist Raids
	id = angriver.17
	immediate = {log = "[GetDateText]: [Root.GetName]: event angriver.17"}
	title = angriver.17.t
	desc = angriver.17.d

	picture = GFX_event_griffon_para
	is_triggered_only = yes

	option = {
		name = angriver.17.a
		add_manpower = -750
		add_stability = -0.03
		add_political_power = -30
		add_popularity = { ideology = communism popularity = 0.03 }
	}
}

country_event = { #Mysterious Murders
	id = angriver.18
	immediate = {log = "[GetDateText]: [Root.GetName]: event angriver.18"}
	title = angriver.18.t
	desc = angriver.18.d

	picture = GFX_event_medieval_village
	is_triggered_only = yes

	option = {
		name = angriver.18.a
		add_stability = -0.02
		add_political_power = -25
	}
}

country_event = { #Grand Marshal Hunts Monsters
	id = angriver.19
	immediate = {log = "[GetDateText]: [Root.GetName]: event angriver.19"}
	title = angriver.19.t
	desc = angriver.19.d

	picture = GFX_event_griffon_soldier
	is_triggered_only = yes

	option = {
		name = angriver.19.a
		add_stability = 0.02
		add_political_power = 30
		add_popularity = { ideology = democratic popularity = 0.02 }
	}
}

country_event = { #Republican Sentiments on the Rise... Again
	id = angriver.20
	immediate = {log = "[GetDateText]: [Root.GetName]: event angriver.20"}
	title = angriver.20.t
	desc = angriver.20.d

	picture = GFX_event_medieval_city_3
	is_triggered_only = yes

	option = {
		name = angriver.20.a
		add_political_power = -100
		add_ideas = ANG_republican_sentiments_idea
		add_popularity = { ideology = communism popularity = 0.05 }
		add_popularity = { ideology = democratic popularity = 0.05 }
	}
}

country_event = { #Our Enemies Strike!
	id = angriver.21
	immediate = {log = "[GetDateText]: [Root.GetName]: event angriver.21"}
	title = angriver.21.t
	desc = angriver.21.d

	picture = GFX_event_griffon_with_gun
	is_triggered_only = yes

	option = { #The Baron Retains Control
		name = angriver.21.a
		ai_chance = {
			factor = 60
			modifier = {
				OR = {
					has_country_flag = ANG_AI_COMMUNIST
					has_game_rule = {
						rule = ANG_ai_behavior
						option = COMMUNIST
					}
					has_country_flag = ANG_AI_NEUTRALITY
					has_game_rule = {
						rule = ANG_ai_behavior
						option = NEUTRALITY
					}
					has_country_flag = ANG_AI_DEMOCRATIC
					has_game_rule = {
						rule = ANG_ai_behavior
						option = DEMOCRATIC
					}
				}
				factor = 0
			}
		}
		custom_effect_tooltip = ANG_political_tree_tp
		add_political_power = 50
		add_stability = 0.03
		set_party_name = {
		    ideology = neutrality
		    name = ANG_republicans
		    long_name = ANG_republicans_long
		}
		hidden_effect = {
			set_country_flag = ANG_the_barons_country
			load_focus_tree = { tree = angriver_focus_baron keep_completed = yes }
		}
		ANG_marc_kippenberger = {
			retire = yes
		}
	}

	option = { #The Revolutionaries Succeed!
		name = angriver.21.b
		ai_chance = {
			factor = 40
			modifier = {
				OR = {
					AND = {
						is_historical_focus_on = yes
						has_game_rule = {
							rule = ANG_ai_behavior
							option = DEFAULT
						}
					}
					has_country_flag = ANG_AI_FASCIST_HISTORICAL
					has_game_rule = {
						rule = ANG_ai_behavior
						option = FASCIST_HISTORICAL
					}
				}
				factor = 0
			}
		}
		add_political_power = -100
		add_stability = -0.10
		add_war_support = -0.10
		set_politics = {
			ruling_party = neutrality
			elections_allowed = no
		}
		if = {
			limit = {
				ANG = { is_subject_of = GRI }
			}
			end_puppet_this = yes
		}
		if = {
			limit = {
				ANG = {
					is_in_faction = yes
				}
			}
			ANG = {
				leave_faction = yes
			}
		}
		ANG_baron_leer_the_vicious = {
			remove_unit_leader_role = yes
		}
		set_party_name = {
		    ideology = neutrality
		    name = ANG_republicans
		    long_name = ANG_republicans_long
		}
		hidden_effect = {
			country_event = { days = 7 id = angriver.22 }
			fire_GRD_cosmetic_handling = yes
		}
	}
}

country_event = { #The Grand Marshal's Stand
	id = angriver.22
	immediate = {log = "[GetDateText]: [Root.GetName]: event angriver.22"}
	title = angriver.22.t
	desc = angriver.22.d

	picture = GFX_event_griffon_soldier
	is_triggered_only = yes

	option = { #The Revolutionary Commitee Defeats the Marshal
		name = angriver.22.a
		ai_chance = {
			factor = 80
			modifier = {
				OR = {
					has_country_flag = ANG_AI_DEMOCRATIC
					has_game_rule = {
						rule = ANG_ai_behavior
						option = DEMOCRATIC
					}
				}
				factor = 0
			}
		}
		ANG_grossmarschall_othmar_stoiber = {
			retire = yes
		}
		hidden_effect = {
			country_event = { days = 7 id = angriver.23 }
		}
	}
	option = { #The Grand Marshal Defeats the Revolutionaries!
		name = angriver.22.b
		ai_chance = {
			factor = 20
			modifier = {
				OR = {
					has_country_flag = ANG_AI_COMMUNIST
					has_game_rule = {
						rule = ANG_ai_behavior
						option = COMMUNIST
					}
					has_country_flag = ANG_AI_NEUTRALITY
					has_game_rule = {
						rule = ANG_ai_behavior
						option = NEUTRALITY
					}
				}
				factor = 0
			}
		}
		hidden_effect = {
			country_event = { days = 7 id = angriver.24 }
		}
	}
}

country_event = { #Who Shall Lead the Nation?
	id = angriver.23
	immediate = {log = "[GetDateText]: [Root.GetName]: event angriver.23"}
	title = angriver.23.t
	desc = angriver.23.d

	picture = GFX_event_medieval_city_3
	is_triggered_only = yes

	option = { #The Anarchists
		name = angriver.23.a
		ai_chance = {
			factor = 50
			modifier = {
				OR = {
					has_country_flag = ANG_AI_NEUTRALITY
					has_game_rule = {
						rule = ANG_ai_behavior
						option = NEUTRALITY
					}
				}
				factor = 0
			}
		}
		custom_effect_tooltip = ANG_political_tree_tp
		add_popularity = { ideology = communism popularity = 0.10 }
		set_politics = {
			ruling_party = communism
			elections_allowed = no
		}
		add_corps_commander_role = {
			character = ANG_willie_scherler
			traits = { infantry_leader ranger commando griffon_race_trait }
			skill = 3
			attack_skill = 3
			defense_skill = 3
			planning_skill = 3
			logistics_skill = 1
			desc = willie_scherler_desc
		}
		custom_effect_tooltip = willie_scherler_stats_tp
		remove_ideas = ANG_republican_sentiments_idea
		remove_ideas = ANG_anarchists
		set_country_flag = ANG_republic
		set_cosmetic_tag = ANG_republic
		hidden_effect = {
			clr_country_flag = herzland_diplomacy_blocked
			set_country_flag = have_regular_puppets
			set_country_flag = ANG_anarcho_takeover
			load_focus_tree = { tree = angriver_focus_anarchists keep_completed = yes }
		}
	}

	option = { #The Republicans
		name = angriver.23.b
		ai_chance = {
			factor = 50
			modifier = {
				OR = {
					has_country_flag = ANG_AI_COMMUNIST
					has_game_rule = {
						rule = ANG_ai_behavior
						option = COMMUNIST
					}
				}
				factor = 0
			}
		}
		custom_effect_tooltip = ANG_political_tree_tp
		add_popularity = { ideology = neutrality popularity = 0.05 }
		add_popularity = { ideology = democratic popularity = 0.05 }
		add_country_leader_role = {
			character = ANG_hera_eichberg
			country_leader = {
				expire = "1965.1.1"
				desc = hera_eichberg_desc
				ideology = socialism
				traits = {  }
			}
			promote_leader = yes
		}
		set_party_name = {
		    ideology = democratic
		    name = ANG_socdems
		    long_name = ANG_socdems_long
		}
		add_field_marshal_role = {
			character = ANG_Gerhard_Bluhm
			desc = little_kemerskai_short_desc
			traits = { inspirational_leader war_hero old_guard brilliant_strategist logistics_wizard griffon_race_trait }
			skill = 3
			attack_skill = 2
			defense_skill = 3
			planning_skill = 2
			logistics_skill = 3
			legacy_id = 247590
		}
		custom_effect_tooltip = gerhard_bluhm_stats_tp
		remove_ideas = ANG_republican_sentiments_idea
		remove_ideas = ANG_anarchists
		set_country_flag = ANG_republic
		set_cosmetic_tag = ANG_republic
		hidden_effect = {
		clr_country_flag = herzland_diplomacy_blocked
		set_country_flag = have_regular_puppets
		set_country_flag = ANG_democratic_takeover
		load_focus_tree = { tree = angriver_focus_republicans keep_completed = yes }
		}
	}
}

country_event = { #The New Barony
	id = angriver.24
	immediate = {log = "[GetDateText]: [Root.GetName]: event angriver.24"}
	title = angriver.24.t
	desc = angriver.24.d

	picture = GFX_event_griffon_royal_guard
	is_triggered_only = yes

	option = {
		name = angriver.24.a
		custom_effect_tooltip = ANG_political_tree_tp
		add_political_power = 50
		add_stability = 0.05
		add_popularity = { ideology = democratic popularity = 0.10 }
		set_politics = {
			ruling_party = democratic
			elections_allowed = no
		}
		422 = {
		set_demilitarized_zone = yes
		    }
		547 = {
		set_demilitarized_zone = yes
		    }
		hidden_effect = {
		clr_country_flag = herzland_diplomacy_blocked
		set_country_flag = ANG_marshal_takeover
		load_focus_tree = { tree = angriver_focus_marshal keep_completed = yes }
		}
	}
}

country_event = { #Police Crackdowns
	id = angriver.25
	immediate = {log = "[GetDateText]: [Root.GetName]: event angriver.25"}
	title = angriver.25.t
	desc = angriver.25.d

	picture = GFX_event_medieval_village_2
	is_triggered_only = yes

	option = {
		name = angriver.25.a
		add_stability = 0.03
		add_popularity = { ideology = fascism popularity = -0.03 }
		add_political_power = -50
		save_current_manpower = yes
		422 = {
		    add_manpower = -750
		}
		411 = {
		    add_manpower = -500
		}
		547 = {
		    add_manpower = -300
		}
		restore_previous_manpower = yes
	}
}

country_event = { #A Conspiracy Stopped
	id = angriver.26
	immediate = {log = "[GetDateText]: [Root.GetName]: event angriver.26"}
	title = angriver.26.t
	desc = angriver.26.d

	picture = GFX_event_gothic_interior
	is_triggered_only = yes

	option = {
		name = angriver.26.a
		add_stability = 0.03
		add_popularity = { ideology = fascism popularity = -0.03 }
		add_equipment_to_stockpile = { type = infantry_equipment amount = 1000 }
		add_manpower = -500
	}
}

country_event = { #The Ringleaders
	id = angriver.27
	immediate = {log = "[GetDateText]: [Root.GetName]: event angriver.27"}
	title = angriver.27.t
	desc = angriver.27.d

	picture = GFX_event_apartment_club
	is_triggered_only = yes

	option = {
		name = angriver.27.a
		add_stability = 0.05
		add_popularity = { ideology = fascism popularity = -0.03 }
		add_political_power = -75
	}
}

country_event = { #The Leaders
	id = angriver.28
	immediate = {log = "[GetDateText]: [Root.GetName]: event angriver.28"}
	title = angriver.28.t
	desc = angriver.28.d

	picture = GFX_event_feast
	is_triggered_only = yes

	option = {
		name = angriver.28.a
		add_stability = 0.05
		add_popularity = { ideology = democratic popularity = 0.03 }
		add_political_power = 50
	}
}

country_event = { #Freedom for Prisoners
	id = angriver.29
	immediate = {log = "[GetDateText]: [Root.GetName]: event angriver.29"}
	title = angriver.29.t
	desc = angriver.29.d

	picture = GFX_event_medieval_city_ugly_street
	is_triggered_only = yes

	option = {
		name = angriver.29.a
		add_popularity = { ideology = democratic popularity = 0.03 }
		add_popularity = { ideology = communism popularity = 0.03 }
		add_popularity = { ideology = neutrality popularity = 0.03 }
		add_political_power = -30
		411 = {
			add_manpower = 500
			}
		422 = {
			add_manpower = 750
		}
		547 = {
			add_manpower = 250
		}
	}
}

country_event = { #The Angriver Constitution
	id = angriver.30
	immediate = {log = "[GetDateText]: [Root.GetName]: event angriver.30"}
	title = angriver.30.t
	desc = angriver.30.d

	picture = GFX_event_medieval_city_3
	is_triggered_only = yes

	option = {
		name = angriver.30.a
		add_political_power = 100
		add_stability = 0.05
		add_popularity = { ideology = democratic popularity = 0.05 }
		ANG_grossmarschall_othmar_stoiber = {
			set_character_name = ANG_baron_othmar
		}
		set_party_name = {
		    ideology = democratic
		    name = ANG_new_democrats
		    long_name = ANG_new_democrats_long
		}
		set_party_name = {
		    ideology = neutrality
		    name = ANG_republicans_2
		    long_name = ANG_republicans_2_long
		}
		set_party_name = {
		    ideology = communism
		    name = ANG_worker_party
		    long_name = ANG_worker_party_long
		}
		set_party_name = {
		    ideology = fascism
		    name = ANG_national_party
		    long_name = ANG_national_party_long
		}
	}
}

country_event = { #Immigration
	id = angriver.31
	immediate = {log = "[GetDateText]: [Root.GetName]: event angriver.31"}
	title = angriver.31.t
	desc = angriver.31.d

	picture = GFX_farm_event
	is_triggered_only = yes

	option = {
		name = angriver.31.a
		add_political_power = 25
		411 = {
		    add_manpower = 10000
		}
		422 = {
		    add_manpower = 10000
		}
		547 = {
		    add_manpower = 10000
		}
		country_event = { days = 365 id = angriver.31 }
	}
}

country_event = { #New Kulture
	id = angriver.32
	immediate = {log = "[GetDateText]: [Root.GetName]: event angriver.32"}
	title = angriver.32.t
	desc = angriver.32.d

	picture = GFX_event_rich_set_car
	is_triggered_only = yes

	option = {
		name = angriver.32.a
		add_stability = 0.05
		add_popularity = { ideology = communism popularity = 0.05 }
		add_political_power = 50
	}
}

country_event = { #Of Faith and Ideology
	id = angriver.33
	immediate = {log = "[GetDateText]: [Root.GetName]: event angriver.33"}
	title = angriver.33.t
	desc = angriver.33.d

	picture = GFX_event_green_mountain
	is_triggered_only = yes

	option = {
		name = angriver.33.a
		add_ideas = ANG_faith_and_ideology
	}
}

country_event = { #The Death of the Baron
	id = angriver.34
	immediate = {log = "[GetDateText]: [Root.GetName]: event angriver.34"}
	title = angriver.34.t
	desc = angriver.34.d

	picture = GFX_event_foggy_forest
	is_triggered_only = yes

	option = {
		name = angriver.34.a
		add_political_power = 50
		add_stability = 0.05
		add_war_support = 0.05
		add_popularity = { ideology = fascism popularity = -0.05 }
		ANG_baron_leer_the_vicious = {
			retire = yes
		}
		add_country_leader_role = {
			character = ANG_unknown
			country_leader = {
				expire = "1965.1.1"
				ideology = neofeudalism
				traits = {  }
			}
			promote_leader = yes
		}
		set_party_name = {
		    ideology = fascism
		    name = ANG_black_claw
		    long_name = ANG_black_claw_long
		}
	}
}

country_event = { #The Elections
	id = angriver.35
	immediate = {log = "[GetDateText]: [Root.GetName]: event angriver.35"}
	title = angriver.35.t
	desc = angriver.35.d

	picture = GFX_event_medieval_city_3
	is_triggered_only = yes

	option = {
	ai_chance = {
		    factor = 60
		}
		name = angriver.35.a
		add_political_power = 25
		add_stability = 0.05
		add_war_support = 0.05
		add_popularity = { ideology = neutrality popularity = 0.03 }
		hidden_effect = {
		    complete_national_focus = ANG_bluhm
		}
	}

	option = {
	ai_chance = {
			factor = 20
		}
		name = angriver.35.b
		add_political_power = 25
		add_stability = 0.05
		add_war_support = 0.05
		set_politics = {
			ruling_party = democratic
			elections_allowed = no
		}
		add_popularity = { ideology = democratic popularity = 0.05 }
		hidden_effect = {
		   complete_national_focus = ANG_eichberg
		   hidden_effect = {
		   country_event = { days = 28 id = angriver.38 }
		   }
		}
	}

	option = {
    ai_chance = {
			factor = 20
		}
		name = angriver.35.c
		add_political_power = 25
		add_stability = 0.05
		add_war_support = 0.05
		add_popularity = { ideology = neutrality popularity = 0.03 }
		add_country_leader_role = {
			character = ANG_Otto_Weschler
			country_leader = {
				expire = "1965.1.1"
				ideology = republicanism
				traits = {  }
				desc = the_mailman_desc
			}
			promote_leader = yes
		}
		set_party_name = {
		    ideology = neutrality
		    name = ANG_liberal_party
		    long_name = ANG_liberal_party_long
		}
		hidden_effect = {
		   complete_national_focus = ANG_weschler
		}
	}
}

country_event = { #The Death of the Baron
	id = angriver.36
	immediate = {log = "[GetDateText]: [Root.GetName]: event angriver.36"}
	title = angriver.36.t
	desc = angriver.36.d

	picture = GFX_event_medieval_city
	is_triggered_only = yes

	option = {
		name = angriver.34.a
		add_political_power = 50
		add_stability = 0.05
		add_war_support = 0.05
		add_popularity = { ideology = fascism popularity = -0.05 }
		ANG_baron_leer_the_vicious = {
			retire = yes
		}
		add_country_leader_role = {
			character = ANG_unknown
			country_leader = {
				expire = "1965.1.1"
				ideology = neofeudalism
				traits = {  }
			}
			promote_leader = yes
		}
		set_party_name = {
		    ideology = fascism
		    name = ANG_black_claw
		    long_name = ANG_black_claw_long
		}
	}
}

country_event = { #Eichberg Discovered
	id = angriver.37
	immediate = {log = "[GetDateText]: [Root.GetName]: event angriver.37"}
	title = angriver.37.t
	desc = angriver.37.d

	picture = GFX_event_gothic_interior
	is_triggered_only = yes

	option = {
		name = angriver.37.a
		add_political_power = -100
		add_stability = -0.05
		add_popularity = { ideology = democratic popularity = -0.05 }
		add_country_leader_role = {
			character = ANG_hera_eichberg
			country_leader = {
				expire = "1965.1.1"
				ideology = neofeudalism
				desc = hera_eichberg_desc_long
				traits = {  }
			}
			promote_leader = yes
		}
		add_country_leader_role = {
			character = ANG_Saskia_Meckler
			country_leader = {
				desc = saskia_meckler_desc
				expire = "1965.1.1"
				ideology = socialism
				traits = {  }
			}
			promote_leader = yes
		}
	}
}

country_event = { #Black Claw Takeover
	id = angriver.38
	immediate = {log = "[GetDateText]: [Root.GetName]: event angriver.38"}
	title = angriver.38.t
	desc = angriver.38.d

	picture = GFX_event_feast
	is_triggered_only = yes

	option = {
		name = angriver.38.a
		add_political_power = -100
		add_popularity = { ideology = neutrality popularity = -0.05 }
		add_popularity = { ideology = communism popularity = -0.05 }
		add_popularity = { ideology = fascism popularity = 0.1 }
		set_politics = {
			ruling_party = fascism
			elections_allowed = no
		}
		clr_country_flag = have_regular_puppets
		add_country_leader_role = {
			character = ANG_hera_eichberg
			country_leader = {
				expire = "1965.1.1"
				ideology = neofeudalism
				desc = hera_eichberg_desc_long
				traits = {  }
			}
			promote_leader = yes
		}
		add_country_leader_role = {
			character = ANG_Saskia_Meckler
			country_leader = {
				desc = saskia_meckler_desc
				expire = "1965.1.1"
				ideology = socialism
				traits = {  }
			}
			promote_leader = yes
		}
		save_current_manpower = yes
		411 = {
		    add_manpower = -7500
		}
		422 = {
		    add_manpower = -7500
		}
		547 = {
		    add_manpower = -7500
		}
		restore_previous_manpower = yes
		swap_ideas = {
			remove_idea = ANG_cults
			add_idea = ANG_resistance
		}
		set_party_name = {
		    ideology = fascism
		    name = ANG_black_claw
		    long_name = ANG_black_claw_long
		}
		ANG_Gerhard_Bluhm = {
			retire = yes
		}
		ANG_marc_kippenberger = {
			retire = yes
		}
		leave_faction = yes
		hidden_effect = {
			set_country_flag = ANG_black_claw_takeover
			set_country_flag = herzland_diplomacy_blocked
			load_focus_tree = { tree = angriver_focus_blackclaw keep_completed = yes }
		}
	}
}

country_event = { #Examples
	id = angriver.39
	immediate = {log = "[GetDateText]: [Root.GetName]: event angriver.39"}
	title = angriver.39.t
	desc = angriver.39.d

	picture = GFX_event_forest_depression
	is_triggered_only = yes

	option = {
		name = angriver.39.a
		add_popularity = { ideology = communism popularity = -0.1 }
		if = {
			limit = {
				has_idea = ANG_resistance_2
			}
			swap_ideas = {
				remove_idea = ANG_resistance_2
				add_idea = ANG_resistance_3
			}
		}
		else_if = {
			limit = {
				has_idea = ANG_resistance_3_2
			}
			remove_ideas = ANG_resistance_3_2
		}

		save_current_manpower = yes
		411 = {
		    add_manpower = -10000
		}
		422 = {
		    add_manpower = -10000
		}
		547 = {
		    add_manpower = -10000
		}
		restore_previous_manpower = yes
	}
}

country_event = { #Dead Rangers
	id = angriver.40
	immediate = {log = "[GetDateText]: [Root.GetName]: event angriver.40"}
	title = angriver.40.t
	desc = angriver.40.d

	picture = GFX_event_medieval_city
	is_triggered_only = yes

	option = {
		name = angriver.40.a
		add_popularity = { ideology = neutrality popularity = -0.1 }
		if = {
			limit = {
				has_idea = ANG_resistance_2
			}
			swap_ideas = {
				remove_idea = ANG_resistance_2
				add_idea = ANG_resistance_3_2
			}
		}
		else_if = {
			limit = {
				has_idea = ANG_resistance_3
			}
			remove_ideas = ANG_resistance_3
		}

		save_current_manpower = yes
		411 = {
		    add_manpower = -20000
		}
		422 = {
		    add_manpower = -5000
		}
		547 = {
		    add_manpower = -10000
		}
		restore_previous_manpower = yes
	}
}

country_event = { #Third Leer death event because there can never be enough Leer death events
	id = angriver.41
	immediate = {log = "[GetDateText]: [Root.GetName]: event angriver.41"}
	title = angriver.41.t
	desc = angriver.41.d

	picture = GFX_event_gothic_interior
	is_triggered_only = yes

	option = {
		name = angriver.41.a
		add_political_power = 50
		add_stability = 0.05
		add_war_support = 0.05
		add_popularity = { ideology = fascism popularity = 0.05 }
		ANG_baron_leer_the_vicious = {
			retire = yes
		}
	}
}

country_event = { #Restoring Order
	id = angriver.42
	immediate = {log = "[GetDateText]: [Root.GetName]: event angriver.42"}
	title = angriver.42.t
	desc = angriver.42.d

	picture = GFX_event_griffon_soldier
	is_triggered_only = yes

	option = {
		name = angriver.42.a
		save_current_manpower = yes
		422 = {
			add_manpower = -10000
		}
		547 = {
			add_manpower = -10000
		}
		restore_previous_manpower = yes
		add_stability = 0.03
		add_political_power = 30
		add_popularity = { ideology = communism popularity = -0.03 }
	}
}

country_event = { #Into the Forest
	id = angriver.43
	immediate = {log = "[GetDateText]: [Root.GetName]: event angriver.43"}
	title = angriver.43.t
	desc = angriver.43.d

	picture = GFX_event_foggy_forest
	is_triggered_only = yes

	option = {
		name = angriver.43.a
		save_current_manpower = yes
		422 = {
			add_manpower = -10000
		}
		547 = {
			add_manpower = -10000
		}
		restore_previous_manpower = yes
		add_stability = 0.05
		add_political_power = 30
		add_popularity = { ideology = communism popularity = -0.05 }
	}
}

country_event = { #Release the Hounds
	id = angriver.44
	immediate = {log = "[GetDateText]: [Root.GetName]: event angriver.44"}
	title = angriver.44.t
	desc = angriver.44.d

	picture = GFX_event_griffons_machine_gun
	is_triggered_only = yes

	option = {
		name = angriver.44.a
		save_current_manpower = yes
		411 = {
			add_manpower = -10000
		}
		restore_previous_manpower = yes
		add_stability = 0.03
		add_political_power = 30
		add_popularity = { ideology = neutrality popularity = -0.03 }
		add_popularity = { ideology = democratic popularity = -0.03 }
	}
}

country_event = { #Teach Them a Lesson
	id = angriver.45
	immediate = {log = "[GetDateText]: [Root.GetName]: event angriver.45"}
	title = angriver.45.t
	desc = angriver.45.d

	picture = GFX_event_medieval_village
	is_triggered_only = yes

	option = {
		name = angriver.45.a
		save_current_manpower = yes
		411 = {
			add_manpower = -10000
		}
		restore_previous_manpower = yes
		add_stability = 0.05
		add_political_power = 30
		add_popularity = { ideology = neutrality popularity = -0.03 }
		add_popularity = { ideology = democratic popularity = -0.03 }
	}
}

country_event = { #The Baron's Authority
	id = angriver.46
	immediate = {log = "[GetDateText]: [Root.GetName]: event angriver.46"}
	title = angriver.46.t
	desc = angriver.46.d

	picture = GFX_event_medieval_city
	is_triggered_only = yes

	option = {
		name = angriver.46.a
		add_political_power = 125
		add_popularity = { ideology = fascism popularity = 0.05 }
		add_ideas = ANG_questioned_aurhotiy
		ANG_grossmarschall_othmar_stoiber = {
			retire = yes
		}
		set_party_name = {
		    ideology = democratic
		    name = ANG_socdems
		    long_name = ANG_socdems_long
		}
		add_country_leader_role = {
			character = ANG_Saskia_Meckler
			country_leader = {
				desc = saskia_meckler_desc
				expire = "1965.1.1"
				ideology = socialism
				traits = {  }
			}
			promote_leader = yes
		}
	}
}

country_event = { #Industrial Slavery
	id = angriver.47
	immediate = {log = "[GetDateText]: [Root.GetName]: event angriver.47"}
	title = angriver.47.t
	desc = angriver.47.d

	picture = GFX_event_medieval_city
	is_triggered_only = yes

	option = {
		name = angriver.47.a
		increase_society_development_with_tt = yes
		add_popularity = { ideology = fascism popularity = 0.05 }
	}
}


country_event = { #Annex Offer
	id = angriver.48
	immediate = {log = "[GetDateText]: [Root.GetName]: event angriver.48"}
	title = angriver.48.t
	desc = angriver.48.d
	picture = GFX_event_griffenheim
	is_triggered_only = yes
	option = {
		name = angriver.48.a
		ai_chance = {
			base = 60
			modifier = {
				factor = 0
				has_opinion = { target = ANG value < -25 }
			}
			modifier = {
				factor = 0.2
				has_opinion = { target = ANG value < 0 }
			}
			modifier = {
				factor = 1.2
				has_opinion = { target = ANG value < 25 }
			}
			modifier = {
				factor = 1.4
				has_opinion = { target = ANG value > 50 }
			}
			modifier = {
				factor = 1.6
				ROOT = { has_government = communism }
				FROM = { has_government = communism }
			}
			modifier = {
				factor = 1.6
				ROOT = { has_government = fascism }
				FROM = { has_government = fascism }
			}
			modifier = {
				factor = 1.6
				ROOT = { has_government = democratic }
				FROM = { has_government = democratic }
			}
			modifier = {
				factor = 1.6
				ROOT = { has_government = neutrality }
				FROM = { has_government = neutrality }
			}
		}
		custom_effect_tooltip = GAME_OVER_TT
		FROM = { annex_country = { target = ROOT transfer_troops = yes } }
	}
	option = {
		name = angriver.48.b
		ai_chance = { factor = 40 }
		if = {
			limit = {
				is_in_faction_with = FROM
			}
			leave_faction = yes
		}
		FROM = {
			country_event = { id = angriver.49 days = 7 }
			}
		}
	}

country_event = { #Declined
	id = angriver.49
	immediate = {log = "[GetDateText]: [Root.GetName]: event angriver.49"}
	title = angriver.49.t
	desc = angriver.49.d
	picture = GFX_event_griffenheim
	is_triggered_only = yes

	option = {
		name = angriver.49.a
		hidden_effect = { create_wargoal = { target = FROM type = annex_everything } }
		declare_war_on = { target = FROM type = annex_everything }
		ai_chance = { factor = 100 }
	}
	option = {
		name = angriver.49.b
		add_political_power = -100
		ai_chance = { factor = 0 }
	}
}

country_event = { #Choosing the Chairgriffon
	id = angriver.50
	immediate = {log = "[GetDateText]: [Root.GetName]: event angriver.50"}
	title = angriver.50.t
	desc = angriver.50.d
	picture = GFX_event_griffenheim
	is_triggered_only = yes

	option = { #Kogchel
		ai_chance = { factor = 25 }
		name = angriver.50.a
		every_possible_country = {
			limit = {
				has_character = FEA_gerben_kogchel
			}
			FEA_gerben_kogchel = {
				set_nationality = ROOT
			}
		}
		add_country_leader_role = {
			character = FEA_gerben_kogchel
			country_leader = {
				expire = "1965.1.1"
				desc = ANG_kogchel_desc
				ideology = democratic_socialism
				traits = { democratic_sympathies }
			}
			promote_leader = yes
		}
		hidden_effect = {
		complete_national_focus = ANG_chairman_kogchel
		}
	}
	option = { #Schreler
		ai_chance = { factor = 50 }
		name = angriver.50.b
		add_political_power = 50
		hidden_effect = {
		complete_national_focus = ANG_chairman_scherler
		}
	}
	option = { #Erhardt
		ai_chance = { factor = 25 }
		name = angriver.50.c
		every_possible_country = {
			limit = {
				has_character = ROU_roland_ehrhardt
			}
			ROU_roland_ehrhardt = {
				set_nationality = ROOT
			}
		}
		promote_character = {
			character = ROU_roland_ehrhardt
			ideology = syndicalism
		}
		hidden_effect = {
			complete_national_focus = ANG_chairman_ehrdhardt
		}
	}
}

country_event = { #Landessprachengesetz
	id = angriver.51
	immediate = {log = "[GetDateText]: [Root.GetName]: event angriver.51"}
	title = angriver.51.t
	desc = angriver.51.d

	picture = GFX_event_medieval_city_3
	is_triggered_only = yes

	option = {
		name = angriver.51.a
		add_stability = 0.10
		add_popularity = { ideology = communism popularity = 0.05 }
		add_political_power = 100
	}
}

country_event = { #Internationale/Kogchel
	id = angriver.52
	immediate = {log = "[GetDateText]: [Root.GetName]: event angriver.52"}
	title = angriver.52.t
	desc = angriver.52.d

	picture = GFX_event_griffenheim
	is_triggered_only = yes

	option = {
		name = angriver.52.a
		add_popularity = { ideology = communism popularity = 0.05 }
		add_political_power = 150
		create_faction = ANG_internationale
		custom_effect_tooltip = ANG_diplomacy_decisions_tp
		set_country_flag = ANG_post_herzland_diplomacy
		hidden_effect = {
		news_event = { id = angriver_news.2 hours = 6 }
		}
	}
}

country_event = { #Anarcho-Borealism
	id = angriver.53
	immediate = {log = "[GetDateText]: [Root.GetName]: event angriver.53"}
	title = angriver.53.t
	desc = angriver.53.d

	picture = GFX_event_griffon_mountain
	is_triggered_only = yes

	option = {
		name = angriver.53.a
		add_stability = 0.10
		add_popularity = { ideology = communism popularity = 0.05 }
		add_political_power = 100
	}
}

country_event = { #Internationale/Schreler
	id = angriver.54
	immediate = {log = "[GetDateText]: [Root.GetName]: event angriver.54"}
	title = angriver.54.t
	desc = angriver.54.d

	picture = GFX_event_griffenheim
	is_triggered_only = yes

	option = {
		name = angriver.54.a
		add_popularity = { ideology = communism popularity = 0.05 }
		add_political_power = 150
		create_faction = ANG_internationale
		custom_effect_tooltip = ANG_diplomacy_decisions_tp
		set_country_flag = ANG_post_herzland_diplomacy
		hidden_effect = {
		news_event = { id = angriver_news.2 hours = 6 }
		}
	}
}

country_event = { #New Kulture 2
	id = angriver.55
	immediate = {log = "[GetDateText]: [Root.GetName]: event angriver.55"}
	title = angriver.55.t
	desc = angriver.55.d

	picture = GFX_event_medieval_city_3
	is_triggered_only = yes

	option = {
		name = angriver.55.a
		add_stability = 0.05
		add_popularity = { ideology = communism popularity = 0.05 }
		add_political_power = 100
	}
}

country_event = { #Erhardt Law Backlash
	id = angriver.56
	immediate = {log = "[GetDateText]: [Root.GetName]: event angriver.56"}
	title = angriver.56.t
	desc = angriver.56.d

	picture = GFX_event_medieval_village_2
	is_triggered_only = yes

	option = {
		name = angriver.56.a
		add_political_power = -25
		add_stability = -0.02
	}
}

country_event = { #Internationale/Erhardt
	id = angriver.57
	immediate = {log = "[GetDateText]: [Root.GetName]: event angriver.57"}
	title = angriver.57.t
	desc = angriver.57.d

	picture = GFX_event_griffenheim
	is_triggered_only = yes

	option = {
		name = angriver.57.a
		add_popularity = { ideology = communism popularity = 0.05 }
		add_political_power = 150
		create_faction = ANG_internationale
		custom_effect_tooltip = ANG_diplomacy_decisions_tp
		set_country_flag = ANG_post_herzland_diplomacy
		hidden_effect = {
		news_event = { id = angriver_news.2 hours = 6 }
		}
	}
}

country_event = { #The New Election
	id = angriver.58
	immediate = {log = "[GetDateText]: [Root.GetName]: event angriver.58"}
	title = angriver.58.t
	desc = angriver.58.d
	picture = GFX_event_griffenheim
	is_triggered_only = yes

	option = { #Fiona
	ai_chance = { factor = 70 }
		name = angriver.58.a
		add_country_leader_role = {
			character = ANG_Fiona_Schmitz
			country_leader = {
				desc = lawyer_bird_desc
				expire = "1965.1.1"
				ideology = republicanism
				traits = {  }
			}
			promote_leader = yes
		}
		hidden_effect = {
		complete_national_focus = ANG_the_protege
		}
	}

	option = { #Meckler
	ai_chance = { factor = 30 }
		name = angriver.58.b
		set_politics = {
			ruling_party = democratic
			elections_allowed = no
		}
		add_popularity = { ideology = democratic popularity = 0.10 }
		hidden_effect = {
		complete_national_focus = ANG_an_unexpected_comeback
		}
	}
}

country_event = { #Otto's Death
	id = angriver.59
	immediate = {log = "[GetDateText]: [Root.GetName]: event angriver.59"}
	title = angriver.59.t
	desc = angriver.59.d

	picture = GFX_event_medieval_city_in_mountains
	is_triggered_only = yes

	option = {
		name = angriver.59.a
		add_popularity = { ideology = neutrality popularity = -0.03 }
		add_political_power = -30
		add_stability = -0.03
		ANG_Otto_Weschler = {
			retire = yes
		}
	}
}

country_event = { #Rallying the People
	id = angriver.60
	immediate = {log = "[GetDateText]: [Root.GetName]: event angriver.60"}
	title = angriver.60.t
	desc = angriver.60.d

	picture = GFX_event_speech
	is_triggered_only = yes

	option = {
		name = angriver.60.a
		add_popularity = { ideology = democratic popularity = 0.05 }
		add_political_power = 100
		add_stability = 0.05
	}
}

country_event = { #A New Republic
	id = angriver.61
	immediate = {log = "[GetDateText]: [Root.GetName]: event angriver.61"}
	title = angriver.61.t
	desc = angriver.61.d

	picture = GFX_event_griffenheim
	is_triggered_only = yes

	option = {
		name = angriver.61.a
		add_popularity = { ideology = democratic popularity = 0.05 }
		add_political_power = 100
		add_stability = 0.05
		custom_effect_tooltip = ANG_diplomacy_decisions_tp
		set_country_flag = ANG_post_herzland_diplomacy
	}
}

country_event = { #Federalism
	id = angriver.62
	immediate = {log = "[GetDateText]: [Root.GetName]: event angriver.62"}
	title = angriver.62.t
	desc = angriver.62.d

	picture = GFX_event_feast
	is_triggered_only = yes

	option = {
		name = angriver.62.a
		add_war_support = 0.05
		add_political_power = 75
	}
}

country_event = { #A Dream Realised
	id = angriver.63
	immediate = {log = "[GetDateText]: [Root.GetName]: event angriver.63"}
	title = angriver.63.t
	desc = angriver.63.d

	picture = GFX_event_griffenheim
	is_triggered_only = yes

	option = {
		name = angriver.63.a
		add_political_power = 150
		add_stability = 0.05
		custom_effect_tooltip = ANG_diplomacy_decisions_tp
		set_country_flag = ANG_post_herzland_diplomacy
	}
}

country_event = { #From the Shadows
	id = angriver.64
	immediate = {log = "[GetDateText]: [Root.GetName]: event angriver.64"}
	title = angriver.64.t
	desc = angriver.64.d

	picture = GFX_event_gothic_interior
	is_triggered_only = yes

	option = {
		name = angriver.64.a
		random_character = {
			limit = {
				is_unit_leader = yes
			}
			remove_unit_leader_role = yes
		}
	}
}

country_event = { #Peace with the Church
	id = angriver.65
	immediate = {log = "[GetDateText]: [Root.GetName]: event angriver.65"}
	title = angriver.65.t
	desc = angriver.65.d

	picture = GFX_event_feast
	is_triggered_only = yes

	option = {
		name = angriver.65.a
		add_political_power = 50
		add_stability = 0.03
		every_possible_country = {
			limit = {
				has_character = GRI_archon_eros_vii
			}
			GRI_archon_eros_vii = {
				set_nationality = ROOT
			}
		}
		every_possible_country = {
			limit = {
				has_character = GRI_archon_erion
			}
			GRI_archon_erion = {
				set_nationality = ROOT
			}
		}
		every_possible_country = {
			limit = {
				has_character = GRI_archon_proteus
			}
			GRI_archon_proteus = {
				set_nationality = ROOT
			}
		}
		every_possible_country = {
			limit = {
				has_character = GRI_archon_eros_vii
			}
			tooltip = available_political_advisor_tt
			show_ideas_tooltip = archon_eros
		}
		every_possible_country = {
			limit = {
				has_character = GRI_archon_erion
			}
			tooltip = available_political_advisor_tt
			show_ideas_tooltip = archon_erion
		}
		every_possible_country = {
			limit = {
				has_character = GRI_archon_proteus
			}
			tooltip = available_political_advisor_tt
			show_ideas_tooltip = archon_proteus
		}
	}
}

country_event = { #The Angriver Constitution
	id = angriver.66
	immediate = {log = "[GetDateText]: [Root.GetName]: event angriver.66"}
	title = angriver.66.t
	desc = angriver.66.d

	picture = GFX_event_griffenheim
	is_triggered_only = yes

	option = {
		name = angriver.66.a
		custom_effect_tooltip = ANG_grover_tp
		add_political_power = 50
		add_stability = 0.03
		add_popularity = { ideology = democratic popularity = 0.03 }
		ANG_grossmarschall_othmar_stoiber = {
			set_character_name = ANG_regent_othmar
		}
		every_possible_country = {
			limit = {
				has_character = GRI_emperor_grover_vi
			}
			GRI_emperor_grover_vi = {
				set_nationality = ROOT
			}
		}
		add_ideas = GRI_grover_vi
		hidden_effect = {
		    set_country_flag = ANG_boy_emperor
		}
	}
}

country_event = { #Amends with the Nobility
	id = angriver.67
	immediate = {log = "[GetDateText]: [Root.GetName]: event angriver.67"}
	title = angriver.67.t
	desc = angriver.67.d

	picture = GFX_event_feast
	is_triggered_only = yes

	option = {
		name = angriver.67.a
		add_political_power = 50
		add_stability = 0.03
		add_popularity = { ideology = fascism popularity = 0.03 }
		add_popularity = { ideology = neutrality popularity = 0.03 }
	}
}

country_event = { #Local Elections Allowed
	id = angriver.68
	immediate = {log = "[GetDateText]: [Root.GetName]: event angriver.68"}
	title = angriver.68.t
	desc = angriver.68.d

	picture = GFX_event_griffenheim
	is_triggered_only = yes

	option = {
		name = angriver.68.a
		add_political_power = 50
		add_stability = 0.03
		add_popularity = { ideology = fascism popularity = 0.04 }
		add_popularity = { ideology = neutrality popularity = 0.04 }
		add_popularity = { ideology = communism popularity = 0.04 }
	}
}

country_event = { #Herzland Kingdom and the World
	id = angriver.69
	immediate = {log = "[GetDateText]: [Root.GetName]: event angriver.69"}
	title = angriver.69.t
	desc = angriver.69.d

	picture = GFX_event_speech
	is_triggered_only = yes

	option = {
		name = angriver.69.a
		add_political_power = 150
		add_stability = 0.05
		custom_effect_tooltip = ANG_diplomacy_decisions_tp
		set_country_flag = ANG_post_herzland_diplomacy
	}
}

country_event = { #King of Herzland Grover I
	id = angriver.70
	immediate = {log = "[GetDateText]: [Root.GetName]: event angriver.70"}
	title = angriver.70.t
	desc = angriver.70.d

	picture = GFX_event_griffenheim
	fire_only_once = yes
	trigger = {
		tag = ANG
		date > 1021.5.21
		has_completed_focus = ANG_adopt_grover_vi
	}
	mean_time_to_happen = {
		days = 12
	}

	option = {
		name = angriver.70.a
		remove_ideas = GRI_grover_vi
		add_political_power = 200
		add_stability = 0.05
		GRI_emperor_grover_vi = {
			set_character_name = ANG_king_grover
		}
		set_portraits = {
			character = GRI_emperor_grover_vi
			civilian = { large ="gfx/leaders/GRI/Grover_VI_good.tga" }
		}
		add_country_leader_role = {
			character = GRI_emperor_grover_vi
			country_leader = {
				expire = "1965.1.1"
				ideology = harmonic_constitutionalism
				traits = { chosen_one }
			}
			promote_leader = yes
		}
	}
}

country_event = { #The Revolution Triumphant
	id = angriver.71
	immediate = {log = "[GetDateText]: [Root.GetName]: event angriver.71"}
	title = angriver.71.t
	desc = angriver.71.d

	picture = GFX_event_feast
	is_triggered_only = yes

	option = {
		name = angriver.71.a
		trigger = {
	        FAT = {
	           exists = yes
	        }
	    }
		ai_chance = {
			factor = 95
		}
		if = {
			limit = {
				is_ai = no
				FAT = { is_ai = yes }
			}
			FAT = { change_tag_from = ROOT	}
		}
		else = {
			custom_effect_tooltip = GAME_OVER_TT
		}
		hidden_effect = {
			FAT = { country_event = { days = 1 id = angriver.72 } }
		}
	}
	option = {
		name = angriver.71.b
		ai_chance = {
			factor = 5
		}
		custom_effect_tooltip = ANG_political_tree_tp
		add_stability = -0.35
		add_war_support = -0.35
		add_political_power = -300
		hidden_effect = {
		FAT = { country_event = { days = 1 id = angriver.73 } }
        set_country_flag = ANG_revisionism
		load_focus_tree = { tree = angriver_focus_republicans_imperial keep_completed = yes }
		mark_focus_tree_layout_dirty = yes
		}
	}
}

country_event = { #FAT annexes ANG
	id = angriver.72
	immediate = {log = "[GetDateText]: [Root.GetName]: event angriver.72"}
	title = angriver.72.t
	desc = angriver.72.d

	picture = GFX_event_griffenheim
	is_triggered_only = yes

	option = {
		name = angriver.72.a
		add_political_power = 200
		add_stability = 0.20
		annex_country = { target = FROM transfer_troops = yes }
		every_possible_country = {
			limit = {
				has_character = ANG_Gerhard_Bluhm
			}
			ANG_Gerhard_Bluhm = {
				set_nationality = ROOT
			}
		}
		FROM = {
			every_character = {
				limit = {
					is_country_leader = no
					is_unit_leader = yes
				}
				set_nationality = ROOT
			}
		}
		hidden_effect = {
			for_each_scope_loop = {
				array = FROM.core_states
				add_core_of = FAT
			}
		}
	}
}

country_event = { #Revisionism
	id = angriver.73
	immediate = {log = "[GetDateText]: [Root.GetName]: event angriver.73"}
	title = angriver.73.t
	desc = angriver.73.d

	picture = GFX_event_griffenheim
	is_triggered_only = yes

	option = {
		name = angriver.73.a
		add_political_power = -100
		reverse_add_opinion_modifier = { target = FROM modifier = mortal_enemies }
		hidden_effect = {
			for_each_scope_loop = {
				array = FROM.core_states
				add_claim_by = FAT
			}
		}
	}
}

country_event = { #The Preparation
	id = angriver.74
	immediate = {log = "[GetDateText]: [Root.GetName]: event angriver.74"}
	title = angriver.74.t
	desc = angriver.74.d

	picture = GFX_event_griffenheim
	is_triggered_only = yes

	option = {
		name = angriver.74.a
		add_political_power = 100
		add_war_support = 0.10
	}
}

country_event = { #The Leak
	id = angriver.75
	immediate = {log = "[GetDateText]: [Root.GetName]: event angriver.75"}
	title = angriver.75.t
	desc = angriver.75.d

	picture = GFX_event_medieval_city_in_mountains
	is_triggered_only = yes

	option = {
		name = angriver.75.a
		add_political_power = -10
		hidden_effect = {
		   country_event = { id = angriver.76 days = 3 }
		}
	}
}

country_event = { #The Protest
	id = angriver.76
	immediate = {log = "[GetDateText]: [Root.GetName]: event angriver.76"}
	title = angriver.76.t
	desc = angriver.76.d

	picture = GFX_event_griffenheim
	is_triggered_only = yes

	option = {
		name = angriver.76.a
		add_political_power = -75
		add_stability = -0.05
		add_war_support = -0.05
		hidden_effect = {
		   country_event = { id = angriver.77 days = 1 }
		}
	}
}

country_event = { #The Army Refuses Orders
	id = angriver.77
	immediate = {log = "[GetDateText]: [Root.GetName]: event angriver.77"}
	title = angriver.77.t
	desc = angriver.77.d

	picture = GFX_event_medieval_city
	is_triggered_only = yes

	option = {
		name = angriver.77.a
		add_political_power = -75
		add_stability = -0.10
		add_war_support = -0.10
		hidden_effect = {
		   country_event = { id = angriver.78 days = 3 }
		}
	}
}

country_event = { #Riots Ensue
	id = angriver.78
	immediate = {log = "[GetDateText]: [Root.GetName]: event angriver.78"}
	title = angriver.78.t
	desc = angriver.78.d

	picture = GFX_event_griffon_with_gun
	is_triggered_only = yes

	option = {
		name = angriver.78.a
		add_political_power = -100
		add_stability = -0.15
		add_war_support = -0.15
		hidden_effect = {
		   country_event = { id = angriver.79 days = 3 }
		}
	}
}

country_event = { #Bluhm Tries to Flee
	id = angriver.79
	immediate = {log = "[GetDateText]: [Root.GetName]: event angriver.79"}
	title = angriver.79.t
	desc = angriver.79.d

	picture = GFX_event_feast
	is_triggered_only = yes

	option = {
		name = angriver.79.a
		add_political_power = -100
		add_stability = -0.20
		add_war_support = -0.20
		hidden_effect = {
		   country_event = { id = angriver.80 days = 3 }
		}
	}
}

country_event = { #Rioters Lynch Him
	id = angriver.80
	immediate = {log = "[GetDateText]: [Root.GetName]: event angriver.80"}
	title = angriver.80.t
	desc = angriver.80.d

	picture = GFX_event_medieval_city_ugly_street
	is_triggered_only = yes

	option = {
		name = angriver.80.a
		add_political_power = -100
		add_stability = -0.25
		add_war_support = -0.25
		ANG_Gerhard_Bluhm = {
			retire = yes
		}
		add_country_leader_role = {
			character = ANG_Reinhard_Olbeaking
			country_leader = {
				desc = reinhard_olbeaking_desc
				expire = "1965.1.1"
				ideology = populism
				traits = {  }
			}
			promote_leader = yes
		}
		hidden_effect = {
		   country_event = { id = angriver.81 days = 3 }
		   add_country_leader_role = {
				character = ANG_Saskia_Meckler
				country_leader = {
					desc = saskia_meckler_NRP_desc
					expire = "1965.1.1"
					ideology = socialism
					traits = {  }
				}
				promote_leader = yes
			}
		}
	}
}

country_event = { #NPP Coup
	id = angriver.81
	immediate = {log = "[GetDateText]: [Root.GetName]: event angriver.81"}
	title = angriver.81.t
	desc = angriver.81.d

	picture = GFX_event_griffenheim
	is_triggered_only = yes

	option = {
		name = angriver.81.a
		add_political_power = 50
		add_stability = 0.05
		add_war_support = 0.05
		set_politics = {
			ruling_party = democratic
			elections_allowed = no
		}
		add_popularity = { ideology = democratic popularity = 0.03 }
		if = {
			limit = {
				has_dlc = "La Resistance"
			}
			swap_ideas = {
				remove_idea = ANG_republican_secret_police_lar
				add_idea = ANG_republican_secret_police_enemy_lar
			}
		}
		else ={
			swap_ideas = {
				remove_idea = ANG_republican_secret_police
				add_idea = ANG_republican_secret_police_enemy
			}
		}
		custom_effect_tooltip = ANG_political_tree_tp
		hidden_effect = {
		   set_country_flag = ANG_bluhm_is_dead
		   load_focus_tree = { tree = angriver_focus_finale keep_completed = yes }
		}
	}
}

country_event = { #The Three Principles
	id = angriver.82
	immediate = {log = "[GetDateText]: [Root.GetName]: event angriver.82"}
	title = angriver.82.t
	desc = angriver.82.d

	picture = GFX_event_speech
	is_triggered_only = yes

	option = {
		name = angriver.82.a
		add_political_power = 25
		add_stability = 0.05
		add_war_support = 0.05
		add_popularity = { ideology = democratic popularity = 0.03 }
		remove_ideas = ANG_without_democracy_idea
		remove_ideas = ANG_bread_and_circuses_idea
	}
}

country_event = { #The Hertzog Trial
	id = angriver.83
	immediate = {log = "[GetDateText]: [Root.GetName]: event angriver.83"}
	title = angriver.83.t
	desc = angriver.83.d

	picture = GFX_event_medieval_city_in_mountains
	is_triggered_only = yes

	option = {
		name = angriver.83.a
		add_political_power = 75
		if = {
		limit = { has_idea = ANG_secret_police }
		remove_ideas = ANG_secret_police
		}
		hidden_effect = {
		set_country_flag = ANG_hertzog_dead
		}
	}
}

country_event = { #The Elections
	id = angriver.84
	immediate = {log = "[GetDateText]: [Root.GetName]: event angriver.84"}
	title = angriver.84.t
	desc = angriver.84.d

	picture = GFX_event_griffenheim
	is_triggered_only = yes

	option = {
	ai_chance = {
		    factor = 25
		}
		name = angriver.84.a
		add_political_power = 25
		add_stability = 0.05
		add_war_support = 0.05
		add_popularity = { ideology = neutrality popularity = 0.06 }
		every_possible_country = {
			limit = {
				has_character = JER_theodore_verany
			}
			JER_theodore_verany = {
				set_nationality = ROOT
			}
		}
		promote_character = {
			character = JER_theodore_verany
			ideology = liberalism
		}
	}

	option = {
	ai_chance = {
			factor = 25
		}
		name = angriver.84.b
		add_political_power = 25
		add_stability = 0.05
		add_war_support = 0.05
		add_popularity = { ideology = democratic popularity = 0.05 }
	}

	option = {
    ai_chance = {
			factor = 25
		}
		name = angriver.84.c
		add_political_power = 25
		add_stability = 0.05
		add_war_support = 0.05
		add_popularity = { ideology = neutrality popularity = 0.05 }
		set_politics = {
			ruling_party = neutrality
			elections_allowed = no
		}
		every_possible_country = {
			limit = {
				has_character = FAT_heinrich_kingfeather
			}
			FAT_heinrich_kingfeather = {
				set_nationality = ROOT
			}
		}
		FAT_heinrich_kingfeather = {
			add_country_leader_role = {
				country_leader = {
					expire = "1965.1.1"
					ideology = republicanism
					traits = {  }
				}
				promote_leader = yes
			}
		}
		set_party_name = {
		    ideology = neutrality
		    name = ANG_pdr
		    long_name = ANG_pdr_long
		}
	}

	option = {
    ai_chance = {
			factor = 25
		}
		name = angriver.84.e
		add_political_power = 25
		add_stability = 0.05
		add_war_support = 0.05
		add_popularity = { ideology = neutrality popularity = 0.05 }
		set_politics = {
			ruling_party = neutrality
			elections_allowed = no
		}
		add_country_leader_role = {
			character = ANG_Fiona_Schmitz
			country_leader = {
				desc = lawyer_bird_desc
				expire = "1965.1.1"
				ideology = republicanism
				traits = {  }
			}
			promote_leader = yes
		}
		set_party_name = {
		    ideology = neutrality
		    name = ANG_liberal_party
		    long_name = ANG_liberal_party_long
		}
	}
}

country_event = { #The Coronation
	id = angriver.85
	immediate = {log = "[GetDateText]: [Root.GetName]: event angriver.85"}
	title = angriver.85.t
	desc = angriver.85.d

	picture = GFX_event_griffenheim
	is_triggered_only = yes

	option = {
		name = angriver.85.a
		add_political_power = 100
		add_stability = 0.05
		add_popularity = { ideology = fascism popularity = 0.05 }
		ANG_baron_leer_the_vicious = {
			set_character_name = ANG_emperor_leer
		}
		set_country_leader_description = {
		  ideology = fascism
		  desc = emperor_leer_desc
		}
		set_portraits = {
			character = ANG_baron_leer_the_vicious
			civilian = { large ="gfx/leaders/ANG/leer-ge-2.tga" }
			army = { large ="gfx/leaders/ANG/leer-ge-2.tga" }
		}

	}
}

country_event = { #Out With the Old
	id = angriver.86
	immediate = {log = "[GetDateText]: [Root.GetName]: event angriver.86"}
	title = angriver.86.t
	desc = angriver.86.d

	picture = GFX_event_gothic_interior
	is_triggered_only = yes

	option = {
		name = angriver.86.a
		add_political_power = -100
		add_stability = 0.05
		add_popularity = { ideology = neutrality popularity = -0.03 }
		add_popularity = { ideology = democratic popularity = -0.03 }
		every_owned_state = {
		limit = { is_core_of = ANG }
		save_current_manpower = yes
		add_manpower = -750
		restore_previous_manpower = yes
        		}
	}
}

country_event = { #The Imperial Cult
	id = angriver.87
	immediate = {log = "[GetDateText]: [Root.GetName]: event angriver.87"}
	title = angriver.87.t
	desc = angriver.87.d

	picture = GFX_event_griffenheim
	is_triggered_only = yes

	option = {
		name = angriver.87.a
		add_political_power = 50
		custom_effect_tooltip = available_political_advisor
		show_ideas_tooltip  = ANG_new_priest
	}
}

country_event = { #The Scourging
	id = angriver.88
	immediate = {log = "[GetDateText]: [Root.GetName]: event angriver.88"}
	title = angriver.88.t
	desc = angriver.88.d

	picture = GFX_event_gothic_interior
	is_triggered_only = yes

	option = {
		name = angriver.88.a
		add_political_power = -50
		add_stability = 0.05
		save_current_manpower = yes
		557 = {
		    add_manpower = -50000
        }
		556 = {
		    add_manpower = -50000
        }
		548 = {
		    add_manpower = -50000
        }
		480 = {
		    add_manpower = -50000
        }
		474 = {
		    add_manpower = -50000
        }
		582 = {
		    add_manpower = -50000
        }
		485 = {
		    add_manpower = -50000
        }
		432 = {
		    add_manpower = -50000
        }
		450 = {
		    add_manpower = -50000
        }
		583 = {
		    add_manpower = -50000
        }
		449 = {
		    add_manpower = -50000
		}
		restore_previous_manpower = yes
	}
}

country_event = { #The Crowning at Griffonstone
	id = angriver.89
	immediate = {log = "[GetDateText]: [Root.GetName]: event angriver.89"}
	title = angriver.89.t
	desc = angriver.89.d

	picture = GFX_event_griffinstone_sunset
	is_triggered_only = yes

	option = {
		name = angriver.89.a
		add_political_power = 100
		add_stability = 0.10
		set_capital = {
			state = 389
			remember_old_capital = no
		}
		389 = {
		    add_extra_state_shared_building_slots = 4
			add_building_construction = {
			type = industrial_complex
			level = 2
			instant_build = yes
			}
			add_building_construction = {
			type = arms_factory
			level = 2
			instant_build = yes
			}
			add_building_construction = {
			type = infrastructure
			level = 4
			instant_build = yes
			}
		}
	}
}

country_event = { #Renovato Privlegia
	id = angriver.90
	immediate = {log = "[GetDateText]: [Root.GetName]: event angriver.90"}
	title = angriver.90.t
	desc = angriver.90.d

	picture = GFX_event_feast
	is_triggered_only = yes

	option = {
		name = angriver.90.a
		add_political_power = -100
		add_stability = 0.10
		add_popularity = { ideology = democratic popularity = -0.03 }
		add_popularity = { ideology = neutrality popularity = -0.03 }
		add_popularity = { ideology = communism popularity = -0.03 }
	}
}

country_event = { #The Burning of Karthin
	id = angriver.91
	immediate = {log = "[GetDateText]: [Root.GetName]: event angriver.91"}
	title = angriver.91.t
	desc = angriver.91.d

	picture = GFX_event_griffon_soldier
	is_triggered_only = yes

	option = {
		name = angriver.91.a
		add_political_power = -100
		add_stability = 0.05
		save_current_manpower = yes
		371 = {
			set_state_category = large_town
		    add_manpower = -300000
			remove_building = {
			type = industrial_complex
			level = 2
			}
			remove_building = {
			type = arms_factory
			level = 2
			}
			remove_building = {
			type = infrastructure
			level = 4
			}
		}
		restore_previous_manpower = yes
		set_victory_points = {
			province = 3144
			value = 15
		}
	}
}
country_event = { #Our shit got stolen!!!
	id = angriver.92
	immediate = {log = "[GetDateText]: [Root.GetName]: event angriver.92"}
	title = angriver.92.t
	desc = angriver.92.d

	picture = GFX_event_griffon_royal_guard
	is_triggered_only = yes

	option = {
		name = angriver.92.a
		transfer_units_fraction = {
			target = FROM          # the recipient
			target_organization = 1
			source_organization = 1
			size = 0.05             # [0,1] Default value for the ratio below if they are not specified
			stockpile_ratio = 0  # [0,1] Overrides size modifier for the stockpiled equipment and fuel
			army_ratio = 0.05       # [0,1] Overrides size modifier for army
			navy_ratio = 0.05       # [0,1] Overrides size modifier for navy
			air_ratio = 0.05        # [0,1] Overrides size modifier for air
			keep_unit_leaders_trigger = {
				always = yes
			}
		}
	}
}
country_event = { #Kemerskai and Hera wholesome meetup
	id = angriver.93
	immediate = {log = "[GetDateText]: [Root.GetName]: event angriver.93"}
	title = angriver.93.t
	desc = angriver.93.d

	picture = GFX_event_gothic_interior
	is_triggered_only = yes

	option = {
		name = angriver.93.a
		add_stability = 0.05
		add_popularity = {
			ideology = democratic
			popularity = -0.05
		}
		FAT = { FAT_kill_kemerskai = yes }
		set_global_flag = keremeskai_dead
	}
}
country_event = { #Final black claw event
	id = angriver.94
	immediate = {log = "[GetDateText]: [Root.GetName]: event angriver.94"}
	title = angriver.94.t
	desc = angriver.94.d

	picture = GFX_event_forest_depression
	is_triggered_only = yes

	option = {
		name = angriver.94.a
		ANG_hera_eichberg = {
			retire = yes
		}
	}
}

### News Events ###
news_event = { #The Heartlands United
	id = angriver_news.1
	immediate = {log = "[GetDateText]: [Root.GetName]: event angriver_news.1"}
	title = angriver_news.1.t
	desc = angriver_news.1.d
	picture = GFX_news_griffon_soldier
	is_triggered_only = yes
	major = yes

	option = {
		name = angriver_news.1.a
	}
}

news_event = { #The International
	id = angriver_news.2
	immediate = {log = "[GetDateText]: [Root.GetName]: event angriver_news.2"}
	title = angriver_news.2.t
	desc = angriver_news.2.d
	picture = GFX_news_griffon_soldier
	is_triggered_only = yes
	major = yes

	option = {
		name = angriver_news.2.a
	}
}

news_event = { #The New Empire
	id = angriver_news.3
	immediate = {log = "[GetDateText]: [Root.GetName]: event angriver_news.3"}
	title = angriver_news.3.t
	desc = angriver_news.3.d
	picture = GFX_news_griffon_soldier
	is_triggered_only = yes
	major = yes

	option = {
		name = angriver_news.3.a
	}
}
