﻿add_namespace = news

# Welcome
news_event = { #friendship games
	id = news.1
	immediate = {log = "[GetDateText]: [Root.GetName]: event news.1"}
	title = news.1.t
	desc = news.1.d
	picture = GFX_news_event_friendship_games
	major = yes
	is_triggered_only = yes
	trigger = {
		EQS = {
			exists = yes
			is_subject = no
			has_war = no
		}
	}

	option = {
		name = news.1.a
		trigger = { 
			NOT = { 
				tag = CHN
				tag = LNS
			}
			OR = {
				TAG = EQS
				is_in_faction_with = EQS
				is_subject_of = EQS
			}
		}
	}
	
	option = {
		name = news.1.b
		trigger = { 
			OR = {
				TAG = CHN 
				tag = LNS
			}
		}
	}

	option = {
		name = news.1.c
		trigger = { 
			NOT = { 
				TAG = CHN 
				TAG = EQS
				tag = LNS
				is_in_faction_with = EQS
				is_subject_of = EQS 
			} 
		}
	}
}

# Faction Founded!
news_event = {
	id = news.159
	immediate = {log = "[GetDateText]: [Root.GetName]: event news.159"}
	title = news.159.t
	desc = {
		text = news.159.d_01
		trigger = { FROM = { has_government = neutrality } }
	}
	desc = {
		text = news.159.d_02
		trigger = { FROM = { has_government = democratic } }
	}
	desc = {
		text = news.159.d_03
		trigger = { FROM = { has_government = fascism } }
	}
	desc = {
		text = news.159.d_04
		trigger = { FROM = { has_government = communism } }
	}

	picture = GFX_news_griffon_diplomacy

	major = yes

	is_triggered_only = yes

	option = {
		trigger = {
			NOT = { tag = FROM }
			NOT = { is_in_faction_with = FROM }
		}
		name = news.159.a
		every_other_country = {
			limit = { is_in_faction_with = FROM }
			custom_effect_tooltip = news.159.tt
		}
	}
	option = {
		trigger = { tag = FROM }
		name = news.159.b
	}
	option = {
		trigger = {
			NOT = { tag = FROM }
			is_in_faction_with = FROM
		}
		name = news.159.c
	}
}
news_event = { #Luna Destroys Stalliongrad
	id = news.208
	immediate = {log = "[GetDateText]: [Root.GetName]: event news.208"}
	title = news.208.t
	desc = {
		trigger = { FROM = { original_tag = NLR } }
		text = news.208.d
	}
	desc = {
		trigger = { FROM = { original_tag = EQS } }
		text = news.208.d_sol
	}
	picture = GFX_news_event_the_war

	major = yes

	is_triggered_only = yes
	option = {
		name = news.208.a
	}
}
country_event = {
	id = news.2001
	immediate = {log = "[GetDateText]: [Root.GetName]: event news.2001"}
	hidden = yes
	fire_only_once = yes
	is_triggered_only = yes #moved to on_declare_war
	option = {
		news_event = news.2
	}
}
news_event = { # war with buf
	id = news.2
	immediate = {log = "[GetDateText]: [Root.GetName]: event news.2"}
	title = news.2.t
	desc = news.2.d
	picture = GFX_news_event_buffalo

	major = yes

	is_triggered_only = yes


	option = {
		name = news.2.a
		trigger = {
			NOT = {
				TAG = CHN
			}
		}
	}
	option = {
		name = news.2.b
		trigger = { tag = CHN }

	}
}
news_event = { # THE WAR
	id = news.3
	immediate = {log = "[GetDateText]: [Root.GetName]: event news.3"}
	title = news.3.t
	desc = news.3.d
	picture = GFX_news_event_the_war

	major = yes

	is_triggered_only = yes
	immediate = {
		set_global_flag = the_war
		hidden_effect = { EQS = { add_war_support = 0.15 } }
	}
	option = {
		name = news.3.a
		trigger = {
			NOT = { 
				original_tag = EQS
				original_tag = CRY
				TAG = CHN 
			}
		}
	}
	option = {
		name = news.3.b
		trigger = {
			OR = {
				original_tag = EQS
				original_tag = CRY
			}
		}
	}
	option = {
		name = news.3.c
		trigger = {
			tag = CHN
		}
	}
}

news_event = { # CRYSTAL FAIR
	id = news.4
	immediate = {log = "[GetDateText]: [Root.GetName]: event news.4"}
	title = news.4.t
	desc = news.4.d
	picture = GFX_news_event_crystal_fair

	major = yes

	is_triggered_only = yes
	option = {
		name = news.4.a
		trigger = {
			NOT = {
				original_tag = CRY
				has_government = fascism
			}
		}
	}
	option = {
		name = news.4.b
		trigger = { original_tag = CRY }

	}
	option = {
		name = news.4.c
		trigger = { has_government = fascism }

	}
}

news_event = {
	id = news.5
	immediate = {log = "[GetDateText]: [Root.GetName]: event news.5"}
	title = news.5.t
	desc = news.5.d
	picture = GFX_news_eaw_soldier_logo

	major = yes

	is_triggered_only = yes

	option = {
		name = news.5.a
	}
}
news_event = { ### Octavia Performs
	id = news.6
	immediate = {log = "[GetDateText]: [Root.GetName]: event news.6"}
	title = news.6.t
	desc = news.6.d
	picture = GFX_news_event_octavia_performs

	major = yes

	trigger = {
		has_global_flag = the_war
		3 = { is_controlled_by = EQS }
		EQS = {
			has_war_with = CHN
			surrender_progress > 0.15
		}
		NOT = {
			has_global_flag = octavia_performs
		}
	}
	immediate = {
		set_global_flag = octavia_performs
	}
	mean_time_to_happen = { days = 100 }
	option = {
		name = news.6.a
		trigger = {
			NOT = {
				tag = CHN
				original_tag = EQS
			}
		}
	}
	option = {
		name = news.6.b
		trigger = { original_tag = EQS }
	}
	option = {
		name = news.6.c
		trigger = { tag = CHN }
	}
}

news_event = {
	id = news.7
	immediate = {log = "[GetDateText]: [Root.GetName]: event news.7"}
	title = news.7.t
	desc = {
		text = news.7.d
		trigger = { OLE = { has_government = neutrality } }
	}
	desc = {
		text = news.7.d_fash
		trigger = { OLE = { has_government = fascism } }
	}
	desc = {
		text = news.7.d_com
		trigger = { OLE = { has_government = communism } }
	}
	picture = GFX_news_canterlot

	major = yes

	is_triggered_only = yes

	option = {
		name = news.7.a
		trigger = {
			Not = { tag = OLE }
		}
	}
	option = {
		name = news.7.b
		trigger = {
			tag = OLE
		}
	}
}
## DRAGON QUESTION ## BADLANDS DOWN THERE
news_event = {
	id = news.10
	immediate = {log = "[GetDateText]: [Root.GetName]: event news.10"}
	title = news.10.t
	desc = news.10.d
	picture = GFX_news_event_badlands

	major = yes

	is_triggered_only = yes

	option = {
		name = news.10.a
	}
}
country_event = {
	id = news.1101
	immediate = {log = "[GetDateText]: [Root.GetName]: event news.1101"}
	hidden = yes
	fire_only_once = yes
	is_triggered_only = yes
	trigger = {
		3 = { is_controlled_by = EQS }
		country_exists = EQS
		EQS = { has_civil_war = no }
		EQS = { has_war = no }
		EQS = { NOT = { has_government = communism } }
	}

	option = {
		news_event = news.11
	}
}
# Grand Galloping Gala
news_event = {
	id = news.11
	immediate = {log = "[GetDateText]: [Root.GetName]: event news.11"}
	title = news.11.t
	desc = news.11.d
	picture = GFX_news_event_galloping_gala

	major = yes
	is_triggered_only = yes

	option = {
		name = news.11.a
		trigger = {
			NOT = { TAG = STG }
			NOT = { TAG = CHN }
		}
		hidden_effect = {
			country_event = { id = news.1301 days = 365 }
		}
	}
	option = {
		name = news.11.b
		trigger = {
			TAG = STG
		}
		hidden_effect = {
			country_event = { id = news.1301 days = 365 }
		}
	}
	option = {
		name = news.11.c
		trigger = {
			TAG = CHN
		}
		hidden_effect = {
			country_event = { id = news.1301 days = 365 }
		}
	}
}
country_event = {
	id = news.1301
	immediate = {log = "[GetDateText]: [Root.GetName]: event news.1301"}
	hidden = yes
	fire_only_once = yes
	is_triggered_only = yes
	trigger = {
		3 = { is_controlled_by = EQS }
		country_exists = EQS
		EQS = { has_civil_war = no }
		EQS = { has_war = no }
		EQS = { NOT = { has_government = communism } }
	}

	option = {
		news_event = news.13
	}
}
news_event = {
	id = news.13
	immediate = {log = "[GetDateText]: [Root.GetName]: event news.13"}
	title = news.13.t
	desc = news.13.d
	picture = GFX_news_event_galloping_gala

	major = yes
	is_triggered_only = yes

	option = {
		name = news.13.a
		trigger = {
			NOT = { TAG = STG }
			NOT = { TAG = CHN }
		}
	}
	option = {
		name = news.13.b
		trigger = {
			TAG = STG
		}
	}
	option = {
		name = news.13.c
		trigger = {
			TAG = CHN
		}
	}
}
news_event = { #from daring_resistance.41
	id = news.14
	immediate = {log = "[GetDateText]: [Root.GetName]: event news.14"}
	title = news.14.t
	desc = news.14.d
	picture = GFX_news_event_daring_doo

	major = yes

	is_triggered_only = yes

	option = {
		name = news.14.a
		trigger = {
			tag = CES
		}
	}
	option = {
		name = news.14.b
		trigger = {
			OR = {
				has_government = neutrality
				AND = {
					has_government = democratic
					NOT = {
						tag = CES
					}
				}
				has_government = communism
			}
			NOT = {
				has_war_with = CES
			}
		}
	}
	option = {
		name = news.14.c
		trigger = {
			NOT = {
				OR = {
					tag = CES
					AND = {
						OR = {
							is_ally_with = CES
							has_government = neutrality
							has_government = democratic
							has_government = communism
						}
						NOT = {
							has_war_with = CES
						}
					}
				}
			}
		}
	}
}
news_event = {
	id = news.12
	immediate = {log = "[GetDateText]: [Root.GetName]: event news.12"}
	title = { 
		text = news.12.t_equestria
		trigger = {
			OR = {
				original_tag = EQS
				original_tag = CRY
				original_tag = BUF
			}
		}
	}
	title = { 
		text = news.12.t_world
		trigger = { BUF = { exists = no } NOT = { OR = { original_tag = EQS original_tag = CRY } } } }
	title = { 
		text = news.12.t_world_puppeted
		trigger = { BUF = { is_subject_of = EQS } NOT = { OR = { original_tag = EQS original_tag = CRY } } } }
	desc = news.12.d
	picture = GFX_news_event_buffalo_state_annexed

	major = yes

	is_triggered_only = yes

	option = {
		name = news.12.a
		trigger = { 
			AND = {
				NOT = { original_tag = EQS }
				NOT = { original_tag = BUF }
				NOT = { original_tag = CRY }
			}
		}
	}
	option = {
		name = news.12.b
		trigger = {
			OR = {
				original_tag = EQS
				original_tag = CRY
			}
		}
	}
	option = {
		name = news.12.c
		trigger = { original_tag = BUF }
	}
}
news_event = {
	id = news.15
	immediate = {log = "[GetDateText]: [Root.GetName]: event news.15"}
	title = news.15.t
	desc = news.15.d
	picture = GFX_news_event_olenia_surrenders

	major = yes

	is_triggered_only = yes

	option = {
		name = news.15.a
		trigger = { NOT = { original_tag = EQS TAG = CHN } }
	}
	option = {
		name = news.15.b
		trigger = { original_tag = EQS }
	}
	option = {
		name = news.15.c
		trigger = { TAG = CHN }
	}
}
news_event = {
	id = news.16
	immediate = {log = "[GetDateText]: [Root.GetName]: event news.16"}
	title = news.16.t
	desc = news.16.d
	picture = GFX_news_event_daring_doo

	major = yes

	trigger = {
		3 = { is_controlled_by = EQS }
		country_exists = EQS
		EQS = { has_war = no }
		NOT = {
			AND = {
				country_exists = CES
				CES = {
					has_country_flag = CES_shadow_path
				}
			}
		}
	}

	is_triggered_only = yes

	option = {
		name = news.16.a
		trigger = {
			NOT = { TAG = STG }
			NOT = { TAG = CHN }
		}
	}
	option = {
		name = news.16.b
		trigger = {
			TAG = STG
		}
	}
	option = {
		name = news.16.c
		trigger = {
			TAG = CHN
		}
	}
}
news_event = {
	id = news.17
	immediate = {log = "[GetDateText]: [Root.GetName]: event news.17"}
	title = news.17.t
	desc = news.17.d
	picture = GFX_news_event_changeling_hive

	major = yes

	is_triggered_only = yes

	option = {
		name = news.17.a
		trigger = {
			NOT = { tag = CHN }
		}
		if = {
			limit = {
				original_tag = EQS
			}
			add_war_support = 0.15
		}
	}
	option = {
		name = news.17.b
		trigger = { tag = CHN }
	}
}
news_event = {
	id = news.18
	immediate = {log = "[GetDateText]: [Root.GetName]: event news.18"}
	title = news.18.t
	desc = news.18.d
	picture = GFX_news_event_changeling_hive

	major = yes

	is_triggered_only = yes

	option = {
		name = news.18.a
	}
}
news_event = {
	id = news.19
	immediate = {log = "[GetDateText]: [Root.GetName]: event news.19"}
	title = news.19.t
	desc = news.19.d
	picture = GFX_news_event_olenia_castle

	major = yes

	is_triggered_only = yes

	option = {
		name = news.19.a
		trigger = {
			NOT = {
				TAG = CHN
			}
		}
	}
	option = {
		name = news.19.b
		trigger = { tag = CHN }
	}
}
## changelings are puppeted ## end of war


### changelings are annexed  ### end of war
country_event = {
	id = news.2101
	immediate = {log = "[GetDateText]: [Root.GetName]: event news.2101"}
	hidden = yes
	is_triggered_only = yes
	immediate = { set_global_flag = the_war_ended }
	fire_only_once = yes
	option = {
		news_event = news.21
		EQS = {
			if = {
				limit = { has_country_flag = has_GRF_volunteers }
				delete_unit_template_and_units = { division_template = "Free Griffon Division" }
				delete_unit_template_and_units = { division_template = "Militia Division" }
				clr_country_flag = has_GRF_volunteers
			}
		}
	}
}
news_event = {
	id = news.21
	immediate = {log = "[GetDateText]: [Root.GetName]: event news.21"}
	title = news.21.t
	desc = news.21.d
	picture = GFX_news_event_changeling_hive

	major = yes

	trigger = {
		OR = {
			CHN = { is_subject_of = EQS }
			AND = { 251 = { is_owned_by = EQS } CHN = { is_subject = no } }
		}
	}

	is_triggered_only = yes
	option = {
		name = news.21.a
		trigger = {
			NOT = {
				TAG = CHN
			}
		}
	}
	option = {
		name = news.21.b
		trigger = { tag = CHN }
	}
}
country_event = {
	id = news.2201
	immediate = {log = "[GetDateText]: [Root.GetName]: event news.2201"}
	hidden = yes
	is_triggered_only = yes
	immediate = { set_global_flag = the_war_ended }
	fire_only_once = yes
	option = {
		news_event = news.22
		EQS = {
			if = {
				limit = { has_country_flag = has_GRF_volunteers }
				delete_unit_template_and_units = { division_template = "Free Griffon Division" }
				delete_unit_template_and_units = { division_template = "Militia Division" }
				clr_country_flag = has_GRF_volunteers
			}
		}
	}
}
news_event = {
	id = news.22
	immediate = {log = "[GetDateText]: [Root.GetName]: event news.22"}
	title = news.22.t
	desc = news.22.d
	picture = GFX_news_event_changeling_hive

	major = yes

	is_triggered_only = yes

	trigger = {
		OR = {
			CHN = { is_subject_of = STG }
			AND = { 251 = { is_owned_by = STG } CHN = { is_subject = no } }
		}
	}

	option = {
		name = news.22.a
		trigger = {
			NOT = {
				TAG = CHN
			}
		}
	}
	option = {
		name = news.22.b
		trigger = { tag = CHN }
	}
}
news_event = {
	id = news.23
	immediate = {log = "[GetDateText]: [Root.GetName]: event news.23"}
	title = news.23.t
	desc = news.23.d
	picture = GFX_news_event_our_town

	major = yes

	is_triggered_only = yes

	option = {
		name = news.23.a
	}
}
news_event = {
	id = news.24
	immediate = {log = "[GetDateText]: [Root.GetName]: event news.24"}
	title = news.24.t
	desc = news.24.d
	picture = GFX_news_event_socialist_union

	major = yes

	is_triggered_only = yes

	option = {
		name = news.24.a
	}
}
news_event = { # Tensions between STG and Griffon Colony
	id = news.25
	immediate = {log = "[GetDateText]: [Root.GetName]: event news.25"}
	title = news.25.t
	desc = news.25.d
	picture = GFX_news_event_socialist_union

	major = yes

	is_triggered_only = yes

	option = {
		name = news.25.a
	}
}
news_event = { # STG has wargoals on GRF
	id = news.26
	immediate = {log = "[GetDateText]: [Root.GetName]: event news.26"}
	title = news.26.t
	desc = news.26.d
	picture = GFX_news_event_socialist_union

	major = yes

	is_triggered_only = yes

	option = {
		name = news.26.a
	}
}

news_event = { # Griffon Civil War
	id = news.27
	immediate = {log = "[GetDateText]: [Root.GetName]: event news.27"}
	title = news.27.t
	desc = news.27.d
	picture = GFX_news_griffon_soldier

	major = yes

	is_triggered_only = yes

	option = {
		name = news.27.a
	}
}
news_event = { # Sinister threatens Equestria
	id = news.28
	immediate = {log = "[GetDateText]: [Root.GetName]: event news.28"}
	title = news.28.t
	desc = news.28.d
	picture = GFX_news_event_socialist_union

	major = yes

	is_triggered_only = yes

	option = {
		trigger = { tag = STG }
		name = news.28.a
	}
	option = {
		trigger = { tag = CHN }
		name = news.28.b
	}
	option = {
		trigger = {
			OR = {
				original_tag = EQS
				original_tag = CRY
			}
		}
		name = news.28.c
	}
	option = {
		trigger = { NOT = {
				tag = STG
				original_tag = EQS
				tag = CHN
				original_tag = CRY
				} }
		name = news.28.e
	}
}
country_event = {
	id = news.2901
	immediate = {log = "[GetDateText]: [Root.GetName]: event news.2901"}
	hidden = yes
	trigger = {
		has_global_flag = equestrian_com_civil_war
	}
	mean_time_to_happen = { days = 1 }
	fire_only_once = yes
	option = {
		news_event = news.29
	}
}
news_event = { # Com Civil War Started
	id = news.29
	immediate = {log = "[GetDateText]: [Root.GetName]: event news.29"}
	title = news.29.t
	desc = news.29.d
	picture = GFX_news_event_socialist_union

	major = yes

	is_triggered_only = yes
	option = {
		name = news.29.a
	}
}
news_event = { # Com Civil War End
	id = news.30
	immediate = {log = "[GetDateText]: [Root.GetName]: event news.30"}
	title = news.30.t
	desc = news.30.d
	picture = GFX_news_event_socialist_union

	major = yes

	is_triggered_only = yes
	option = {
		name = news.30.a
	}
}

news_event = { # Com Civil War End Loyalists
	id = news.31
	immediate = {log = "[GetDateText]: [Root.GetName]: event news.31"}
	title = news.31.t
	desc = news.31.d
	picture = GFX_news_event_socialist_union

	major = yes

	is_triggered_only = yes
	option = {
		name = news.31.a
	}
}
news_event = { # Celestia abdicates
	id = news.32
	immediate = {log = "[GetDateText]: [Root.GetName]: event news.32"}
	title = news.32.t
	desc = news.32.d
	picture = GFX_news_event_canterlot_celestia

	major = yes

	is_triggered_only = yes
	immediate = { set_global_flag = celestia_abdicated }
	option = {
		name = news.32.a
		trigger = {
			OR = {
				original_tag = EQS
				original_tag = CRY
			}
			has_government = democratic
		}
	}
	option = {
		name = news.32.b
		trigger = {
			OR = {
				original_tag = EQS
				original_tag = CRY
				tag = BAL
			}
			has_government = communism
		}
	}
	option = {
		name = news.32.c
		trigger = {
			tag = STG
			has_government = communism
		}
	}
	option = {
		name = news.32.f
		trigger = {
			tag = CHN
		}
	}
	option = {
		name = news.32.e
		trigger = {
			NOT = {
				tag = CHN
				tag = STG
				original_tag = EQS
				tag = BAL
				original_tag = CRY
			}
		}
	}
}
news_event = { # Socialist Union is formed
	id = news.33
	immediate = {log = "[GetDateText]: [Root.GetName]: event news.33"}
	title = news.33.t
	desc = news.33.d
	picture = GFX_news_event_socialist_union

	major = yes

	is_triggered_only = yes
	option = {
		name = news.33.a
		trigger = {
			OR = {
				tag = STG
				original_tag = EQS
			}
		}
	}
	option = {
		name = news.33.b
		trigger = {
			NOT = {
				tag = STG
				original_tag = EQS
			}
			has_government = communism
		}
	}
	option = {
		name = news.33.c
		trigger = {
			NOT = {
				OR ={
					tag = STG
					original_tag = EQS
				}
			}
			NOT = { has_government = communism }
		}
	}
}
news_event = { # Darkwing ruins everything
	id = news.34
	immediate = {log = "[GetDateText]: [Root.GetName]: event news.34"}
	title = news.34.t
	desc = news.34.d
	picture = GFX_news_darkwing

	major = yes

	is_triggered_only = yes
	option = {
		name = news.34.a
		trigger = {
			OR = {
				tag = STG
				original_tag = EQS
			}
		}
	}
	option = {
		name = news.34.b
		trigger = {
			NOT = {
				has_government = communism
			}
			NOT = {
				OR = {
					tag = STG
					original_tag = EQS
				}
			}

		}
	}
	option = {
		name = news.34.c
		trigger = {
			has_government = communism
			NOT = {
				OR = {
					tag = STG
					original_tag = EQS
				}
			}
		}
	}
}
news_event = { # Sombra's Return
	id = news.35
	immediate = {log = "[GetDateText]: [Root.GetName]: event news.35"}
	title = news.35.t
	desc = {
		text = news.35.d
		trigger = {
			any_country_with_original_tag = {
				original_tag_to_check = CRY
				has_government = democratic
			}
		}
	}
	desc = {
		text = news.35.d_com
		trigger = {
			any_country_with_original_tag = {
				original_tag_to_check = CRY
				has_government = communism
			}
		}
	}
	picture = GFX_news_event_the_war

	major = yes

	is_triggered_only = yes
	option = {
		name = news.35.a
		trigger = {
			tag = STG
		}
	}
	option = {
		name = news.35.b
		trigger = {
			original_tag = EQS
		}
	}
	option = {
		name = news.35.c
		trigger = {
			NOT = {
				OR = {
					tag = STG
					original_tag = EQS
				}
			}
		}
	}
}
news_event = { # Marriage Proposal from Sombra to Luna
	id = news.36
	immediate = {log = "[GetDateText]: [Root.GetName]: event news.36"}
	title = news.36.t
	desc = news.36.d
	picture = GFX_news_luna_and_sombra
	trigger = {
		country_exists = CRY
		country_exists = NLR
	}

	major = yes

	is_triggered_only = yes
	option = {
		name = news.36.a
	}
}
news_event = { # Marriage of Sombra and Luna
	id = news.37
	immediate = {log = "[GetDateText]: [Root.GetName]: event news.37"}
	title = news.37.t
	trigger = {
		country_exists = CRY
		country_exists = NLR
	}
	desc = {
		trigger = {
			NLR = { eqs_has_civil_war = yes }
		}
		text = news.37.d
	}
	desc = {
		trigger = {
			NLR = { eqs_has_civil_war = no }
		}
		text = news.37.d_no_celestia
	}
	picture = GFX_news_luna_marriage

	major = yes

	is_triggered_only = yes
	option = {
		name = news.37.a
	}
}
news_event = { # Coronation of Flurry Heart
	id = news.38
	immediate = {log = "[GetDateText]: [Root.GetName]: event news.38"}
	title = news.38.t
	desc = {
		text = news.38.d
		trigger = { NOT = { FROM = { has_country_flag = cry_regency } } }
	}
	desc = {
		text = news.38.d_reg
		trigger = { FROM = { has_country_flag = cry_regency } }
	}
	picture = GFX_news_event_crystal_fair

	major = yes

	is_triggered_only = yes
	option = {
		name = news.38.a
		hidden_effect = {
			FROM = {
				clr_country_flag = cry_regency
			}
		}
	}
}
news_event = { # Marriage Proposal from Sombra to Chrysalis
	id = news.39
	immediate = {log = "[GetDateText]: [Root.GetName]: event news.39"}
	title = news.39.t
	desc = news.39.d
	picture = GFX_news_event_chrysalis_marriage
	trigger = {
		country_exists = CRY
		country_exists = CHN
	}

	major = yes

	is_triggered_only = yes
	option = {
		name = news.39.a
	}
}
country_event = {
	id = news.4001
	immediate = {log = "[GetDateText]: [Root.GetName]: event news.4001"}
	hidden = yes
	trigger = {
		original_tag = CRY
		has_government = fascism
		OR = {
			AND = {
				has_civil_war = no
				OR = {
					has_wargoal_against = event_target:equestria
					event_target:equestria = { has_wargoal_against = PREV }
				}
			}
			AND = {
				has_civil_war = yes
				has_war_with = event_target:equestria
			}
		}
	}
	mean_time_to_happen = { days = 2 }
	fire_only_once = yes
	option = {
		news_event = news.40
	}
}
news_event = { # Looming War
	id = news.40
	immediate = {log = "[GetDateText]: [Root.GetName]: event news.40"}
	title = {
		trigger = {
			FROM = {
				has_civil_war = yes
			}
		}
		text = news.40.t_cw
	}
	title = {
		trigger = {
			FROM = {
				has_civil_war = no
				has_wargoal_against = event_target:equestria
			}
		}
		text = news.40.t_sa
	}
	title = {
		trigger = {
			FROM = {
				has_civil_war = no
				event_target:equestria = { has_wargoal_against = PREV }
			}
		}
		text = news.40.t_ea
	}
	desc = {
		trigger = {
			FROM = {
				has_civil_war = yes
			}
		}
		text = news.40.d_cw
	}
	desc = {
		trigger = {
			FROM = {
				has_civil_war = no
				has_wargoal_against = event_target:equestria
			}
		}
		text = news.40.d_sa
	}
	desc = {
		trigger = {
			FROM = {
				has_civil_war = no
				event_target:equestria = { has_wargoal_against = PREV }
			}
		}
		text = news.40.d_ea
	}
	picture = GFX_news_event_the_war

	major = yes

	is_triggered_only = yes
	option = {
		name = news.40.a_cw
		trigger = {
			FROM = {
				has_civil_war = yes
			}
			original_tag = EQS
		}
	}
	option = {
		name = news.40.a_sa
		trigger = {
			FROM = {
				has_civil_war = no
				has_wargoal_against = event_target:equestria
			}
			original_tag = EQS
		}
	}
	option = {
		name = news.40.a_ea
		trigger = {
			FROM = {
				has_civil_war = no
				event_target:equestria = { has_wargoal_against = PREV }
			}
			original_tag = EQS
		}
	}
	option = {
		name = news.40.b_cw
		trigger = {
			FROM = {
				has_civil_war = yes
			}
			original_tag = CRY
			has_government = fascism
		}
	}
	option = {
		name = news.40.e_cw
		trigger = {
			FROM = {
				has_civil_war = yes
			}
			original_tag = CRY
			NOT = { has_government = fascism }
		}
	}
	option = {
		name = news.40.b_sa
		trigger = {
			FROM = {
				has_civil_war = no
				has_wargoal_against = event_target:equestria
			}
			original_tag = CRY
			has_government = fascism
		}
	}
	option = {
		name = news.40.b_ea
		trigger = {
			FROM = {
				has_civil_war = no
				event_target:equestria = { has_wargoal_against = PREV }
			}
			original_tag = CRY
			has_government = fascism
		}
	}
	option = {
		name = news.40.c_cw
		trigger = {
			FROM = {
				has_civil_war = yes
			}
			NOT = {
				original_tag = CRY
				original_tag = EQS
			}
		}
	}
	option = {
		name = news.40.c_sa
		trigger = {
			FROM = {
				has_civil_war = no
				has_wargoal_against = event_target:equestria
			}
			NOT = {
				original_tag = CRY
				original_tag = EQS
			}
		}
	}
	option = {
		name = news.40.c_ea
		trigger = {
			FROM = {
				has_civil_war = no
				event_target:equestria = { has_wargoal_against = PREV }
			}
			NOT = {
				original_tag = CRY
				original_tag = EQS
			}
		}
	}
}
news_event = { # Independence of Crystal Ponies Republic
	id = news.41
	immediate = {log = "[GetDateText]: [Root.GetName]: event news.41"}
	title = news.41.t
	desc = news.41.d
	picture = GFX_news_event_crystal_fair

	major = yes

	is_triggered_only = yes
	option = {
		name = news.41.a
	}
}
news_event = { # The end of the Great Crystal War EQS WINS
	id = news.42
	immediate = {log = "[GetDateText]: [Root.GetName]: event news.42"}
	title = news.42.t
	desc = news.42.d
	picture = GFX_news_event_crystal_fair
	major = yes

	is_triggered_only = yes
	option = {
		name = news.42.a
	}
}
news_event = { # The end of the Great Crystal War CRY WINS
	id = news.43
	immediate = {log = "[GetDateText]: [Root.GetName]: event news.43"}
	title = news.43.t
	desc = news.43.d
	picture = GFX_news_event_crystal_fair

	major = yes

	is_triggered_only = yes
	option = {
		trigger = { NOT = { original_tag = CRY } }
		name = news.43.a
	}
	option = {
		trigger = { original_tag = CRY }
		name = news.43.b
	}
}
news_event = { # Marriage of Sombra and Chrysalis
	id = news.44
	immediate = {log = "[GetDateText]: [Root.GetName]: event news.44"}
	trigger = {
		country_exists = CRY
		country_exists = CHN
	}
	title = news.44.t
	desc = { text = news.44.d_eqs_exists
		trigger = { EQS = { exists = yes }
			EQS = { is_subject = no } } }
	desc = { text = news.44.d_eqs_not_exists
		trigger = { EQS = { exists = no } } }
	picture = GFX_news_event_chrysalis_marriage

	major = yes

	is_triggered_only = yes
	option = {
		trigger = { AND = {
				NOT = { original_tag = CRY }
				NOT = { original_tag = EQS }
				} }
		name = news.44.a
	}
	option = {
		trigger = { original_tag = CRY }
		name = news.44.b
	}
	option = {
		trigger = { original_tag = EQS }
		name = news.44.c
	}
	option = {
		trigger = { original_tag = CHN }
		name = news.44.e
	}
}
news_event = { # THE CRYSTAL WAR
	id = news.45
	immediate = {log = "[GetDateText]: [Root.GetName]: event news.45"}
	title = news.45.t
	desc = news.45.d
	picture = GFX_crystal_war_news

	major = yes

	is_triggered_only = yes
	immediate = { set_global_flag = the_crystal_war }
	option = {
		name = news.45.a
		trigger = {
			NOT = { original_tag = EQS }
			NOT = { original_tag = CRY }
		}
	}
	option = {
		name = news.45.b
		trigger = {
			original_tag = EQS
		}
	}
	option = {
		name = news.45.c
		trigger = {
			original_tag = CRY
		}
	}
}
news_event = { # Marriage of Sombra and Chrysalis Proposal
	id = news.46
	immediate = {log = "[GetDateText]: [Root.GetName]: event news.46"}
	title = news.46.t
	desc = { text = news.46.d_eqs_exists
		trigger = { EQS = { exists = yes }
			EQS = { is_subject = no } } }
	desc = { text = news.46.d_eqs_not_exists
		trigger = { EQS = { exists = no } } }
	picture = GFX_news_event_crystal_fair

	major = yes

	is_triggered_only = yes
	option = {
		trigger = {
			NOT = {
				tag = CHN
				original_tag = CRY
				original_tag = EQS
			}
		}
		name = news.46.a
	}
	option = {
		trigger = { original_tag = CRY }
		name = news.46.b
	}
	option = {
		trigger = { original_tag = EQS }
		name = news.46.c
	}
	option = {
		trigger = { tag = CHN }
		name = news.46.e
	}
}
news_event = { # Marriage of Sombra and Chrysalis Marriage declined
	id = news.47
	immediate = {log = "[GetDateText]: [Root.GetName]: event news.47"}
	title = news.47.t
	desc = { text = news.47.d_eqs_exists
		trigger = { EQS = { exists = yes }
			EQS = { is_subject = no } } }
	desc = { text = news.47.d_eqs_not_exists
		trigger = { EQS = { exists = no } } }
	picture = GFX_news_event_crystal_fair

	major = yes

	trigger = {
		NOT = {
			has_global_flag = news_47_fired
		}
	}

	is_triggered_only = yes
	option = {
		trigger = {
			NOT = {
				tag = CHN
				original_tag = CRY
				original_tag = EQS
			}
		}
		name = news.47.a
		set_global_flag = news_47_fired
	}
	option = {
		trigger = { original_tag = CRY }
		name = news.47.b
		set_global_flag = news_47_fired
	}
	option = {
		trigger = { original_tag = EQS }
		name = news.47.c
		set_global_flag = news_47_fired
	}
	option = {
		trigger = { tag = CHN }
		name = news.47.e
		set_global_flag = news_47_fired
	}
}
news_event = { # Marriage of Sombra and Chrysalis Marriage accepted
	id = news.48
	immediate = {log = "[GetDateText]: [Root.GetName]: event news.48"}
	title = news.48.t
	desc = { text = news.48.d_eqs_exists
		trigger = { EQS = { exists = yes }
			EQS = { is_subject = no } } }
	desc = { text = news.48.d_eqs_not_exists
		trigger = { EQS = { exists = no } } }
	picture = GFX_news_event_crystal_fair

	major = yes

	is_triggered_only = yes
	option = {
		trigger = {
			NOT = {
				tag = CHN
				original_tag = CRY
				original_tag = EQS
			}
		}
		name = news.48.a
	}
	option = {
		trigger = { original_tag = CRY }
		name = news.48.b
	}
	option = {
		trigger = { original_tag = EQS }
		name = news.48.c
	}
	option = {
		trigger = { tag = CHN }
		name = news.48.e
	}
}
news_event = { #
	id = news.49
	immediate = {log = "[GetDateText]: [Root.GetName]: event news.49"}
	title = news.49.t
	desc = news.49.d
	picture = GFX_news_event_crystal_fair

	major = yes

	is_triggered_only = yes
	option = {
		name = news.49.a
	}
}
news_event = { #NUKE DROPPED ON HIVE
	id = news.50
	immediate = {log = "[GetDateText]: [Root.GetName]: event news.50"}
	title = news.50.t
	desc = news.50.d
	picture = GFX_news_celestia_nuke

	major = yes

	is_triggered_only = yes

	option = {
		name = news.50.a
		trigger = {
			tag = CHN
		}
	}
	option = {
		name = news.50.b
		trigger = {
			tag = event_target:hive_nuker
			has_government = fascism
		}
	}
	option = {
		name = news.50.e
		trigger = {
			tag = event_target:hive_nuker
			NOT = { has_government = fascism }
		}
	}
	option = {
		name = news.50.c
		trigger = {
			event_target:hive_nuker = { has_government = fascism }
			NOT = {
				tag = event_target:hive_nuker
				tag = CHN
			}
		}
	}
	option = {
		name = news.50.f
		trigger = {
			event_target:hive_nuker = { NOT = { has_government = fascism } }
			NOT = {
				tag = event_target:hive_nuker
				tag = CHN
			}
		}
	}

}

news_event = {
	id = news.51
	immediate = {log = "[GetDateText]: [Root.GetName]: event news.51"}
	title = news.51.t
	desc = news.51.d
	picture = GFX_news_event_socialist_union

	major = yes

	is_triggered_only = yes

	option = {
		name = news.51.a
	}
}
news_event = { #
	id = news.99
	immediate = {log = "[GetDateText]: [Root.GetName]: event news.99"}
	title = news.99.t
	desc = news.99.d
	picture = GFX_news_magehold

	major = yes

	is_triggered_only = yes
	option = {
		name = news.99.a
	}
}
#### EQUESTRIAN CIVIL WAR VS LUNA
news_event = {
	id = news.200
	immediate = {log = "[GetDateText]: [Root.GetName]: event news.200"}
	title = news.200.t
	desc = {
		text = news.200.d_1
		trigger = {
			EQS = { has_country_flag = nlr_early_discovery }
		}
	}
	desc = {
		text = news.200.d_2
		trigger = {
			EQS = { NOT = { has_country_flag = nlr_early_discovery } }
		}
	}
	picture = GFX_news_nmm_army
	
	major = yes

	is_triggered_only = yes

	option = {
		name = news.200.a
		trigger = {
			original_tag = EQS
		}
	}
	option = {
		name = news.200.b
		trigger = {
			tag = NLR
		}
	}
	option = {
		name = news.200.c
		trigger = {
			NOT = {
				tag = NLR
				original_tag = EQS
			}
		}
	}
}

## SCS
news_event = {
	id = news.201
	immediate = {log = "[GetDateText]: [Root.GetName]: event news.201"}
	title = news.201.t
	desc = news.201.d
	picture = GFX_news_ponies_urben

	major = yes

	is_triggered_only = yes

	option = {
		name = news.201.a
		trigger = {
			NOT = {
				TAG = NLR
				original_tag = EQS
				TAG = BUF
			}
		}
	}
	option = {
		name = news.201.b
		trigger = {
			original_tag = EQS
		}
	}
	option = {
		name = news.201.c
		trigger = {
			tag = NLR
		}
	}
	option = {
		name = news.201.e
		trigger = {
			tag = BUF
		}
	}
}
## VANHOOVER
news_event = {
	id = news.202
	immediate = {log = "[GetDateText]: [Root.GetName]: event news.202"}
	title = news.202.t
	desc = news.202.d
	picture = GFX_news_ponies_urben

	major = yes

	is_triggered_only = yes

	option = {
		name = news.202.a
		trigger = {
			has_government = communism
		}
	}
	option = {
		name = news.202.b
		trigger = {
			NOT = {
				has_government = communism
			}
		}
	}
}
## LSP
news_event = {
	id = news.2021
	immediate = {log = "[GetDateText]: [Root.GetName]: event news.2021"}
	title = news.2021.t
	desc = news.2021.d
	picture = GFX_news_event_los_pegasus

	major = yes

	is_triggered_only = yes

	option = {
		name = news.2021.a
		trigger = {
			original_tag = LSP
		}
	}
	option = {
		name = news.2021.b
		trigger = {
			original_tag = EQS
		}
	}
	option = {
		name = news.2021.c
		trigger = {
			tag = NLR
		}
	}
	option = {
		name = news.2021.e
		trigger = {
			NOT = {
				TAG = NLR
				original_tag = EQS
				original_tag = LSP
			}
		}
	}
}
country_event = {
	id = news.2031
	immediate = {log = "[GetDateText]: [Root.GetName]: event news.2031"}
	hidden = yes
	#trigger = {
		#	has_global_flag = equestrian_civil_war
		#	OR = {
			#		NOT = { country_exists = NLR }
			#		NLR = {
				#			is_subject = yes
				#			has_capitulated = yes
				#		}
			#	}
		#}
	is_triggered_only = yes
	fire_only_once = yes
	immediate = {
		set_global_flag = equestrian_civil_war_ended
	}
	option = {
		news_event = news.203
	}
}
news_event = { ## IF EQS WINS
	id = news.203
	immediate = {log = "[GetDateText]: [Root.GetName]: event news.203"}
	title = news.203.t
	desc = news.203.d
	picture = GFX_news_event_galloping_gala

	major = yes

	is_triggered_only = yes

	option = {
		name = news.203.a
		trigger = {
			tag = event_target:equestria
		}
	}
	option = {
		name = news.203.c
		trigger = {
			tag = event_target:solar_empire
		}
	}
	option = {
		name = news.203.b
		trigger = {
			NOT = {
				tag = event_target:equestria
				tag = event_target:solar_empire
			}
		}
	}
}
country_event = {
	id = news.2041
	immediate = {log = "[GetDateText]: [Root.GetName]: event news.2041"}
	hidden = yes
	is_triggered_only = yes

	#trigger = {
	#	has_global_flag = equestrian_civil_war
	#	tag = NLR
	#	has_war = no
	#	NOT = {
	#		country_exists = EQS
	#	}
	#}

	fire_only_once = yes
	immediate = {
		set_global_flag = equestrian_civil_war_ended
		NLR = {
			country_event = { id = lunas.13 days = 1 }
			#country_event = { id = lunas.6 days = 1 }
			#country_event = { id = lunas.32 days = 1 }
		}
	}
	option = {
		news_event = news.204
	}
}
news_event = { ## IF NLR WINS
	id = news.204
	immediate = {log = "[GetDateText]: [Root.GetName]: event news.204"}
	title = news.204.t
	desc = news.204.d
	picture = GFX_news_event_galloping_gala

	major = yes

	is_triggered_only = yes

	option = {
		name = news.204.a
		trigger = {
			OR = {
				original_tag = NLR
				original_tag = NMS
				is_in_faction_with = NLR
			}
		}
	}
	option = {
		name = news.204.b
		trigger = {
			NOT = {
				original_tag = NLR
				original_tag = NMS
				is_in_faction_with = NLR
			}
		}
	}
}
news_event = { ##
	id = news.205
	immediate = {log = "[GetDateText]: [Root.GetName]: event news.205"}
	title = news.205.t
	desc = news.205.d
	picture = GFX_news_event_tenochtitlan

	major = yes

	is_triggered_only = yes

	option = {
		name = news.205.a
	}
}
news_event = { ## IF EQS WINS
	id = news.206
	immediate = {log = "[GetDateText]: [Root.GetName]: event news.206"}
	title = news.206.t
	desc = news.206.d
	picture = GFX_news_event_galloping_gala

	major = yes

	is_triggered_only = yes

	option = {
		name = news.206.a
		trigger = {
			original_tag = EQS
		}
	}
	option = {
		name = news.206.b
		trigger = {
			NOT = {
				original_tag = EQS
			}
		}
	}
}

country_event = {
	id = news.1111
	immediate = {log = "[GetDateText]: [Root.GetName]: event news.1111"}
	hidden = yes
	trigger = {
		tag = CHN
		has_country_leader = { ruling_only = yes character = CHN_queen_chrysalis }
	}
	is_triggered_only = yes #moved to on_peaceconference_ended
	fire_only_once = yes
	immediate = {
		set_global_flag = the_war_ended
	}
	option = {
		news_event = news.111
		EQS = {
			if = {
				limit = { has_country_flag = has_GRF_volunteers }
				delete_unit_template_and_units = { division_template = "Free Griffon Division" }
				delete_unit_template_and_units = { division_template = "Militia Division" }
				clr_country_flag = has_GRF_volunteers
			}
		}
	}
}
news_event = { # Changeling Victory - Puppet
	id = news.111
	immediate = {log = "[GetDateText]: [Root.GetName]: event news.111"}
	title = news.111.t
	desc = {
		trigger = {
			EQC = { NOT = { has_country_flag = EQC_govt_in_exile } }
		}
		text = news.111.d
	}
	desc = {
		trigger = {
			EQC = { has_country_flag = EQC_govt_in_exile }
		}
		text = news.111.d_eqc
	}
	picture = GFX_news_event_changeling_hive

	major = yes

	is_triggered_only = yes

	option = {
		name = news.111.a
		trigger = {
			NOT = {
				TAG = CHN
				has_country_flag = EQC_govt_in_exile
			}
		}
	}
	option = {
		name = news.111.b
		trigger = { TAG = CHN }
	}
	option = {
		name = news.112.c
		trigger = { has_country_flag = EQC_govt_in_exile }
	}
}
country_event = {
	id = news.1121
	immediate = {log = "[GetDateText]: [Root.GetName]: event news.1121"}
	hidden = yes
	is_triggered_only = yes #moved to on_peaceconference_ended
	fire_only_once = yes
	trigger = {
		tag = CHN
		has_country_leader = { ruling_only = yes character = CHN_queen_chrysalis }
	}
	immediate = {
		set_global_flag = the_war_ended
	}
	option = {
		news_event = news.112
		EQS = {
			if = {
				limit = { has_country_flag = has_GRF_volunteers }
				delete_unit_template_and_units = { division_template = "Free Griffon Division" }
				delete_unit_template_and_units = { division_template = "Militia Division" }
				clr_country_flag = has_GRF_volunteers
			}
		}
	}
}
news_event = { # Changeling Victory - Annexed Equestria
	id = news.112
	immediate = {log = "[GetDateText]: [Root.GetName]: event news.112"}
	title = news.112.t
	desc = {
		trigger = {
			EQC = { NOT = { has_country_flag = EQC_govt_in_exile } }
		}
		text = news.112.d
	}
	desc = {
		trigger = {
			EQC = { has_country_flag = EQC_govt_in_exile }
		}
		text = news.112.d_eqc
	}
	picture = GFX_news_event_changeling_hive

	major = yes

	is_triggered_only = yes
	option = {
		name = news.112.a
		trigger = {
			NOT = {
				TAG = CHN
				has_country_flag = EQC_govt_in_exile
			}
		}
	}
	option = {
		name = news.112.b
		trigger = { TAG = CHN }
	}
	option = {
		name = news.112.c
		trigger = { has_country_flag = EQC_govt_in_exile }
	}
}
news_event = {
	id = news.289
	immediate = {log = "[GetDateText]: [Root.GetName]: event news.289"}
	title = news.289.t
	picture = GFX_news_griffon_diplomacy
	desc = news.289.d

	major = yes

	is_triggered_only = yes

	#Together we will prevail.
	option = {
		name = news.289.a
		trigger = {
			OR = {
				has_country_flag = alliance_inviter@FROM
				has_country_flag = alliance_applicant@FROM
			}
		}
		hidden_effect = {
			clr_country_flag = alliance_inviter@FROM
			clr_country_flag = alliance_applicant@FROM
		}
	}

	#They prepare for what is coming.
	option = {
		name = news.289.b
		trigger = {
			NOT = {
				any_allied_country = {
					OR = {
						has_country_flag = alliance_inviter@FROM
						has_country_flag = alliance_applicant@FROM
					}
				}
				any_enemy_country = {
					OR = {
						has_country_flag = alliance_inviter@FROM
						has_country_flag = alliance_applicant@FROM
					}
				}
			}
			event_target:alliance_inviter = {
				has_war = no
			}
			AND = {
				NOT = { has_country_flag = alliance_inviter@FROM }
				NOT = { has_country_flag = alliance_applicant@FROM }
			}
		}
		hidden_effect = {
			clr_country_flag = alliance_inviter@FROM
			clr_country_flag = alliance_applicant@FROM
		}
	}

	#It will not avail them!
	option = {
		name = news.289.c
		trigger = {
			any_enemy_country = {
				OR = {
					has_country_flag = alliance_inviter@FROM
					has_country_flag = alliance_applicant@FROM
				}
			}
		}
		hidden_effect = {
			clr_country_flag = alliance_inviter@FROM
			clr_country_flag = alliance_applicant@FROM
		}
	}

	#The war escalates...
	option = {
		name = news.289.e
		trigger = {
			NOT = {
				any_allied_country = {
					OR = {
						has_country_flag = alliance_inviter@FROM
						has_country_flag = alliance_applicant@FROM
					}
				}
				any_enemy_country = {
					OR = {
						has_country_flag = alliance_inviter@FROM
						has_country_flag = alliance_applicant@FROM
					}
				}
			}
			event_target:alliance_inviter = {
				has_war = yes
			}
			AND = {
				NOT = { has_country_flag = alliance_inviter@FROM }
				NOT = { has_country_flag = alliance_applicant@FROM }
			}
		}
		hidden_effect = {
			clr_country_flag = alliance_inviter@FROM
			clr_country_flag = alliance_applicant@FROM
		}
	}

	#Our alliance grows stronger.
	option = {
		name = news.289.f
		trigger = {
			any_allied_country = {
				OR = {
					has_country_flag = alliance_inviter@FROM
					has_country_flag = alliance_applicant@FROM
				}
			}
			AND = {
				NOT = { has_country_flag = alliance_inviter@FROM }
				NOT = { has_country_flag = alliance_applicant@FROM }
			}
		}
		hidden_effect = {
			clr_country_flag = alliance_inviter@FROM
			clr_country_flag = alliance_applicant@FROM
		}
	}
}

#Wait for MtG to rewrite
country_event = {
	id = news.300 #Equestria Summer sun celebration and Forever sun celebration trigger
	immediate = {log = "[GetDateText]: [Root.GetName]: event news.300"}
	hidden = yes
	is_triggered_only = yes
	immediate = {
		if = {
			limit = {
				NOT = {
					has_global_flag = summer_sun_held
				}
				EQS = {
					exists = yes
					has_government = democratic
					has_war = no
					OR = {
						has_country_leader = { ruling_only = yes character = EQS_princess_celestia }
					}
				}
			}
			news_event = news.301
			set_global_flag = summer_sun_held
		}
		if = {
			limit = {
				NOT = {
					has_global_flag = forever_sun_held
				}
				EQS = {
					controls_state = 3
					exists = yes
					is_EQS_SOL = yes
				}
			}
			news_event = news.302
			set_global_flag = forever_sun_held
		}
	
	}
	option = {
		EQS = {
			country_event = { id = news.303 days = 183 }
		}
		if = {
			limit = {
				NLR = { exists = yes }
			}
			NLR = { country_event = { id = news.303 days = 183 } }
		}
	}
}

news_event = { # Summer sun celebration
	id = news.301
	immediate = {log = "[GetDateText]: [Root.GetName]: event news.301"}
	title = news.301.t
	desc = {
		text = news.301.d
		trigger = { NOT = { original_tag = BAT } }
	}
	desc = {
		text = news.301.d_lunatics
		trigger = { original_tag = BAT }
	}
	picture = GFX_news_summer_sun
	major = yes
	is_triggered_only = yes
	option = {
		name = news.301.a
		trigger = {
			OR = {
				original_tag = EQS
				original_tag = STG
				original_tag = STL
				is_in_faction_with = EQS
				is_subject_of = EQS
			}
		}
		
	}
	option = {
		name = news.301.b
		trigger = { original_tag = CHN }
	}
	option = {
		name = news.301.c
		trigger = {  
			NOT = {
				original_tag = EQS
				original_tag = STG
				original_tag = STL
				is_in_faction_with = EQS
				is_subject_of = EQS
				original_tag = CHN
				original_tag = BAT
				AND = {
					original_tag = PYT
					has_country_leader = { ruling_only = yes character = PYT_archibald_dawnfeather }
				}
			}
		}
	}
	option = {
		name = news.301.e
		trigger = {
			original_tag = PYT
			has_country_leader = { ruling_only = yes character = PYT_archibald_dawnfeather }
		}
	}
	option = {
		name = news.301.f
		trigger = {
			original_tag = BAT
		}
	}
}

news_event = { # Forever sun celebration
	id = news.302
	immediate = {log = "[GetDateText]: [Root.GetName]: event news.302"}
	title = news.302.t
	desc = news.302.d
	picture = GFX_news_forever_sun
	major = yes
	is_triggered_only = yes
	option = {
		name = news.302.a
		trigger = {
			OR = {
				original_tag = EQS
				is_subject_of = EQS
			}
		}
		
	}
	option = {
		name = news.302.b
		trigger = { original_tag = CHN }
	}
	option = {
		name = news.302.c
		trigger = {  
			NOT = {
				original_tag = EQS
				is_subject_of = EQS
				original_tag = CHN
				original_tag = BAT
				AND = {
					original_tag = PYT
					has_country_leader = { ruling_only = yes character = PYT_archibald_dawnfeather }
				}
			}
		}
	}
	option = {
		name = news.302.e
		trigger = {
			original_tag = PYT
			has_country_leader = { ruling_only = yes character = PYT_archibald_dawnfeather }
		}
	}
	option = {
		name = news.302.f
		trigger = { original_tag = BAT }
	}
}

country_event = {
	id = news.303 #Equestria Winter moon and Endless Moon celebration trigger
	immediate = {log = "[GetDateText]: [Root.GetName]: event news.303"}
	hidden = yes
	is_triggered_only = yes
	immediate = {
		if = {
			limit = {
				NOT = {
					has_global_flag = winter_moon_held
					has_global_flag = equestrian_civil_war
				}
				EQS = {
					exists = yes
					has_government = democratic
					has_war = no
					OR = {
						has_country_leader = { ruling_only = yes character = EQS_princess_celestia }
						has_country_leader = { ruling_only = yes character = EQS_princess_luna }
					}
				}
			}
			news_event = news.304
			set_global_flag = winter_moon_held
		}
		if = {
			limit = {
				NOT = {
					has_global_flag = endless_moon_held
					NLR = { has_war_with = EQS }
				}
				NLR = {
					exists = yes
					has_government = fascism
					has_country_leader = { ruling_only = yes character = NLR_nightmare_moon }
				}
			}
			news_event = news.305
			set_global_flag = endless_moon_held
		}
	
	}
	option = {
		EQS = {
			country_event = { id = news.300 days = 182 }
		}
		if = {
			limit = {
				NLR = { exists = yes }
			}
			NLR = { country_event = { id = news.300 days = 182 } }
		}
	}
}

news_event = { # Winter Moon celebration
	id = news.304
	immediate = {log = "[GetDateText]: [Root.GetName]: event news.304"}
	title = news.304.t
	desc = news.304.d
	picture = GFX_news_winter_moon
	major = yes
	is_triggered_only = yes
	option = {
		name = news.304.a
		trigger = {
			OR = {
				original_tag = EQS
				original_tag = STG
				original_tag = STL
				is_in_faction_with = EQS
				is_subject_of = EQS
			}
		}
		
	}
	option = {
		name = news.304.b
		trigger = { original_tag = CHN }
	}
	option = {
		name = news.304.c
		trigger = {  
			NOT = {
				original_tag = EQS
				original_tag = STG
				original_tag = STL
				original_tag = BAT
				is_in_faction_with = EQS
				is_subject_of = EQS
				original_tag = CHN
				AND = {
					original_tag = PYT
					has_country_leader = { ruling_only = yes character = PYT_archibald_dawnfeather }
				}
			}
		}
	}
	option = {
		name = news.304.e
		trigger = {
			original_tag = PYT
			has_country_leader = { ruling_only = yes character = PYT_archibald_dawnfeather }
			}
	}
	option = {
		name = news.304.f
		trigger = { original_tag = BAT }
	}
}

news_event = { # Endless moon celebration
	id = news.305
	immediate = {log = "[GetDateText]: [Root.GetName]: event news.305"}
	title = news.305.t
	desc = news.305.d
	picture = GFX_news_endless_moon
	major = yes
	is_triggered_only = yes
	option = {
		name = news.305.a
		trigger = {
			OR = {
				original_tag = NLR
				is_subject_of = NLR
				original_tag = BAT
			}
		}
		
	}
	option = {
		name = news.305.b
		trigger = { original_tag = CHN }
	}
	option = {
		name = news.305.c
		trigger = {  
			NOT = {
				original_tag = NLR
				is_subject_of = NLR
				original_tag = BAT
				original_tag = CHN
				AND = {
					original_tag = PYT
					has_country_leader = { ruling_only = yes character = PYT_archibald_dawnfeather }
				}
			}
		}
	}
	option = {
		name = news.305.e
		trigger = {
			original_tag = PYT
			has_country_leader = { ruling_only = yes character = PYT_archibald_dawnfeather }
		}
	}
}
