add_namespace = tarrin

country_event = { #Francistria invades!
	id = tarrin.1
	immediate = {log = "[GetDateText]: [Root.GetName]: event tarrin.1"}
	title = tarrin.1.t
	desc = tarrin.1.d
	picture = GFX_event_griffons_machine_gun

	is_triggered_only = yes

	option = {
		name = tarrin.1.a
		trigger = {
			JER = {
				exists = yes
				has_war = no
				is_subject = no
				NOT = {
					is_in_faction_with = FRN
				}
			}
		}
		custom_effect_tooltip = JES_war_timer_and_ally_info
		add_ideas = JES_war_of_independence
		activate_targeted_decision = {
			target = FRN
			decision = JES_FRN_war_timer
		}
		JER = {
			country_event = {
				id = tarrin.2
				days = 1
			}
		}
		ai_chance = {
			factor = 10
			modifier = {
				JER = {
					NOT = {
						has_country_flag = have_regular_puppets
					}
				}
				factor = 0.1
			}
		}
	}
	option = {
		name = tarrin.1.b
		custom_effect_tooltip = JES_war_timer_and_ally_info
		add_war_support = 0.25
		add_manpower = 15000
		add_ideas = JES_war_of_independence
		activate_targeted_decision = {
			target = FRN
			decision = JES_FRN_war_timer
		}
		ai_chance = {
			factor = 1
		}
	}
}
country_event = { #Tarrin calls for aid!
	id = tarrin.2
	immediate = {log = "[GetDateText]: [Root.GetName]: event tarrin.2"}
	title = tarrin.2.t
	desc = tarrin.2.d
	picture = GFX_event_griffon_soldier

	is_triggered_only = yes

	option = {
		name = tarrin.2.a
		add_to_war = {
			targeted_alliance = JES
			enemy = FRN
			hostility_reason = asked_to_join
		}
		give_military_access = FROM
		FROM = {
			give_military_access = ROOT
			if = {
				limit = {
					ROOT = {
						has_country_flag = JER_democracy_established
					}
				}
				set_country_flag = JES_JER_helped_us
			}
		}
		hidden_effect = {
			news_event = { id = francistria_news.2 hours = 12 }
		}
		ai_chance = {
			factor = 10
			modifier = {
				has_government = neutrality
				NOT = {
					has_country_flag = have_regular_puppets
				}
				factor = 0.25
			}
			modifier = {
				has_war = yes
				factor = 0
			}
		}
	}
	option = {
		name = tarrin.2.b
		FROM = {
			country_event = {
				id = tarrin.3
				days = 1
			}
		}
		ai_chance = {
			factor = 3
		}
	}
}
country_event = { #Aquileia does not come to our aid
	id = tarrin.3
	immediate = {log = "[GetDateText]: [Root.GetName]: event tarrin.3"}
	title = tarrin.3.t
	desc = tarrin.3.d
	picture = GFX_event_griffons_machine_gun

	is_triggered_only = yes

	option = {
		name = tarrin.3.a
		add_war_support = 0.25
		add_manpower = 15000
		add_opinion_modifier = { target = FROM modifier = refused_to_cooperate }
	}
}
country_event = { #Francistria retreats from Tarrin
	id = tarrin.4
	immediate = {log = "[GetDateText]: [Root.GetName]: event tarrin.4"}
	title = tarrin.4.t
	desc = tarrin.4.d
	picture = GFX_event_medieval_city_3

	is_triggered_only = yes

	option = {
		name = tarrin.4.a
		add_war_support = -0.25
		add_political_power = 150
		add_stability = 0.1
	}
}
country_event = { #Introducing the cast
	id = tarrin.5
	immediate = {log = "[GetDateText]: [Root.GetName]: event tarrin.5"}
	title = tarrin.5.t
	desc = tarrin.5.d
	picture = GFX_event_feast

	is_triggered_only = yes

	option = {
		name = tarrin.5.a
		add_political_power = 25
	}
}
country_event = { #Colonists flee Tarrin en masse
	id = tarrin.6
	immediate = {log = "[GetDateText]: [Root.GetName]: event tarrin.6"}
	title = tarrin.6.t
	desc = tarrin.6.d
	picture = GFX_event_griffon_royal_guard

	is_triggered_only = yes

	option = {
		name = tarrin.6.a
		add_timed_idea = { idea = JES_refugee_flood  days = 90 }
		if = {
			limit = {
				original_tag = FRN
			}
			515 = {
				add_manpower = 20000
			}
			410 = {
				add_manpower = 10000
			}
			481 = {
				add_manpower = 15000
			}
		}
		else_if = {
			limit = {
				original_tag = JER
			}
			407 = {
				add_manpower = 10000
			}
			406 = {
				add_manpower = 2500
			}
			377 = {
				add_manpower = 5000
			}
		}
	}
}
country_event = { #Leontina and Meinard disagreement
	id = tarrin.7
	immediate = {log = "[GetDateText]: [Root.GetName]: event tarrin.7"}
	title = tarrin.7.t
	desc = tarrin.7.d
	picture = GFX_event_western_griffon_city
	fire_only_once = no
	is_triggered_only = yes
	trigger = {
		has_war = no
	}
	option = {
		name = tarrin.7.a
		add_political_power = 25
		ai_chance = {
			factor = 10
		}
	}
	option = {
		name = tarrin.7.b
		add_popularity = { ideology = fascism popularity = 0.05 }
		ai_chance = {
			factor = 10
			modifier = {
				factor = 0.5
				has_country_flag = JES_JER_helped_us
			}
			modifier = {
				factor = 0
				is_historical_focus_on = yes
			}
		}
	}
}
country_event = { #Corina and Meinard disagreement
	id = tarrin.8
	immediate = {log = "[GetDateText]: [Root.GetName]: event tarrin.8"}
	title = tarrin.8.t
	desc = tarrin.8.d
	picture = GFX_event_medieval_city_in_mountains
	fire_only_once = no
	is_triggered_only = yes
	trigger = {
		has_war = no
	}
	option = {
		name = tarrin.8.a
		add_political_power = 25
		ai_chance = {
			factor = 10
		}
	}
	option = {
		name = tarrin.8.b
		add_popularity = { ideology = communism popularity = 0.05 }
		ai_chance = {
			factor = 10
			modifier = {
				factor = 0.5
				has_country_flag = JES_JER_helped_us
			}
			modifier = {
				factor = 0
				is_historical_focus_on = yes
			}
		}
	}
}
country_event = { #Corina and Leontina disagreement
	id = tarrin.9
	immediate = {log = "[GetDateText]: [Root.GetName]: event tarrin.9"}
	title = tarrin.9.t
	desc = tarrin.9.d
	picture = GFX_event_speech
	fire_only_once = no
	is_triggered_only = yes
	trigger = {
		has_war = no
	}
	option = {
		name = tarrin.9.a
		add_popularity = { ideology = fascism popularity = 0.05 }
		ai_chance = {
			factor = 10
			modifier = {
				factor = 0.5
				has_country_flag = JES_JER_helped_us
			}
			modifier = {
				factor = 0
				is_historical_focus_on = yes
			}
		}
	}
	option = {
		name = tarrin.9.b
		add_popularity = { ideology = communism popularity = 0.05 }
		ai_chance = {
			factor = 10
			modifier = {
				factor = 0.5
				has_country_flag = JES_JER_helped_us
			}
			modifier = {
				factor = 0
				is_historical_focus_on = yes
			}
		}
	}
	option = {
		name = tarrin.9.c
		add_stability = 0.025
		ai_chance = {
			factor = 10
		}
	}
}
country_event = { #Elections!
	id = tarrin.10
	immediate = {log = "[GetDateText]: [Root.GetName]: event tarrin.10"}
	title = tarrin.10.t
	desc = tarrin.10.d
	picture = GFX_event_vote_griffon
	fire_only_once = no
	is_triggered_only = yes
	option = {
		trigger = {
			check_variable = { party_popularity@democratic > party_popularity@communism }
			check_variable = { party_popularity@democratic > party_popularity@fascism }
		}
		name = tarrin.10.a
		add_stability = 0.1
		add_popularity = { ideology = democratic popularity = 0.05 }
	}
	option = {
		trigger = {
			check_variable = { party_popularity@fascism > party_popularity@communism }
			check_variable = { party_popularity@fascism > party_popularity@democratic }
		}
		name = tarrin.10.b
		add_political_power = 75
		add_popularity = { ideology = fascism popularity = 0.05 }
		set_politics = {
			ruling_party = fascism
		}
	}
	option = {
		trigger = {
			check_variable = { party_popularity@communism > party_popularity@fascism }
			check_variable = { party_popularity@communism > party_popularity@democratic }
		}
		name = tarrin.10.c
		add_political_power = 75
		add_popularity = { ideology = communism popularity = 0.05 }
		set_politics = {
			ruling_party = communism
		}
	}
}
country_event = { #Joining Aquileia
	id = tarrin.11
	immediate = {log = "[GetDateText]: [Root.GetName]: event tarrin.11"}
	title = tarrin.11.t
	desc = tarrin.11.d
	picture = GFX_event_medieval_city_in_mountains
	fire_only_once = no
	is_triggered_only = yes
	option = {
		name = tarrin.11.a
		JES = {
			JES_meinard_nocere = {
				set_nationality = JER
			}
			JES_corina_trasviraire = {
				set_nationality = JER
			}
			JES_edgy_birb = {
				set_nationality = JER
			}
		}
		annex_country = { target = JES transfer_troops = yes }
		JES = {
			every_core_state = {
				add_core_of = ROOT
			}
		}
		hidden_effect = {
			country_event = {
				id = aquileia.255
				days = 120
			}
		}
	}
}
country_event = { #Corina reconciles
	id = tarrin.12
	immediate = {log = "[GetDateText]: [Root.GetName]: event tarrin.12"}
	title = tarrin.12.t
	desc = tarrin.12.d
	picture = GFX_event_medieval_city_in_mountains
	is_triggered_only = yes
	option = {
		name = tarrin.12.a
		add_stability = 0.05
	}
}
country_event = { #Meinard reconciles
	id = tarrin.13
	immediate = {log = "[GetDateText]: [Root.GetName]: event tarrin.13"}
	title = tarrin.13.t
	desc = tarrin.13.d
	picture = GFX_event_medieval_city_in_mountains
	is_triggered_only = yes
	option = {
		name = tarrin.13.a
		add_political_power = 50
	}
}
country_event = { #Leontina reconciles
	id = tarrin.14
	immediate = {log = "[GetDateText]: [Root.GetName]: event tarrin.14"}
	title = tarrin.14.t
	desc = tarrin.14.d
	picture = GFX_event_medieval_city_in_mountains
	is_triggered_only = yes
	option = {
		name = tarrin.14.a
		add_stability = 0.05
	}
}
country_event = { #Angry monarkiddies
	id = tarrin.15
	immediate = {log = "[GetDateText]: [Root.GetName]: event tarrin.15"}
	title = tarrin.15.t
	desc = tarrin.15.d
	picture = GFX_event_medieval_castle_on_hill
	is_triggered_only = yes
	option = {
		name = tarrin.15.a
		add_ideas = JES_monarchist_rebels
		if = {
			limit = {
				JER = {
					has_government = neutrality
					exists = yes
					has_global_flag = JER_revolution_ended
					NOT = {
						has_country_flag = JER_democracy_established
					}
				}
			}
			custom_effect_tooltip = JES_monarkiddie_warning
			hidden_effect = {
				country_event = {
					id = tarrin.34
					days = 300
				}
			}
		}
	}
}
country_event = { #Tarrin asks for recognition
	id = tarrin.16
	immediate = {log = "[GetDateText]: [Root.GetName]: event tarrin.16"}
	title = tarrin.16.t
	desc = tarrin.16.d
	picture = GFX_event_medieval_city_in_mountains
	is_triggered_only = yes
	option = {
		name = tarrin.16.a
		diplomatic_relation = {
			country = FROM
			relation = non_aggression_pact
			active = yes
		}
		if = {
			limit = {
				NOT = {
					original_tag = FRN
				}
			}
			FRN = {
				add_opinion_modifier = { target = ROOT modifier = FAT_EQS_war_support_enemies }
			}
		}
		FROM = {
			country_event = {
				id = tarrin.17
				days = 1
			}
		}
		ai_chance = {
			factor = 5
			modifier = {
				factor = 0.5
				has_government = fascism
			}
			modifier = {
				factor = 0.5
				original_tag = FRN
			}
		}
	}
	option = {
		name = tarrin.16.b
		FROM = {
			country_event = {
				id = tarrin.18
				days = 1
			}
		}
		ai_chance = {
			factor = 5
			modifier = {
				factor = 0.2
				OR = {
					has_government = democratic
					has_government = communism
				}
			}
		}
	}
}
country_event = { #We are recognized
	id = tarrin.17
	immediate = {log = "[GetDateText]: [Root.GetName]: event tarrin.17"}
	title = tarrin.17.t
	desc = tarrin.17.d
	picture = GFX_event_medieval_city_3
	is_triggered_only = yes
	option = {
		name = tarrin.17.a
		diplomatic_relation = {
			country = FROM
			relation = non_aggression_pact
			active = yes
		}
		add_political_power = 25
		add_stability = 0.01
		add_opinion_modifier = { target = FROM modifier = established_embassy }
	}
}
country_event = { #No recognition :c
	id = tarrin.18
	immediate = {log = "[GetDateText]: [Root.GetName]: event tarrin.18"}
	title = tarrin.18.t
	desc = tarrin.18.d
	picture = GFX_event_medieval_city
	is_triggered_only = yes
	option = {
		name = tarrin.18.a
		add_stability = -0.01
		add_opinion_modifier = { target = FROM modifier = refused_friends }
	}
}
country_event = { #Tarrinians nationalize oil
	id = tarrin.19
	immediate = {log = "[GetDateText]: [Root.GetName]: event tarrin.19"}
	title = tarrin.19.t
	desc = tarrin.19.d
	picture = GFX_event_medieval_city
	is_triggered_only = yes
	option = {
		name = tarrin.19.a
		add_political_power = -25
		add_opinion_modifier = { target = FROM modifier = distrustful_relations }
		effect_tooltip = {
			remove_resource_rights = 652
		}
	}
	option = {
		name = tarrin.19.b
		add_opinion_modifier = { target = FROM modifier = CHN_Embargo }
		add_opinion_modifier = { target = FROM modifier = distrustful_relations }
		effect_tooltip = {
			remove_resource_rights = 652
		}
	}
}
country_event = { #Disbanding the parliament
	id = tarrin.20
	immediate = {log = "[GetDateText]: [Root.GetName]: event tarrin.20"}
	title = tarrin.20.t
	desc = tarrin.20.d
	picture = GFX_event_feast
	is_triggered_only = yes
	option = {
		name = tarrin.20.a
		add_country_leader_trait = sisterly_leader
		add_popularity = { ideology = communism popularity = 0.05 }
	}
}
country_event = { #nazbol gang
	id = tarrin.21
	immediate = {log = "[GetDateText]: [Root.GetName]: event tarrin.21"}
	title = tarrin.21.t
	desc = tarrin.21.d
	picture = GFX_event_medieval_city_in_mountains
	is_triggered_only = yes
	option = {
		name = tarrin.21.a
		add_stability = -0.05
		add_ideas = JES_nationalistic_fervor
		decrease_illiteracy = yes
	}
}
country_event = { #Tarrin proposes federal union
	id = tarrin.22
	immediate = {log = "[GetDateText]: [Root.GetName]: event tarrin.22"}
	title = tarrin.22.t
	desc = tarrin.22.d
	picture = GFX_event_medieval_city_in_mountains
	is_triggered_only = yes
	option = {
		name = tarrin.22.a
		custom_effect_tooltip = GAME_OVER_TT
		FROM = {
			country_event = {
				id = tarrin.23
				days = 1
			}
		}
		ai_chance = {
			factor = 1
			modifier = {
				factor = 2
				has_opinion = { target = FROM value > 10 }
			}
			modifier = {
				factor = 2
				has_opinion = { target = FROM value > 25 }
			}
			modifier = {
				factor = 2
				has_opinion = { target = FROM value > 50 }
			}
			modifier = {
				factor = 2
				has_opinion = { target = FROM value > 75 }
			}
			modifier = {
				factor = 0.1
				original_tag = JER
				NOT = {
					is_subject_of = JES
				}
			}
		}
	}
	option = {
		name = tarrin.22.b
		FROM = {
			country_event = {
				id = tarrin.24
				days = 1
			}
		}
		ai_chance = {
			factor = 6
			modifier = {
				factor = 0
				is_subject_of = JES
			}
		}
	}
}
country_event = { #Accepted!
	id = tarrin.23
	immediate = {log = "[GetDateText]: [Root.GetName]: event tarrin.23"}
	title = tarrin.23.t
	desc = tarrin.23.d
	picture = GFX_event_medieval_city_3
	is_triggered_only = yes
	option = {
		name = tarrin.23.a
		if = {
			limit = {
				NOT = {
					has_cosmetic_tag = JES_pan_aquileia_tag
				}
			}
			set_cosmetic_tag = JES_pan_aquileia_tag
		}
		FROM = {
			every_core_state = {
				add_core_of = ROOT
			}
		}
		annex_country = {
			target = FROM
			transfer_troops = yes
		}
	}
}
country_event = { #Refused
	id = tarrin.24
	immediate = {log = "[GetDateText]: [Root.GetName]: event tarrin.24"}
	title = tarrin.24.t
	desc = tarrin.24.d
	picture = GFX_event_medieval_city
	is_triggered_only = yes
	option = {
		name = tarrin.24.a
		add_political_power = -25
		add_opinion_modifier = { target = FROM modifier = refused_to_cooperate }
	}
}
country_event = { #Ending event for commie path
	id = tarrin.25
	immediate = {log = "[GetDateText]: [Root.GetName]: event tarrin.25"}
	title = tarrin.25.t
	desc = tarrin.25.d
	picture = GFX_event_medieval_city_3
	is_triggered_only = yes
	option = {
		name = tarrin.25.a
		add_political_power = 150
	}
}
country_event = { #Aquileia demands annexation
	id = tarrin.26
	immediate = {log = "[GetDateText]: [Root.GetName]: event tarrin.26"}
	title = tarrin.26.t
	desc = tarrin.26.d
	picture = GFX_event_griffons_machine_gun
	is_triggered_only = yes
	option = { #Accept
		name = tarrin.26.a
		trigger = {
			FROM = {
				has_country_flag = JER_democracy_established
			}
			NOT = {
				has_government = fascism
			}
		}
		custom_effect_tooltip = GAME_OVER_TT
		FROM = {
			country_event = {
				id = tarrin.27
				days = 1
			}
		}
		ai_chance = {
			factor = 1
			modifier = {
				factor = 0
				has_government = communism
				FROM = {
					NOT = {
						has_government = communism
					}
				}
			}
		}
	}
	option = { #Offer to become a subject
		name = tarrin.26.b
		trigger = {
			FROM = {
				has_country_flag = JER_democracy_established
			}
			NOT = {
				has_government = fascism
			}
		}
		custom_effect_tooltip = JES_war_warning_tt
		FROM = {
			country_event = {
				id = tarrin.28
				days = 1
			}
		}
		ai_chance = {
			factor = 1
		}
	}
	option = { #Refuse
		name = tarrin.26.c
		trigger = {
			OR = {
				NOT = {
					has_government = democratic
				}
				FROM = {
					NOT = {
						has_country_flag = JER_democracy_established
					}
				}
			}
		}
		custom_effect_tooltip = JES_war_warning_tt
		FROM = {
			country_event = {
				id = tarrin.29
				days = 1
			}
		}
		ai_chance = {
			factor = 1
			modifier = {
				factor = 0
				FROM = {
					has_country_flag = JER_democracy_established
				}
				NOT = {
					has_government = fascism
				}
			}
		}
	}
}
country_event = { #Tarrin accepts annexation
	id = tarrin.27
	immediate = {log = "[GetDateText]: [Root.GetName]: event tarrin.27"}
	title = tarrin.27.t
	desc = tarrin.27.d
	picture = GFX_event_medieval_city_3
	is_triggered_only = yes
	option = {
		name = tarrin.27.a
		add_political_power = 75
		add_stability = -0.05
		FROM = {
			every_core_state = {
				add_core_of = ROOT
			}
		}
		annex_country = {
			target = FROM
			transfer_troops = yes
		}
		JES = {
			JES_meinard_nocere = {
				set_nationality = JER
			}
			JES_corina_trasviraire = {
				set_nationality = JER
			}
			JES_edgy_birb = {
				set_nationality = JER
			}
		}
		hidden_effect = {
			country_event = {
				id = aquileia.255
				days = 120
			}
		}
	}
}
country_event = { #Tarrin requests autonomy
	id = tarrin.28
	immediate = {log = "[GetDateText]: [Root.GetName]: event tarrin.28"}
	title = tarrin.28.t
	desc = tarrin.28.d
	picture = GFX_event_medieval_city_in_mountains
	is_triggered_only = yes
	option = {
		name = tarrin.28.a
		hidden_effect = {
			FROM = { get_current_government_type = yes }
		}
		if = {
			limit = {
				has_government = fascism
			}
			set_autonomy = { target = FROM autonomy_state = autonomy_satellite }
		}
		else = {
			set_autonomy = { target = FROM autonomy_state = autonomy_dominion }
		}
		hidden_effect = {
			FROM = {
				restore_previous_government_type = yes
				country_event = griffonian.1
			}
		}
		ai_chance = {
			factor = 2
		}
	}
	option = {
		name = tarrin.28.b
		add_war_support = -0.1
		create_wargoal = {
			target = FROM
			type = annex_everything
		}
		ai_chance = {
			factor = 1
			modifier = {
				factor = 0
				OR = {
					AND = {
						has_government = communism
						FROM = {
							has_government = communism
						}
					}
					has_government = democratic
				}
			}
		}
	}
}
country_event = { #Tarrin refuses annexation
	id = tarrin.29
	immediate = {log = "[GetDateText]: [Root.GetName]: event tarrin.29"}
	title = tarrin.29.t
	desc = tarrin.29.d
	picture = GFX_event_griffons_machine_gun
	is_triggered_only = yes
	option = {
		name = tarrin.29.a
		create_wargoal = {
			target = FROM
			type = annex_everything
		}
	}
}
country_event = { #Meinard's speech
	id = tarrin.30
	immediate = {log = "[GetDateText]: [Root.GetName]: event tarrin.30"}
	title = tarrin.30.t
	desc = tarrin.30.d
	picture = GFX_event_medieval_city_3
	is_triggered_only = yes
	option = {
		name = tarrin.30.a
		add_ideas = JES_spirit_of_revolution
	}
}
country_event = { #Hidden event cleaning the mess
	id = tarrin.31
	immediate = {log = "[GetDateText]: [Root.GetName]: event tarrin.31"}
	is_triggered_only = yes
	hidden = yes
	option = {
		435 = {
			force_disable_resistance = {
				clear = yes
				occupier = JER
				occupied = JEB
			}
			remove_resistance_target = 435
		}
		448 = {
			force_disable_resistance = {
				clear = yes
				occupier = JER
				occupied = JRR
			}
			remove_resistance_target = 448
		}
		376 = {
			force_disable_resistance = {
				clear = yes
				occupier = JER
				occupied = JFT
			}
			remove_resistance_target = 376
		}
		517 = {
			force_disable_resistance = {
				clear = yes
				occupier = JER
				occupied = VIN
			}
			remove_resistance_target = 517
		}
	}
}
country_event = { #JER informed of resistance
	id = tarrin.32
	immediate = {log = "[GetDateText]: [Root.GetName]: event tarrin.32"}
	title = tarrin.32.t
	desc = tarrin.32.d
	picture = GFX_event_griffon_with_gun
	is_triggered_only = yes
	option = {
		name = tarrin.32.a
		add_stability = -0.1
	}
}
country_event = { #You won, you crazy son of a bitch, you won
	id = tarrin.33
	immediate = {log = "[GetDateText]: [Root.GetName]: event tarrin.33"}
	title = tarrin.33.t
	desc = tarrin.33.d
	picture = GFX_event_medieval_city_3
	is_triggered_only = yes
	option = {
		name = tarrin.33.a
		add_political_power = 150
		add_stability = 0.1
		if = {
			limit = {
				is_faction_leader = yes
			}
			dismantle_faction = yes
		}
		custom_effect_tooltip = JES_become_aquileia
		hidden_effect = {
			release = JER
			add_advisor_role = {
				character = JES_meinard_nocere
				advisor = {
					slot = political_advisor
					idea_token = JER_meinard

					traits = {
						popular_figurehead
					}
				}
			}
			remove_advisor_role = {
				character = JES_meinard_nocere
				slot = army_chief
			}
			JES = {
				JES_meinard_nocere = {
					set_nationality = JER
					remove_unit_leader_role = yes
				}
				JES_corina_trasviraire = {
					set_nationality = JER
				}
				JES_edgy_birb = {
					set_nationality = JER
				}
			}
			JER_jean_lafitte = {
				set_nationality = JER
			}
			JER_voss_corsair = {
				set_nationality = JER
			}
			JER_claire_lacolombe = {
				set_nationality = JER
			}
			JER_krayt_de_belanger = {
				set_nationality = JER
			}
			JER_jean_chevalier_bargette = {
				set_nationality = JER
			}
			JER_gilbert_la_fauvette = {
				set_nationality = JER
			}
			JER_fier_chouquette = {
				set_nationality = JER
			}
			JES = {
				every_core_state = {
					add_core_of = JER
				}
			}
			JER = {
				load_focus_tree = {
					tree = aquileian_focus
					keep_completed = no
				}
				set_politics = {
					ruling_party = democratic
					elections_allowed = no
				}
				add_popularity = {
					ideology = democratic
					popularity = 0.10
				}
				if = {
					limit = {
						 has_character = JER_king_moriset_discret
					}
					JER_king_moriset_discret = {
						retire = yes
					}
				}
				if = {
					limit = {
						JER_albert_berthelot = { is_unit_leader = yes }
					}
					JER_albert_berthelot = {
						retire = yes
					}
				}
				if = {
					limit = {
						JER_charlesguillaumeferdinand_de_greifenwaldstrawberry = { is_unit_leader = yes }
					}
					JER_charlesguillaumeferdinand_de_greifenwaldstrawberry = {
						retire = yes
					}
				}
				if = {
					limit = {
						JER_genevieve_artigue = { is_unit_leader = yes }
					}
					JER_genevieve_artigue = {
						retire = yes
					}
				}
				if = {
					limit = {
						JER_foulque_cathelineau = { is_unit_leader = yes }
					}
					JER_foulque_cathelineau = {
						retire = yes
					}
				}
				if = {
					limit = {
						JER_lionella_brochard = { is_unit_leader = yes }
					}
					JER_lionella_brochard = {
						retire = yes
					}
				}
				if = {
					limit = {
						JER_seva_shako = { is_unit_leader = yes }
					}
					JER_seva_shako = {
						retire = yes
					}
				}
				if = {
					limit = {
						has_character = JER_vivienne_discret
					}
					JER_vivienne_discret = {
						retire = yes
					}
				}
				set_cosmetic_tag = JER_REPUBLIC
				set_country_flag = JER_democracy_established
				set_country_flag = JER_JES_successful
				set_global_flag = JER_revolution_ended_2
				clr_country_flag = JER_is_monarchist
				clr_country_flag = JER_ARMY_DOCTRINE_GUI_OPENED
				complete_national_focus = JER_fight_for_freedom
				remove_ideas = JER_memories
				remove_ideas = JER_memories_2
				change_tag_from = ROOT
			}
			JER = {
				annex_country = { target = JES transfer_troops = yes }

			}
		}

	}
}
country_event = { #Monarkiddie coup
	id = tarrin.34
	immediate = {log = "[GetDateText]: [Root.GetName]: event tarrin.34"}
	title = tarrin.34.t
	desc = tarrin.34.d
	picture = GFX_event_griffon_with_gun
	is_triggered_only = yes
	trigger = {
		has_idea = JES_monarchist_rebels
	}
	option = {
		name = tarrin.34.a
		JER = {
			country_event = tarrin.35
		}
	}
}
country_event = { #Aquileian perspective
	id = tarrin.35
	immediate = {log = "[GetDateText]: [Root.GetName]: event tarrin.35"}
	title = tarrin.35.t
	desc = tarrin.35.d
	picture = GFX_event_griffon_soldier
	is_triggered_only = yes
	option = {
		name = tarrin.35.a
		add_political_power = 75
		add_stability = -0.05
		annex_country = {
			target = FROM
			transfer_troops = no
		}
		hidden_effect = {
			country_event = {
				id = aquileia.255
				days = 120
			}
		}
	}
}
country_event = { #Cultural renaissance
	id = tarrin.36
	immediate = {log = "[GetDateText]: [Root.GetName]: event tarrin.36"}
	title = tarrin.36.t
	desc = tarrin.36.d
	picture = GFX_event_griffon_soldier
	is_triggered_only = yes
	option = {
		name = tarrin.36.a
		add_political_power = 75
		decrease_illiteracy = yes
		custom_effect_tooltip = available_political_advisor
		show_ideas_tooltip = JES_poet_advisor
	}
}
country_event = { #FOREIGNERS GET OUT REEEEEE
	id = tarrin.37
	immediate = {log = "[GetDateText]: [Root.GetName]: event tarrin.37"}
	title = tarrin.37.t
	desc = tarrin.37.d
	picture = GFX_event_medieval_city
	is_triggered_only = yes
	option = {
		name = tarrin.37.a
		JES_edgy_birb = {
			retire = yes
		}
		add_political_power = 75
		add_stability = -0.05
		if = {
			limit = {
				has_completed_focus = JES_impure_blood
			}
			save_current_manpower = yes
			if = {
				limit = {
					owns_state = 487
				}
				487 = {
					add_manpower = -7500
				}
			}
			if = {
				limit = {
					owns_state = 521
				}
				521 = {
					add_manpower = -2500
				}
			}
			if = {
				limit = {
					owns_state = 652
				}
				652 = {
					add_manpower = -5000
				}
			}
			restore_previous_manpower = yes
			FRN = {
				country_event = tarrin.6
			}
		}
		else = {
			save_current_manpower = yes
			if = {
				limit = {
					owns_state = 487
				}
				487 = {
					add_manpower = -25000
				}
			}
			if = {
				limit = {
					owns_state = 521
				}
				521 = {
					add_manpower = -12500
				}
			}
			if = {
				limit = {
					owns_state = 652
				}
				652 = {
					add_manpower = -20000
				}
			}
			restore_previous_manpower = yes
			FRN = {
				country_event = tarrin.6
			}
		}
		add_ideas = JES_nationalistic_fervor
		JER = {
			country_event = tarrin.6
		}
		if = {
			limit = {
				WNG = {
					exists = yes
					NOT = {
						has_government = communism
					}
				}
			}
			WNG = {
				remove_resource_rights = 652
				country_event = tarrin.19
			}
		}
	}
}
country_event = { ###Balefire Takeover/Victory/JES
	id = tarrin.38
	immediate = {log = "[GetDateText]: [Root.GetName]: event tarrin.38"}
	title = tarrin.38.t
	desc = tarrin.38.d
	picture = GFX_event_griffon_soldier

	is_triggered_only = yes


	option = {
		name = tarrin.38.a
		add_political_power = 100
		add_war_support = -0.05
		transfer_state = 500
		add_state_core = 500
	}
}
country_event = { #Takeover/Defeat/JES
	id = tarrin.39
	immediate = {log = "[GetDateText]: [Root.GetName]: event tarrin.39"}
	title = tarrin.39.t
	desc = tarrin.39.d

	picture = GFX_event_griffons_machine_gun
	is_triggered_only = yes

	option = {
		name = tarrin.39.a
		add_political_power = -50
		add_war_support = 0.05
	}
}

country_event = { #Takeover/Cancel/JES
	id = tarrin.40
	immediate = {log = "[GetDateText]: [Root.GetName]: event tarrin.40"}
	title = tarrin.40.t
	desc = tarrin.40.d

	picture = GFX_event_griffon_royal_guard
	is_triggered_only = yes

	option = {
		name = tarrin.27.a
		add_political_power = -25
		add_war_support = -0.05
	}
}

country_event = { #Takeover/Victory/Defender
	id = tarrin.41
	immediate = {log = "[GetDateText]: [Root.GetName]: event tarrin.41"}
	title = tarrin.41.t
	desc = tarrin.41.d

	picture = GFX_event_griffons_machine_gun
	is_triggered_only = yes

	option = {
		name = tarrin.41.a
		add_political_power = 50
		add_stability = 0.05
	}
}

country_event = { #Takeover/Defeat/Defender
	id = tarrin.42
	immediate = {log = "[GetDateText]: [Root.GetName]: event tarrin.42"}
	title = tarrin.42.t
	desc = tarrin.42.d

	picture = GFX_event_griffon_with_gun
	is_triggered_only = yes

	option = {
		name = tarrin.42.a
		add_political_power = -50
		add_stability = -0.05
	}
}

country_event = { #TakeOver/Cancel/Defender
	id = tarrin.43
	immediate = {log = "[GetDateText]: [Root.GetName]: event tarrin.43"}
	title = tarrin.43.t
	desc = tarrin.43.d

	picture = GFX_event_griffon_royal_guard
	is_triggered_only = yes

	option = {
		name = tarrin.43.a
		add_political_power = 25
	}
}
country_event = { ###Erie Takeover/Victory/JES
	id = tarrin.44
	immediate = {log = "[GetDateText]: [Root.GetName]: event tarrin.44"}
	title = tarrin.44.t
	desc = tarrin.44.d
	picture = GFX_event_western_griffon_city

	is_triggered_only = yes


	option = {
		name = tarrin.44.a
		add_political_power = 100
		add_war_support = -0.05
		transfer_state = 401
		add_state_core = 401
	}
}
country_event = { #Final event
	id = tarrin.45
	immediate = {log = "[GetDateText]: [Root.GetName]: event tarrin.45"}
	title = tarrin.45.t
	desc = tarrin.45.d
	picture = GFX_event_medieval_village_2

	is_triggered_only = yes

	option = {
		name = tarrin.45.a
		add_manpower = 10000
		add_stability = 0.05
		add_war_support = 0.1
		decrease_illiteracy = yes
	}
}
country_event = { #Ppl informed of JER-JES victory
	id = tarrin.46
	immediate = {log = "[GetDateText]: [Root.GetName]: event tarrin.46"}
	title = tarrin.46.t
	desc = tarrin.46.d
	picture = GFX_event_griffon_soldier

	is_triggered_only = yes

	option = {
		name = tarrin.46.a
		add_war_support = -0.05
		if = {
			limit = {
				tag = JER
			}
			add_political_power = 100
		}
	}
}
country_event = { #Tarrinian slavery
	id = tarrin.47
	immediate = {log = "[GetDateText]: [Root.GetName]: event tarrin.47"}
	title = tarrin.47.t
	desc = tarrin.47.d
	picture = GFX_event_unused_event

	is_triggered_only = yes

	option = {
		name = tarrin.47.a
		set_country_flag = capra
		KAT = {
			KAT_cult_advisor_1 = {
				set_nationality = ROOT
			}
		}
		LMB = {
			LMB_idk = {
				set_nationality = ROOT
			}
		}
		BUF = {
			BUF_giles_the_shamangoat = {
				set_nationality = ROOT
			}
		}
		CZR = {
			CZR_funny_advisor = {
				set_nationality = ROOT
			}
		}
		JAK = {
			JAK_not_a_jak = {
				set_nationality = ROOT
			}
		}
		MIT = {
			MIT_randy_the_showgoat = {
				set_nationality = ROOT
			}
		}
		#custom_effect_tooltip = available_political_advisor
		#show_ideas_tooltip = KAT_cult_advisor_1
		#custom_effect_tooltip = available_political_advisor
		#show_ideas_tooltip = LMB_idk
		#custom_effect_tooltip = available_political_advisor
		#show_ideas_tooltip = BUF_goat
		#custom_effect_tooltip = available_political_advisor
		#show_ideas_tooltip = CZR_funny_advisor
		#custom_effect_tooltip = available_political_advisor
		#show_ideas_tooltip = JAK_not_a_jak
		#custom_effect_tooltip = available_political_advisor
		#show_ideas_tooltip = MIT_Randy
	}
}