﻿add_namespace = supporters
country_event = { #Bat Pelley Gets Some Influence
	id = supporters.1
	immediate = {log = "[GetDateText]: [Root.GetName]: event supporters.1"}
	title = supporters.1.t
	desc = supporters.1.d

	picture = GFX_event_luna_poster
	is_triggered_only = yes

	option = {
		name = supporters.1.a
		add_war_support = 0.05
		add_political_power = 30
	}
}

country_event = { #Coltec Support
	id = supporters.2
	immediate = {log = "[GetDateText]: [Root.GetName]: event supporters.2"}
	title = supporters.2.t
	desc = supporters.2.d

	picture = GFX_event_jungles_2
	is_triggered_only = yes

	option = {
		name = supporters.2.a
		add_war_support = 0.05
		add_stability = 0.03
		add_manpower = 10000
	}
}

country_event = { #Bat Pony Tribes Unite
	id = supporters.3
	immediate = {log = "[GetDateText]: [Root.GetName]: event supporters.3"}
	title = supporters.3.t
	desc = supporters.3.d

	picture = GFX_event_bat_soldier_flying
	is_triggered_only = yes

	option = {
		name = supporters.3.a
		add_stability = 0.03
		add_manpower = 15000
		add_popularity = {
		    ideology = fascism
		    popularity = 0.03
		}
	}
}

country_event = { #Stars Whirl cements her authority
	id = supporters.4
	immediate = {log = "[GetDateText]: [Root.GetName]: event supporters.4"}
	title = supporters.4.t
	desc = supporters.4.d

	picture = GFX_event_bat_soldier
	is_triggered_only = yes

	option = {
		name = supporters.4.a
		add_stability = 0.15
		add_popularity = {
		    ideology = fascism
		    popularity = 0.03
		}
	}
}
#Unused atm
country_event = { ## BATS FLEE FOR HARMONY ##!!
	id = supporters.5
	immediate = {log = "[GetDateText]: [Root.GetName]: event supporters.5"}
	title = {
		text = supporters.5.t_generic
		trigger = { surrender_progress > 0.05
			surrender_progress < 0.2 } }
	title = {
		text = supporters.5.t_losing
		trigger = { surrender_progress > 0.2
			surrender_progress < 0.3 } }
	title = {
		text = supporters.5.t_losing_badly
		trigger = { surrender_progress > 0.3
			surrender_progress < 0.4 } }
	title = {
		text = supporters.5.t_losing_no_hope
		trigger = { surrender_progress > 0.4
			surrender_progress < 0.4 } }

	desc = { text = supporters.5.d_generic
		trigger = { surrender_progress > 0.05
			surrender_progress < 0.2 } }
	desc = { text = supporters.5.d_losing
		trigger = { surrender_progress > 0.2
			surrender_progress < 0.3 } }
	desc = { text = supporters.5.d_losing_badly
		trigger = { surrender_progress > 0.3
			surrender_progress < 0.4 } }
	desc = { text = supporters.5.d_losing_no_hope
		trigger = { surrender_progress > 0.4 } }
	picture = GFX_event_ponies_in_battle

	trigger = {
		tag = NMS
		has_war_with = CES
		surrender_progress > 0.05
		NOT = { CES = { surrender_progress > 0.3 } }
	}
	mean_time_to_happen = { days = 250
		modifier = {
			factor = 0.5
			surrender_progress > 0.5
		}
		modifier = {
			factor = 0.6
			surrender_progress > 0.4
		}
		modifier = {
			factor = 0.7
			surrender_progress > 0.3
		}
		modifier = {
			factor = 0.8
			surrender_progress > 0.2
		}
		modifier = {
			factor = 0.9
			surrender_progress > 0.1
		}
		modifier = {
			factor = 1.2
			CES = { surrender_progress > 0.1 }
		}
		modifier = {
			factor = 1.3
			CES = { surrender_progress > 0.2 }
		}
		modifier = {
			factor = 1.4
			CES = { surrender_progress > 0.25 }
		}
	}
	option = { # yes
		name = supporters.5.a
		save_current_manpower = yes
		random_list = {
			25 = { add_manpower = -200 CES = { set_country_flag = two_hun_bats } }
			25 = { add_manpower = -300 CES = { set_country_flag = three_hun_bats } }
			25 = { add_manpower = -400 CES = { set_country_flag = four_hun_bats } }
			25 = { add_manpower = -500 CES = { set_country_flag = five_hun_bats } }
		}
		restore_previous_manpower = yes
		hidden_effect = {
			#CES = { country_event = daring.5 }
		}
	}
}
country_event = {
	id = supporters.6
	immediate = {log = "[GetDateText]: [Root.GetName]: event supporters.6"}
	title = supporters.6.t
	desc = supporters.6.d
	picture = GFX_event_bat_soldier_flying

	is_triggered_only = yes

	option = { # yes
		name = supporters.6.a
		if = { limit = { has_country_flag = two_hun_CES }
			add_manpower = 199
			clr_country_flag = two_hun_CES }
		if = { limit = { has_country_flag = three_hun_CES }
			add_manpower = 258
			clr_country_flag = three_hun_CES }
		if = { limit = { has_country_flag = four_hun_CES }
			add_manpower = 400
			clr_country_flag = four_hun_CES }
		if = { limit = { has_country_flag = five_hun_CES }
			add_manpower = 500
			clr_country_flag = five_hun_bats }
	}
}
country_event = {
	id = supporters.7 #Unused atm
	immediate = {log = "[GetDateText]: [Root.GetName]: event supporters.7"}
	title = supporters.7.t
	desc = supporters.7.d
	picture = GFX_event_bat_soldier2
	trigger = {
		tag = NMS
		25 = { is_controlled_by = CES }
		CES = {
			divisions_in_state = { state = 605 size < 1 }
		}
	}
	mean_time_to_happen = { days = 14 }
	fire_only_once = yes
	option = {
		name = supporters.7.a
		transfer_state = 25
	}
}

country_event = { #The final battle against the Neighua
	id = supporters.8
	immediate = {log = "[GetDateText]: [Root.GetName]: event supporters.8"}
	title = supporters.8.t
	desc = supporters.8.d

	picture = GFX_event_ponies_in_battle
	is_triggered_only = yes

	option = {
		name = supporters.8.a
		add_war_support = 0.10
		add_manpower = 15000
		add_political_power = 25
	}
}

country_event = { #Civil War has Ended
	id = supporters.9
	immediate = {log = "[GetDateText]: [Root.GetName]: event supporters.9"}
	title = supporters.9.t
	desc = supporters.9.d

	picture = GFX_event_lunar_republic
	fire_only_once = yes

	is_triggered_only = yes

	option = {
		name = supporters.9.a
		custom_effect_tooltip = JUN_new_focus_tree_tp
		every_state = {
			limit = {
				OR = {
					is_core_of = BAL
					is_core_of = JUN
					is_core_of = CES
				}
			}
			add_core_of = NMS
		}
		set_party_name = {
		    ideology = neutrality
			name = NMS_neutrality_p_party
			long_name = NMS_neutrality_p_party_long
		}
		add_popularity = {
		    ideology = neutrality
		    popularity = 0.15
		}
		every_possible_country = {
			limit = {
				has_character = JUN_doctor_caballeron
			}
			JUN_doctor_caballeron = {
				remove_unit_leader_role = yes
				set_nationality = ROOT
			}
		}
		promote_character = {
			character = JUN_doctor_caballeron
			ideology = despotism
		}
		add_popularity = {
		    ideology = democratic
		    popularity = 0.15
		}
		set_party_name = {
		    ideology = democratic
			name = NMS_democratic_p_party
			long_name = NMS_democratic_p_party_long
		}
		every_possible_country = {
			limit = {
				has_character = CES_daring_do
			}
			CES_daring_do = {
				remove_unit_leader_role = yes
				set_nationality = ROOT
			}
		}
		promote_character = {
			character = CES_daring_do
			ideology = liberalism
		}
		set_party_name = {
		    ideology = fascism
			name = NMS_fascism_p_party
			long_name = NMS_fascism_p_party_long
		}
		add_popularity = {
		    ideology = communism
		    popularity = 0.15
		}
		set_party_name = {
		    ideology = communism
			name = NMS_communism_p_party
			long_name = NMS_communism_p_party_long
		}
		every_possible_country = {
			limit = {
				has_character = BAL_cricket_chafer
			}
			BAL_cricket_chafer = {
				remove_unit_leader_role = yes
				set_nationality = ROOT
			}
		}
		promote_character = {
			character = BAL_cricket_chafer
			ideology = leninism
		}
		add_ideas = JUN_discontent_in_cities
		add_ideas = JUN_economic_backwater
		add_ideas = NMS_native_resistance
		set_country_flag = NMS_civil_war_ended
		hidden_effect = {
		    load_focus_tree = {
			  tree = nightmare_focus_2
			}
			NLR = {
			    country_event = {
				    id = supporters.10
				    days = 1
				}
			}
			if = {
				limit = {
					has_template = "Chiropterran Expeditionary Corps"
				}
				delete_unit_template_and_units = {
					division_template = "Chiropterran Expeditionary Corps"
				}
			}
		}
	}
}

country_event = { #NMS joins NLR war
	id = supporters.10
	immediate = {log = "[GetDateText]: [Root.GetName]: event supporters.10"}
	title = supporters.10.t
	desc = supporters.10.d

	picture = GFX_event_luna_ready_for_war
	is_triggered_only = yes

	option = {
		name = supporters.10.a
	}
}

country_event = { #Offer To Become Puppet
	id = supporters.11
	immediate = {log = "[GetDateText]: [Root.GetName]: event supporters.11"}
	title = supporters.11.t
	desc = supporters.11.d

	picture = GFX_event_luna_poster
	is_triggered_only = yes

	option = { #Make Them a Puppet
		name = supporters.11.a
		ai_chance = {
		    factor = 50
            modifier = {
				NMS = { is_ai = yes }
				factor = 0
			}
		}
		NMS = {
			every_core_state = {
				remove_claim_by = NLR
				remove_core_of = NLR
			}
		}
		hidden_effect = {
		    NMS = {
			    country_event = {
				    id = supporters.12
				    days = 7
				}
			}
		}
	}

	option = { #Just Annex Them
		name = supporters.11.b
		ai_chance = {
			factor = 50
			modifier = {
				NMS = { is_ai = no }
				factor = 0
			}
		}
		NMS = {
			NMS_stars_whirl = {
				set_nationality = NLR
			}
			every_character = {
				limit = {
					is_unit_leader = yes
					is_country_leader = no
				}
				set_nationality = NLR
			}
		}
		annex_country = {
			target = NMS
			transfer_troops = yes
		}
	}
}

country_event = { #Autonomy Granted
	id = supporters.12
	immediate = {log = "[GetDateText]: [Root.GetName]: event supporters.12"}
	title = supporters.12.t
	desc = supporters.12.d

	picture = GFX_event_luna_castle
	is_triggered_only = yes

	option = {
		name = supporters.12.a
		ai_chance = {
		    factor = 50
		}
		add_political_power = 50
		add_stability = 0.05
		if = {
		    limit = { country_exists = NLR }
		    NLR = {
                puppet = NMS
		    }
			NLR = {
		        add_to_faction = NMS
		    }
	    }
		if = {
		    limit = {
			    country_exists = EQS
                EQS = { has_war_with = NLR }
			}
			hidden_effect = {
				create_wargoal = {
					type = annex_everything
					target = EQS
				}
			}
		    declare_war_on = {
                target = EQS
                type = annex_everything
            }
	    }
		set_cosmetic_tag = NMS_civilian_government
		hidden_effect = {
		    set_country_flag = NMS_civilian_government_flag
			set_country_flag = NMS_lunar_puppet
		}
	}

	option = {
		name = supporters.12.b
		ai_chance = {
		    factor = 50
		}
		add_stability = 0.10
		if = {
		    limit = { country_exists = NLR }
		    NLR = {
                puppet = NMS
		    }
			NLR = {
		        add_to_faction = NMS
		    }
	    }
		if = {
		    limit = {
			    country_exists = EQS
                EQS = { has_war_with = NLR }
			}
			hidden_effect = {
				create_wargoal = {
					type = annex_everything
					target = EQS
				}
			}
		    declare_war_on = {
                target = EQS
                type = annex_everything
            }
	    }
		hidden_effect = {
		    set_country_flag = NMS_army_government_flag
			set_country_flag = NMS_lunar_puppet
			complete_national_focus = NMS_military_government
		}
	}
}

country_event = { #Pick A Governor
	id = supporters.13
	immediate = {log = "[GetDateText]: [Root.GetName]: event supporters.13"}
	title = supporters.13.t
	desc = supporters.13.d

	picture = GFX_event_luna_castle
	is_triggered_only = yes

	option = {
		name = supporters.13.a
		ai_chance = {
		    factor = 20
		}
		add_country_leader_role = {
			character = NMS_starry_glory
			promote_leader = yes

			country_leader = {
				desc = "bat_pelley_desc"
				expire = "1965.1.1"
				ideology = ultranationalism
				traits = { }
			}
        }
		set_party_name = {
		    ideology = fascism
			name = NMS_fascism_2p_party
			long_name = NMS_fascism_2p_party_long
		}
		hidden_effect = {
		    complete_national_focus = NMS_governor_glory
		}
	}

	option = {
		name = supporters.13.b
		ai_chance = {
		    factor = 80
		}
		add_country_leader_role = {
			character = NMS_light_narrative
			promote_leader = yes

			country_leader = {
				desc = "spiderbat_desc"
				expire = "1965.1.1"
				ideology = nazism
				traits = { }
			}
        }
		set_party_name = {
		    ideology = fascism
			name = NMS_fascism_2p_party
			long_name = NMS_fascism_2p_party_long
		}
		hidden_effect = {
		    complete_national_focus = NMS_governor_light
		}
	}
}

country_event = { #Killing some natives by a city
	id = supporters.14
	immediate = {log = "[GetDateText]: [Root.GetName]: event supporters.14"}
	title = supporters.14.t
	desc = supporters.14.d

	picture = GFX_event_ponies_in_battle
	is_triggered_only = yes

	option = {
		name = supporters.14.a
		add_stability = -0.05
		add_political_power = 25
		save_current_manpower = yes
		16 = {
		    add_manpower = -50000
		}
		restore_previous_manpower = yes
		add_popularity = {
		    ideology = neutrality
		    popularity = -0.03
		}
	}
}

country_event = { #Mass Reprisals
	id = supporters.15
	immediate = {log = "[GetDateText]: [Root.GetName]: event supporters.15"}
	title = supporters.15.t
	desc = supporters.15.d

	picture = GFX_event_jungles_2
	is_triggered_only = yes

	option = {
		name = supporters.15.a
		add_stability = -0.05
		add_political_power = 25
		save_current_manpower = yes
		16 = {
		    add_manpower = -50000
		}
		24 = {
		    add_manpower = -50000
		}
		352 = {
		    add_manpower = -50000
		}
		88 = {
		    add_manpower = -50000
		}
		restore_previous_manpower = yes
		add_popularity = {
		    ideology = neutrality
		    popularity = -0.05
		}
	}
}

country_event = { #Neighua Leaders Assassinated
	id = supporters.16
	immediate = {log = "[GetDateText]: [Root.GetName]: event supporters.16"}
	title = supporters.16.t
	desc = supporters.16.d

	picture = GFX_event_jungles
	is_triggered_only = yes

	option = {
		name = supporters.16.a
		add_stability = 0.125
		add_political_power = 25
		add_popularity = {
		    ideology = neutrality
		    popularity = -0.07
		}
	}
}

country_event = { #Sending Out Missionaries
	id = supporters.17
	immediate = {log = "[GetDateText]: [Root.GetName]: event supporters.17"}
	title = supporters.17.t
	desc = supporters.17.d

	picture = GFX_event_bat_ponies
	is_triggered_only = yes

	option = {
		name = supporters.17.a
		add_stability = -0.05
		add_political_power = -25
		add_manpower = 10000
		add_popularity = {
		    ideology = fascism
		    popularity = 0.05
		}
	}
}

country_event = { #Arresting the Leaders
	id = supporters.18
	immediate = {log = "[GetDateText]: [Root.GetName]: event supporters.18"}
	title = supporters.18.t
	desc = supporters.18.d

	picture = GFX_event_bat_soldier_flying
	is_triggered_only = yes

	option = {
		name = supporters.18.a
		add_stability = -0.05
		add_political_power = -50
		add_popularity = {
		    ideology = neutrality
		    popularity = -0.05
		}
	}
}

country_event = { #Opening Dialouge With the Natives
	id = supporters.19
	immediate = {log = "[GetDateText]: [Root.GetName]: event supporters.19"}
	title = supporters.19.t
	desc = supporters.19.d

	picture = GFX_event_bat_ponies
	is_triggered_only = yes

	option = {
		name = supporters.19.a
		add_stability = 0.10
		add_political_power = 50
		add_popularity = {
		    ideology = neutrality
		    popularity = -0.05
		}
	}
}

country_event = { #Merging the Military/Civilian Administration
	id = supporters.20
	immediate = {log = "[GetDateText]: [Root.GetName]: event supporters.20"}
	title = supporters.20.t
	desc = supporters.20.d

	picture = GFX_event_luna_castle
	is_triggered_only = yes

	option = {
		name = supporters.20.a
		add_stability = 0.05
		add_political_power = 40
		add_popularity = {
		    ideology = fascism
		    popularity = 0.03
		}
	}
}

country_event = { #Indefinite Martial Law Implemented
	id = supporters.21
	immediate = {log = "[GetDateText]: [Root.GetName]: event supporters.21"}
	title = supporters.21.t
	desc = supporters.21.d

	picture = GFX_event_lunar_republic
	is_triggered_only = yes

	option = {
		name = supporters.21.a
		add_stability = 0.05
		add_war_support = 0.05
		add_manpower = 15000
		add_popularity = {
		    ideology = fascism
		    popularity = 0.05
		}
	}
}

country_event = { #Military Frontier Formalised
	id = supporters.22
	immediate = {log = "[GetDateText]: [Root.GetName]: event supporters.22"}
	title = supporters.22.t
	desc = supporters.22.d

	picture = GFX_event_jungles
	is_triggered_only = yes

	option = {
		name = supporters.22.a
		add_stability = 0.10
		add_political_power = 75
		set_cosmetic_tag = NMS_army_government_t
		add_popularity = {
		    ideology = fascism
		    popularity = 0.05
		}
	}
}

country_event = { #Choosing an economic policy
	id = supporters.23
	immediate = {log = "[GetDateText]: [Root.GetName]: event supporters.23"}
	title = supporters.23.t
	desc = supporters.23.d

	picture = GFX_event_bank_vault
	is_triggered_only = yes

	option = {
		name = supporters.23.a
		ai_chance = {
		    factor = 50
		}
		hidden_effect = {
		    complete_national_focus = NMS_focus_on_countryside
		}
	}

	option = {
		name = supporters.23.b
		ai_chance = {
		    factor = 50
		}
		hidden_effect = {
		    complete_national_focus = NMS_focus_on_cities
		}
	}
}

country_event = { #Moonspeaker Conclave Kicks Out Stars Whirl
	id = supporters.24
	immediate = {log = "[GetDateText]: [Root.GetName]: event supporters.24"}
	title = supporters.24.t
	desc = supporters.24.d

	picture = GFX_event_luna_castle
	is_triggered_only = yes

	option = {
		name = supporters.24.a
		add_country_leader_role = {
			character = NMS_moonspeaker_conclave
			promote_leader = yes

			country_leader = {
				desc = "bat_conclave_desc"
				expire = "1965.1.1"
				ideology = theocracy_subideology
				traits = { }
			}
		}
		set_party_name = {
		    ideology = neutrality
			name = NMS_neutrality_2p_party
			long_name = NMS_neutrality_2p_party_long
		}
		set_party_name = {
		    ideology = fascism
			name = NMS_fascism_3p_party
			long_name = NMS_fascism_3p_party_long
		}
		set_politics = {
			ruling_party = neutrality
			elections_allowed = no
		}
		add_popularity = {
		    ideology = neutrality
		    popularity = 0.05
		}
		swap_ideas = {
		    remove_idea = NMS_native_resistance
			add_idea = NMS_native_resistance_4
		}
		hidden_effect = {
		    NLR = {
			    country_event = {
			        id = supporters.25
		        }
			}
			NMS_stars_whirl = {
				retire = yes
			}
			add_country_leader_role = {
				character = NMS_starry_glory
				promote_leader = yes

				country_leader = {
					desc = "bat_pelley_desc"
					expire = "1965.1.1"
					ideology = ultranationalism
					traits = { }
				}
			}
		}
	}
}

country_event = { #Nightmare Moon Is Informed That The Jungle Bats Think she's a poo-poo head
	id = supporters.25
	immediate = {log = "[GetDateText]: [Root.GetName]: event supporters.25"}
	title = supporters.25.t
	desc = supporters.25.d

	picture = GFX_event_nmm_hope
	is_triggered_only = yes

	option = {
		name = supporters.25.a
        add_political_power = -25
		ROOT = {
			add_opinion_modifier = {
			    target = FROM
			    modifier = CHN_Embargo
			}
			add_opinion_modifier = {
			    target = FROM
			    modifier = SIC_filthy_traitors
			}
		}
		hidden_effect = {
		    set_country_flag = NLR_betrayed_by_NMS
		}
	}
}

country_event = { #Gathering The Bat Tribes
	id = supporters.26
	immediate = {log = "[GetDateText]: [Root.GetName]: event supporters.26"}
	title = supporters.26.t
	desc = supporters.26.d

	picture = GFX_event_bat_ponies
	is_triggered_only = yes

	option = {
		name = supporters.26.a
		add_stability = 0.05
		add_popularity = {
		    ideology = neutrality
		    popularity = 0.03
		}
	}
}

country_event = { #Convincing The Loyalist Remnants
	id = supporters.27
	immediate = {log = "[GetDateText]: [Root.GetName]: event supporters.27"}
	title = supporters.27.t
	desc = supporters.27.d

	picture = GFX_event_bat_soldier
	is_triggered_only = yes

	option = {
		name = supporters.27.a
		add_stability = 0.03
		add_manpower = 10000
		add_popularity = {
		    ideology = fascism
		    popularity = -0.05
		}
		add_corps_commander_role = {
			character = NMS_night_dasher

			traits = { jungle_rat infantry_leader night_guard thestral_race_trait }
			skill = 3
			attack_skill = 3
			defense_skill = 2
			planning_skill = 3
			logistics_skill = 2
		} custom_effect_tooltip = NMS_night_stats_tp
		add_corps_commander_role = {
			character = NMS_silver_moon

			traits = { jungle_rat night_guard thestral_race_trait }
			skill = 3
			attack_skill = 3
			defense_skill = 2
			planning_skill = 2
			logistics_skill = 3
		} custom_effect_tooltip = NMS_silver_stats_tp
	}
}

country_event = { #All Of The Moonspeakers Arrive At Ayacachtli
	id = supporters.28
	immediate = {log = "[GetDateText]: [Root.GetName]: event supporters.28"}
	title = supporters.28.t
	desc = supporters.28.d

	picture = GFX_event_bat_soldier_flying
	is_triggered_only = yes

	option = {
		name = supporters.28.a
		add_political_power = 30
		add_popularity = {
		    ideology = neutrality
		    popularity = 0.05
		}
	}
}

country_event = { #Moonspeaker Conclave Proclaims Light Narrative Tlatoani
	id = supporters.29
	immediate = {log = "[GetDateText]: [Root.GetName]: event supporters.29"}
	title = supporters.29.t
	desc = supporters.29.d

	picture = GFX_event_luna_castle
	is_triggered_only = yes

	option = {
		name = supporters.29.a
		NMS_light_narrative = {
			set_character_name = NMS_tlatoani_acazotic_huehuetlatolli_i

			add_country_leader_role = {
				promote_leader = yes

				country_leader = {
					desc = "spiderbat_2_desc"
					expire = "1965.1.1"
					ideology = theocracy_subideology
					traits = { popular_figurehead2 }
				}
			}
        }
		add_political_power = 30
		add_popularity = {
		    ideology = neutrality
		    popularity = 0.05
		}
	}
}

country_event = { #Getting Caballeron's Help To Open Dialouge With The Neighua
	id = supporters.30
	immediate = {log = "[GetDateText]: [Root.GetName]: event supporters.30"}
	title = supporters.30.t
	desc = supporters.30.d

	picture = GFX_event_jungles_2
	is_triggered_only = yes

	option = {
		name = supporters.30.a
		add_stability = 0.03
		add_political_power = 75
		add_popularity = {
		    ideology = neutrality
		    popularity = 0.03
		}
		set_technology = {
			TOA_jungle_pioneers_support_tech = 1
		}
	}
}

country_event = { #Getting Chaffer's Help To Open Dialouge With The Baltimareans
	id = supporters.31
	immediate = {log = "[GetDateText]: [Root.GetName]: event supporters.31"}
	title = supporters.31.t
	desc = supporters.31.d

	picture = GFX_event_mare_republic
	is_triggered_only = yes

	option = {
		name = supporters.31.a
		add_stability = 0.03
		add_political_power = 50
		add_popularity = {
		    ideology = neutrality
		    popularity = 0.05
		}
		add_popularity = {
		    ideology = communism
		    popularity = 0.03
		}
		add_popularity = {
		    ideology = democratic
		    popularity = 0.02
		}
	}
}

country_event = { #Eliminating Luna/Nightmare Moon's Role In Bat Religion
	id = supporters.32
	immediate = {log = "[GetDateText]: [Root.GetName]: event supporters.32"}
	title = supporters.32.t
	desc = supporters.32.d

	picture = GFX_event_pony_statue
	is_triggered_only = yes

	option = {
		name = supporters.32.a
		add_political_power = 75
		add_popularity = {
		    ideology = fascism
		    popularity = -0.10
		}
	}
}

country_event = { #For Some Reason The Ursas Living In The South East have taken to protecting villages/communes
	id = supporters.33
	immediate = {log = "[GetDateText]: [Root.GetName]: event supporters.33"}
	title = supporters.33.t
	desc = supporters.33.d

	picture = GFX_event_medieval_village_2
	is_triggered_only = yes

	option = {
		name = supporters.33.a
		set_technology = {
			popup = no
			TEM_ursas = 1
		}
	}
}

country_event = { #Ignore this
	id = supporters.34
	immediate = {log = "[GetDateText]: [Root.GetName]: event supporters.34"}
	title = supporters.34.t
	desc = supporters.34.d

	picture = GFX_event_bat_ponies
	is_triggered_only = yes
	hidden = yes

	option = {
		name = supporters.34.a
		add_ideas = NMS_hagel_was_right_idea
	}
}

